id,name,email,password,remember_token,created_at,updated_at,school,dept,user_type,user_view
898,SP1302,yschristopher@anymail.com,$2y$10$neUcXm/YSGdv1KkEuOvpj.vSZeXiGPIm4NVRvY5KGNFpQeLW59ndW,,2018-01-07 08:09:56.265491,2018-01-07 08:09:56.265491,SMAT,IMT,staff,lecturer
899,SP1227,upmichael@anymail.com,$2y$10$neUcXm/YSGdv1KkEuOvpj.vSZeXiGPIm4NVRvY5KGNFpQeLW59ndW,,2018-01-07 08:09:56.265491,2018-01-07 08:09:56.265491,SOSC,PHY,staff,lecturer
900,SP1467,umejiroghene@anymail.com,$2y$10$neUcXm/YSGdv1KkEuOvpj.vSZeXiGPIm4NVRvY5KGNFpQeLW59ndW,,2018-01-07 08:09:56.265491,2018-01-07 08:09:56.265491,SMAT,IMT,staff,lecturer
901,SP1097,uidoris@anymail.com,$2y$10$neUcXm/YSGdv1KkEuOvpj.vSZeXiGPIm4NVRvY5KGNFpQeLW59ndW,,2018-01-07 08:09:56.265491,2018-01-07 08:09:56.265491,SEET,MEE,staff,lecturer
902,SP1267,uctochukwu@anymail.com,$2y$10$neUcXm/YSGdv1KkEuOvpj.vSZeXiGPIm4NVRvY5KGNFpQeLW59ndW,,2018-01-07 08:09:56.265491,2018-01-07 08:09:56.265491,SOGS,GST,staff,lecturer
903,SP1462,ucginika@anymail.com,$2y$10$neUcXm/YSGdv1KkEuOvpj.vSZeXiGPIm4NVRvY5KGNFpQeLW59ndW,,2018-01-07 08:09:56.265491,2018-01-07 08:09:56.265491,SMAT,IMT,staff,lecturer
904,SP1512,ubchinyere@anymail.com,$2y$10$neUcXm/YSGdv1KkEuOvpj.vSZeXiGPIm4NVRvY5KGNFpQeLW59ndW,,2018-01-07 08:09:56.265491,2018-01-07 08:09:56.265491,SEET,CIE,staff,lecturer
905,SP1287,uapatience@anymail.com,$2y$10$neUcXm/YSGdv1KkEuOvpj.vSZeXiGPIm4NVRvY5KGNFpQeLW59ndW,,2018-01-07 08:09:56.265491,2018-01-07 08:09:56.265491,SEET,CHE,staff,lecturer
906,SP1292,tomartins@anymail.com,$2y$10$neUcXm/YSGdv1KkEuOvpj.vSZeXiGPIm4NVRvY5KGNFpQeLW59ndW,,2018-01-07 08:09:56.265491,2018-01-07 08:09:56.265491,SEET,CIE,staff,lecturer
907,SP1252,tnpetronilla@anymail.com,$2y$10$neUcXm/YSGdv1KkEuOvpj.vSZeXiGPIm4NVRvY5KGNFpQeLW59ndW,,2018-01-07 08:09:56.265491,2018-01-07 08:09:56.265491,SOSC,MTH,staff,lecturer
908,SP1047,tamohammed@anymail.com,$2y$10$neUcXm/YSGdv1KkEuOvpj.vSZeXiGPIm4NVRvY5KGNFpQeLW59ndW,,2018-01-07 08:09:56.265491,2018-01-07 08:09:56.265491,SOSC,MTH,staff,lecturer
909,SP1297,sumahmoud@anymail.com,$2y$10$neUcXm/YSGdv1KkEuOvpj.vSZeXiGPIm4NVRvY5KGNFpQeLW59ndW,,2018-01-07 08:09:56.265491,2018-01-07 08:09:56.265491,SMAT,IMT,staff,lecturer
910,SP1397,sgbalarabe@anymail.com,$2y$10$neUcXm/YSGdv1KkEuOvpj.vSZeXiGPIm4NVRvY5KGNFpQeLW59ndW,,2018-01-07 08:09:56.265491,2018-01-07 08:09:56.265491,SEET,CHE,staff,lecturer
911,SP1117,sewilson@anymail.com,$2y$10$neUcXm/YSGdv1KkEuOvpj.vSZeXiGPIm4NVRvY5KGNFpQeLW59ndW,,2018-01-07 08:09:56.265491,2018-01-07 08:09:56.265491,SOSC,PHY,staff,lecturer
912,SP1122,samudasiru@anymail.com,$2y$10$neUcXm/YSGdv1KkEuOvpj.vSZeXiGPIm4NVRvY5KGNFpQeLW59ndW,,2018-01-07 08:09:56.265491,2018-01-07 08:09:56.265491,SOGS,GST,staff,lecturer
913,SP1032,ouuvie@anymail.com,$2y$10$neUcXm/YSGdv1KkEuOvpj.vSZeXiGPIm4NVRvY5KGNFpQeLW59ndW,,2018-01-07 08:09:56.265491,2018-01-07 08:09:56.265491,SMAT,IMT,staff,lecturer
914,SP1052,oustanley@anymail.com,$2y$10$neUcXm/YSGdv1KkEuOvpj.vSZeXiGPIm4NVRvY5KGNFpQeLW59ndW,,2018-01-07 08:09:56.265491,2018-01-07 08:09:56.265491,SOSC,BIO,staff,lecturer
915,SP1492,oucharles@anymail.com,$2y$10$neUcXm/YSGdv1KkEuOvpj.vSZeXiGPIm4NVRvY5KGNFpQeLW59ndW,,2018-01-07 08:09:56.265491,2018-01-07 08:09:56.265491,SOSC,BIO,staff,lecturer
916,SP1527,osossai@anymail.com,$2y$10$neUcXm/YSGdv1KkEuOvpj.vSZeXiGPIm4NVRvY5KGNFpQeLW59ndW,,2018-01-07 08:09:56.265491,2018-01-07 08:09:56.265491,SMAT,IMT,staff,lecturer
917,SP1197,osokechukwu@anymail.com,$2y$10$neUcXm/YSGdv1KkEuOvpj.vSZeXiGPIm4NVRvY5KGNFpQeLW59ndW,,2018-01-07 08:09:56.265491,2018-01-07 08:09:56.265491,SOSC,PHY,staff,lecturer
918,SP1562,oovincent@anymail.com,$2y$10$neUcXm/YSGdv1KkEuOvpj.vSZeXiGPIm4NVRvY5KGNFpQeLW59ndW,,2018-01-07 08:09:56.265491,2018-01-07 08:09:56.265491,SEET,MEE,staff,lecturer
919,SP1262,ooreginald@anymail.com,$2y$10$neUcXm/YSGdv1KkEuOvpj.vSZeXiGPIm4NVRvY5KGNFpQeLW59ndW,,2018-01-07 08:09:56.265491,2018-01-07 08:09:56.265491,SMAT,IMT,staff,lecturer
920,SP1477,ooelijah@anymail.com,$2y$10$neUcXm/YSGdv1KkEuOvpj.vSZeXiGPIm4NVRvY5KGNFpQeLW59ndW,,2018-01-07 08:09:56.265491,2018-01-07 08:09:56.265491,SMAT,PMT,staff,lecturer
921,SP1502,ooclement@anymail.com,$2y$10$neUcXm/YSGdv1KkEuOvpj.vSZeXiGPIm4NVRvY5KGNFpQeLW59ndW,,2018-01-07 08:09:56.265491,2018-01-07 08:09:56.265491,SEET,MEE,staff,lecturer
922,SP1352,ooaustin@anymail.com,$2y$10$neUcXm/YSGdv1KkEuOvpj.vSZeXiGPIm4NVRvY5KGNFpQeLW59ndW,,2018-01-07 08:09:56.265491,2018-01-07 08:09:56.265491,SMAT,PMT,staff,lecturer
923,SP1432,onselina@anymail.com,$2y$10$neUcXm/YSGdv1KkEuOvpj.vSZeXiGPIm4NVRvY5KGNFpQeLW59ndW,,2018-01-07 08:09:56.265491,2018-01-07 08:09:56.265491,SOSC,MTH,staff,lecturer
924,SP1237,onesther@anymail.com,$2y$10$neUcXm/YSGdv1KkEuOvpj.vSZeXiGPIm4NVRvY5KGNFpQeLW59ndW,,2018-01-07 08:09:56.265491,2018-01-07 08:09:56.265491,SOSC,PHY,staff,lecturer
925,SP1372,onaugustine@anymail.com,$2y$10$neUcXm/YSGdv1KkEuOvpj.vSZeXiGPIm4NVRvY5KGNFpQeLW59ndW,,2018-01-07 08:09:56.265491,2018-01-07 08:09:56.265491,SMAT,PMT,staff,lecturer
926,SP1232,okingsleypchima@anymail.com,$2y$10$neUcXm/YSGdv1KkEuOvpj.vSZeXiGPIm4NVRvY5KGNFpQeLW59ndW,,2018-01-07 08:09:56.265491,2018-01-07 08:09:56.265491,SOSC,CHM,staff,lecturer
927,SP1282,ojosaretin@anymail.com,$2y$10$neUcXm/YSGdv1KkEuOvpj.vSZeXiGPIm4NVRvY5KGNFpQeLW59ndW,,2018-01-07 08:09:56.265491,2018-01-07 08:09:56.265491,SOSC,BIO,staff,lecturer
928,SP1447,ojbasden@anymail.com,$2y$10$neUcXm/YSGdv1KkEuOvpj.vSZeXiGPIm4NVRvY5KGNFpQeLW59ndW,,2018-01-07 08:09:56.265491,2018-01-07 08:09:56.265491,SOSC,CHM,staff,lecturer
929,SP1522,oisamuel@anymail.com,$2y$10$neUcXm/YSGdv1KkEuOvpj.vSZeXiGPIm4NVRvY5KGNFpQeLW59ndW,,2018-01-07 08:09:56.265491,2018-01-07 08:09:56.265491,SOSC,BIO,staff,lecturer
930,SP1247,oihenry@anymail.com,$2y$10$neUcXm/YSGdv1KkEuOvpj.vSZeXiGPIm4NVRvY5KGNFpQeLW59ndW,,2018-01-07 08:09:56.265491,2018-01-07 08:09:56.265491,SOSC,MTH,staff,lecturer
931,SP1412,oiemmanuel@anymail.com,$2y$10$neUcXm/YSGdv1KkEuOvpj.vSZeXiGPIm4NVRvY5KGNFpQeLW59ndW,,2018-01-07 08:09:56.265491,2018-01-07 08:09:56.265491,SEET,MEE,staff,lecturer
932,SP1482,oibasil@anymail.com,$2y$10$neUcXm/YSGdv1KkEuOvpj.vSZeXiGPIm4NVRvY5KGNFpQeLW59ndW,,2018-01-07 08:09:56.265491,2018-01-07 08:09:56.265491,SEET,CIE,staff,lecturer
933,SP1357,oiangela@anymail.com,$2y$10$neUcXm/YSGdv1KkEuOvpj.vSZeXiGPIm4NVRvY5KGNFpQeLW59ndW,,2018-01-07 08:09:56.265491,2018-01-07 08:09:56.265491,SEET,CHE,staff,lecturer
934,SP1367,oialbert@anymail.com,$2y$10$neUcXm/YSGdv1KkEuOvpj.vSZeXiGPIm4NVRvY5KGNFpQeLW59ndW,,2018-01-07 08:09:56.265491,2018-01-07 08:09:56.265491,SOSC,MTH,staff,lecturer
935,SP1572,ogoladimeji@anymail.com,$2y$10$neUcXm/YSGdv1KkEuOvpj.vSZeXiGPIm4NVRvY5KGNFpQeLW59ndW,,2018-01-07 08:09:56.265491,2018-01-07 08:09:56.265491,SMAT,IMT,staff,lecturer
936,SP1162,oevincent@anymail.com,$2y$10$neUcXm/YSGdv1KkEuOvpj.vSZeXiGPIm4NVRvY5KGNFpQeLW59ndW,,2018-01-07 08:09:56.265491,2018-01-07 08:09:56.265491,SOSC,PHY,staff,lecturer
937,SP1042,oebarbara@anymail.com,$2y$10$neUcXm/YSGdv1KkEuOvpj.vSZeXiGPIm4NVRvY5KGNFpQeLW59ndW,,2018-01-07 08:09:56.265491,2018-01-07 08:09:56.265491,SEET,CHE,staff,lecturer
938,SP1362,odpeter@anymail.com,$2y$10$neUcXm/YSGdv1KkEuOvpj.vSZeXiGPIm4NVRvY5KGNFpQeLW59ndW,,2018-01-07 08:09:56.265491,2018-01-07 08:09:56.265491,SEET,CIE,staff,lecturer
939,SP1102,ocoluwafunke@anymail.com,$2y$10$neUcXm/YSGdv1KkEuOvpj.vSZeXiGPIm4NVRvY5KGNFpQeLW59ndW,,2018-01-07 08:09:56.265491,2018-01-07 08:09:56.265491,SMAT,IMT,staff,lecturer
940,SP1337,ocndudim@anymail.com,$2y$10$neUcXm/YSGdv1KkEuOvpj.vSZeXiGPIm4NVRvY5KGNFpQeLW59ndW,,2018-01-07 08:09:56.265491,2018-01-07 08:09:56.265491,SOGS,GST,staff,lecturer
941,SP1202,ocfaith@anymail.com,$2y$10$neUcXm/YSGdv1KkEuOvpj.vSZeXiGPIm4NVRvY5KGNFpQeLW59ndW,,2018-01-07 08:09:56.265491,2018-01-07 08:09:56.265491,SEET,MEE,staff,lecturer
942,SP1452,ocesther@anymail.com,$2y$10$neUcXm/YSGdv1KkEuOvpj.vSZeXiGPIm4NVRvY5KGNFpQeLW59ndW,,2018-01-07 08:09:56.265491,2018-01-07 08:09:56.265491,SOSC,MTH,staff,lecturer
943,SP1312,obdike@anymail.com,$2y$10$neUcXm/YSGdv1KkEuOvpj.vSZeXiGPIm4NVRvY5KGNFpQeLW59ndW,,2018-01-07 08:09:56.265491,2018-01-07 08:09:56.265491,SEET,MEE,staff,lecturer
944,SP1332,obayodele@anymail.com,$2y$10$neUcXm/YSGdv1KkEuOvpj.vSZeXiGPIm4NVRvY5KGNFpQeLW59ndW,,2018-01-07 08:09:56.265491,2018-01-07 08:09:56.265491,SOSC,CHM,staff,lecturer
945,SP1472,oavictor@anymail.com,$2y$10$neUcXm/YSGdv1KkEuOvpj.vSZeXiGPIm4NVRvY5KGNFpQeLW59ndW,,2018-01-07 08:09:56.265491,2018-01-07 08:09:56.265491,SOGS,GST,staff,lecturer
946,SP1567,oaadeola@anymail.com,$2y$10$neUcXm/YSGdv1KkEuOvpj.vSZeXiGPIm4NVRvY5KGNFpQeLW59ndW,,2018-01-07 08:09:56.265491,2018-01-07 08:09:56.265491,SOSC,BIO,staff,lecturer
947,SP1157,nuchibundo@anymail.com,$2y$10$neUcXm/YSGdv1KkEuOvpj.vSZeXiGPIm4NVRvY5KGNFpQeLW59ndW,,2018-01-07 08:09:56.265491,2018-01-07 08:09:56.265491,SMAT,PMT,staff,lecturer
948,SP1177,nnandrew@anymail.com,$2y$10$neUcXm/YSGdv1KkEuOvpj.vSZeXiGPIm4NVRvY5KGNFpQeLW59ndW,,2018-01-07 08:09:56.265491,2018-01-07 08:09:56.265491,SOSC,CHM,staff,lecturer
949,SP1327,nechibuike@anymail.com,$2y$10$neUcXm/YSGdv1KkEuOvpj.vSZeXiGPIm4NVRvY5KGNFpQeLW59ndW,,2018-01-07 08:09:56.265491,2018-01-07 08:09:56.265491,SMAT,PMT,staff,lecturer
950,SP1017,nachima@anymail.com,$2y$10$neUcXm/YSGdv1KkEuOvpj.vSZeXiGPIm4NVRvY5KGNFpQeLW59ndW,,2018-01-07 08:09:56.265491,2018-01-07 08:09:56.265491,SEET,CHE,staff,lecturer
951,SP1272,msmuhammad@anymail.com,$2y$10$neUcXm/YSGdv1KkEuOvpj.vSZeXiGPIm4NVRvY5KGNFpQeLW59ndW,,2018-01-07 08:09:56.265491,2018-01-07 08:09:56.265491,SOSC,BIO,staff,lecturer
952,SP1547,mkkamilu@anymail.com,$2y$10$neUcXm/YSGdv1KkEuOvpj.vSZeXiGPIm4NVRvY5KGNFpQeLW59ndW,,2018-01-07 08:09:56.265491,2018-01-07 08:09:56.265491,SEET,CIE,staff,lecturer
953,SP1037,mcogechi@anymail.com,$2y$10$neUcXm/YSGdv1KkEuOvpj.vSZeXiGPIm4NVRvY5KGNFpQeLW59ndW,,2018-01-07 08:09:56.265491,2018-01-07 08:09:56.265491,SMAT,PMT,staff,lecturer
954,SP1307,kmphilip@anymail.com,$2y$10$neUcXm/YSGdv1KkEuOvpj.vSZeXiGPIm4NVRvY5KGNFpQeLW59ndW,,2018-01-07 08:09:56.265491,2018-01-07 08:09:56.265491,SEET,MEE,staff,lecturer
955,SP1127,kmkamilu@anymail.com,$2y$10$neUcXm/YSGdv1KkEuOvpj.vSZeXiGPIm4NVRvY5KGNFpQeLW59ndW,,2018-01-07 08:09:56.265491,2018-01-07 08:09:56.265491,SEET,CHE,staff,lecturer
956,SP1092,kaibrahim@anymail.com,$2y$10$neUcXm/YSGdv1KkEuOvpj.vSZeXiGPIm4NVRvY5KGNFpQeLW59ndW,,2018-01-07 08:09:56.265491,2018-01-07 08:09:56.265491,SMAT,PMT,staff,lecturer
957,SP1167,jcevelyn@anymail.com,$2y$10$neUcXm/YSGdv1KkEuOvpj.vSZeXiGPIm4NVRvY5KGNFpQeLW59ndW,,2018-01-07 08:09:56.265491,2018-01-07 08:09:56.265491,SEET,CHE,staff,lecturer
958,SP1107,ismuhammmad@anymail.com,$2y$10$neUcXm/YSGdv1KkEuOvpj.vSZeXiGPIm4NVRvY5KGNFpQeLW59ndW,,2018-01-07 08:09:56.265491,2018-01-07 08:09:56.265491,SOSC,PHY,staff,lecturer
959,SP1382,ioolukemi@anymail.com,$2y$10$neUcXm/YSGdv1KkEuOvpj.vSZeXiGPIm4NVRvY5KGNFpQeLW59ndW,,2018-01-07 08:09:56.265491,2018-01-07 08:09:56.265491,SOSC,BIO,staff,lecturer
960,SP1317,ioemmanuel@anymail.com,$2y$10$neUcXm/YSGdv1KkEuOvpj.vSZeXiGPIm4NVRvY5KGNFpQeLW59ndW,,2018-01-07 08:09:56.265491,2018-01-07 08:09:56.265491,SOSC,MTH,staff,lecturer
961,SP1537,iigodsent@anymail.com,$2y$10$neUcXm/YSGdv1KkEuOvpj.vSZeXiGPIm4NVRvY5KGNFpQeLW59ndW,,2018-01-07 08:09:56.265491,2018-01-07 08:09:56.265491,SOSC,CHM,staff,lecturer
962,SP1087,icvincent@anymail.com,$2y$10$neUcXm/YSGdv1KkEuOvpj.vSZeXiGPIm4NVRvY5KGNFpQeLW59ndW,,2018-01-07 08:09:56.265491,2018-01-07 08:09:56.265491,SEET,MEE,staff,lecturer
963,SP1057,icanthonia@anymail.com,$2y$10$neUcXm/YSGdv1KkEuOvpj.vSZeXiGPIm4NVRvY5KGNFpQeLW59ndW,,2018-01-07 08:09:56.265491,2018-01-07 08:09:56.265491,SEET,CIE,staff,lecturer
964,SP1082,iasamuel@anymail.com,$2y$10$neUcXm/YSGdv1KkEuOvpj.vSZeXiGPIm4NVRvY5KGNFpQeLW59ndW,,2018-01-07 08:09:56.265491,2018-01-07 08:09:56.265491,SEET,CIE,staff,lecturer
965,SP1402,ianneka@anymail.com,$2y$10$neUcXm/YSGdv1KkEuOvpj.vSZeXiGPIm4NVRvY5KGNFpQeLW59ndW,,2018-01-07 08:09:56.265491,2018-01-07 08:09:56.265491,SEET,CHE,staff,lecturer
966,SP1457,foayodele@anymail.com,$2y$10$neUcXm/YSGdv1KkEuOvpj.vSZeXiGPIm4NVRvY5KGNFpQeLW59ndW,,2018-01-07 08:09:56.265491,2018-01-07 08:09:56.265491,SOSC,BIO,staff,lecturer
967,SP1497,fboluranti@anymail.com,$2y$10$neUcXm/YSGdv1KkEuOvpj.vSZeXiGPIm4NVRvY5KGNFpQeLW59ndW,,2018-01-07 08:09:56.265491,2018-01-07 08:09:56.265491,SMAT,IMT,staff,lecturer
968,SP1277,euemmanuel@anymail.com,$2y$10$neUcXm/YSGdv1KkEuOvpj.vSZeXiGPIm4NVRvY5KGNFpQeLW59ndW,,2018-01-07 08:09:56.265491,2018-01-07 08:09:56.265491,SOSC,BIO,staff,lecturer
969,SP1552,esuriah@anymail.com,$2y$10$neUcXm/YSGdv1KkEuOvpj.vSZeXiGPIm4NVRvY5KGNFpQeLW59ndW,,2018-01-07 08:09:56.265491,2018-01-07 08:09:56.265491,SOSC,PHY,staff,lecturer
970,SP1347,epmadubueze@anymail.com,$2y$10$neUcXm/YSGdv1KkEuOvpj.vSZeXiGPIm4NVRvY5KGNFpQeLW59ndW,,2018-01-07 08:09:56.265491,2018-01-07 08:09:56.265491,SMAT,IMT,staff,lecturer
971,SP1187,ecjohn@anymail.com,$2y$10$neUcXm/YSGdv1KkEuOvpj.vSZeXiGPIm4NVRvY5KGNFpQeLW59ndW,,2018-01-07 08:09:56.265491,2018-01-07 08:09:56.265491,SOSC,MTH,staff,lecturer
972,SP1342,echumphrey@anymail.com,$2y$10$neUcXm/YSGdv1KkEuOvpj.vSZeXiGPIm4NVRvY5KGNFpQeLW59ndW,,2018-01-07 08:09:56.265491,2018-01-07 08:09:56.265491,SOSC,MTH,staff,lecturer
973,SP1142,ecanthony@anymail.com,$2y$10$neUcXm/YSGdv1KkEuOvpj.vSZeXiGPIm4NVRvY5KGNFpQeLW59ndW,,2018-01-07 08:09:56.265491,2018-01-07 08:09:56.265491,SOSC,CHM,staff,lecturer
974,SP1427,easunday@anymail.com,$2y$10$neUcXm/YSGdv1KkEuOvpj.vSZeXiGPIm4NVRvY5KGNFpQeLW59ndW,,2018-01-07 08:09:56.265491,2018-01-07 08:09:56.265491,SOSC,CHM,staff,lecturer
975,SP1487,dssolomon@anymail.com,$2y$10$neUcXm/YSGdv1KkEuOvpj.vSZeXiGPIm4NVRvY5KGNFpQeLW59ndW,,2018-01-07 08:09:56.265491,2018-01-07 08:09:56.265491,SMAT,PMT,staff,lecturer
976,SP1392,dizira@anymail.com,$2y$10$neUcXm/YSGdv1KkEuOvpj.vSZeXiGPIm4NVRvY5KGNFpQeLW59ndW,,2018-01-07 08:09:56.265491,2018-01-07 08:09:56.265491,SEET,MEE,staff,lecturer
977,SP1207,daadekola@anymail.com,$2y$10$neUcXm/YSGdv1KkEuOvpj.vSZeXiGPIm4NVRvY5KGNFpQeLW59ndW,,2018-01-07 08:09:56.265491,2018-01-07 08:09:56.265491,SEET,CIE,staff,lecturer
978,SP1152,ckcaleb@anymail.com,$2y$10$neUcXm/YSGdv1KkEuOvpj.vSZeXiGPIm4NVRvY5KGNFpQeLW59ndW,,2018-01-07 08:09:56.265491,2018-01-07 08:09:56.265491,SEET,MEE,staff,lecturer
979,SP1557,caciroma@anymail.com,$2y$10$neUcXm/YSGdv1KkEuOvpj.vSZeXiGPIm4NVRvY5KGNFpQeLW59ndW,,2018-01-07 08:09:56.265491,2018-01-07 08:09:56.265491,SOSC,BIO,staff,lecturer
980,SP1112,bode-tafidelia@anymail.com,$2y$10$neUcXm/YSGdv1KkEuOvpj.vSZeXiGPIm4NVRvY5KGNFpQeLW59ndW,,2018-01-07 08:09:56.265491,2018-01-07 08:09:56.265491,SOSC,PHY,staff,lecturer
981,SP1387,benancy@anymail.com,$2y$10$neUcXm/YSGdv1KkEuOvpj.vSZeXiGPIm4NVRvY5KGNFpQeLW59ndW,,2018-01-07 08:09:56.265491,2018-01-07 08:09:56.265491,SOSC,PHY,staff,lecturer
982,SP1507,bbiretiola@anymail.com,$2y$10$neUcXm/YSGdv1KkEuOvpj.vSZeXiGPIm4NVRvY5KGNFpQeLW59ndW,,2018-01-07 08:09:56.265491,2018-01-07 08:09:56.265491,SMAT,PMT,staff,lecturer
983,SP1407,armacleans@anymail.com,$2y$10$neUcXm/YSGdv1KkEuOvpj.vSZeXiGPIm4NVRvY5KGNFpQeLW59ndW,,2018-01-07 08:09:56.265491,2018-01-07 08:09:56.265491,SOSC,CHM,staff,lecturer
984,SP1417,apolayinka@anymail.com,$2y$10$neUcXm/YSGdv1KkEuOvpj.vSZeXiGPIm4NVRvY5KGNFpQeLW59ndW,,2018-01-07 08:09:56.265491,2018-01-07 08:09:56.265491,SOSC,MTH,staff,lecturer
985,SP1222,aovictor@anymail.com,$2y$10$neUcXm/YSGdv1KkEuOvpj.vSZeXiGPIm4NVRvY5KGNFpQeLW59ndW,,2018-01-07 08:09:56.265491,2018-01-07 08:09:56.265491,SOSC,CHM,staff,lecturer
986,SP1147,aoraphael@anymail.com,$2y$10$neUcXm/YSGdv1KkEuOvpj.vSZeXiGPIm4NVRvY5KGNFpQeLW59ndW,,2018-01-07 08:09:56.265491,2018-01-07 08:09:56.265491,SEET,MEE,staff,lecturer
987,SP1182,aopeter@anymail.com,$2y$10$neUcXm/YSGdv1KkEuOvpj.vSZeXiGPIm4NVRvY5KGNFpQeLW59ndW,,2018-01-07 08:09:56.265491,2018-01-07 08:09:56.265491,SEET,CHE,staff,lecturer
988,SP1217,aomustafa@anymail.com,$2y$10$neUcXm/YSGdv1KkEuOvpj.vSZeXiGPIm4NVRvY5KGNFpQeLW59ndW,,2018-01-07 08:09:56.265491,2018-01-07 08:09:56.265491,SOSC,CHM,staff,lecturer
989,SP1442,aofolashade@anymail.com,$2y$10$neUcXm/YSGdv1KkEuOvpj.vSZeXiGPIm4NVRvY5KGNFpQeLW59ndW,,2018-01-07 08:09:56.265491,2018-01-07 08:09:56.265491,SOSC,PHY,staff,lecturer
990,SP1577,aoanthony@anymail.com,$2y$10$neUcXm/YSGdv1KkEuOvpj.vSZeXiGPIm4NVRvY5KGNFpQeLW59ndW,,2018-01-07 08:09:56.265491,2018-01-07 08:09:56.265491,SOGS,GST,staff,lecturer
991,SP1517,amibrahim@anymail.com,$2y$10$neUcXm/YSGdv1KkEuOvpj.vSZeXiGPIm4NVRvY5KGNFpQeLW59ndW,,2018-01-07 08:09:56.265491,2018-01-07 08:09:56.265491,SMAT,PMT,staff,lecturer
992,SP1532,akolagoke@anymail.com,$2y$10$neUcXm/YSGdv1KkEuOvpj.vSZeXiGPIm4NVRvY5KGNFpQeLW59ndW,,2018-01-07 08:09:56.265491,2018-01-07 08:09:56.265491,SOGS,GST,staff,lecturer
993,SP1242,akadedeji@anymail.com,$2y$10$neUcXm/YSGdv1KkEuOvpj.vSZeXiGPIm4NVRvY5KGNFpQeLW59ndW,,2018-01-07 08:09:56.265491,2018-01-07 08:09:56.265491,SOSC,MTH,staff,lecturer
994,SP1072,aigladys@anymail.com,$2y$10$neUcXm/YSGdv1KkEuOvpj.vSZeXiGPIm4NVRvY5KGNFpQeLW59ndW,,2018-01-07 08:09:56.265491,2018-01-07 08:09:56.265491,SOSC,CHM,staff,lecturer
995,SP1067,aifrederick@anymail.com,$2y$10$neUcXm/YSGdv1KkEuOvpj.vSZeXiGPIm4NVRvY5KGNFpQeLW59ndW,,2018-01-07 08:09:56.265491,2018-01-07 08:09:56.265491,SOSC,BIO,staff,lecturer
996,SP1437,agumar@anymail.com,$2y$10$neUcXm/YSGdv1KkEuOvpj.vSZeXiGPIm4NVRvY5KGNFpQeLW59ndW,,2018-01-07 08:09:56.265491,2018-01-07 08:09:56.265491,SEET,CIE,staff,lecturer
997,SP1022,aegandhi@anymail.com,$2y$10$neUcXm/YSGdv1KkEuOvpj.vSZeXiGPIm4NVRvY5KGNFpQeLW59ndW,,2018-01-07 08:09:56.265491,2018-01-07 08:09:56.265491,SEET,MEE,staff,lecturer
998,SP1137,aedodo@anymail.com,$2y$10$neUcXm/YSGdv1KkEuOvpj.vSZeXiGPIm4NVRvY5KGNFpQeLW59ndW,,2018-01-07 08:09:56.265491,2018-01-07 08:09:56.265491,SMAT,IMT,staff,lecturer
999,SP1422,aeadedeji@anymail.com,$2y$10$neUcXm/YSGdv1KkEuOvpj.vSZeXiGPIm4NVRvY5KGNFpQeLW59ndW,,2018-01-07 08:09:56.265491,2018-01-07 08:09:56.265491,SOSC,PHY,staff,lecturer
1000,SP1077,acpascal@anymail.com,$2y$10$neUcXm/YSGdv1KkEuOvpj.vSZeXiGPIm4NVRvY5KGNFpQeLW59ndW,,2018-01-07 08:09:56.265491,2018-01-07 08:09:56.265491,SEET,CIE,staff,lecturer
1001,SP1322,acmartin@anymail.com,$2y$10$neUcXm/YSGdv1KkEuOvpj.vSZeXiGPIm4NVRvY5KGNFpQeLW59ndW,,2018-01-07 08:09:56.265491,2018-01-07 08:09:56.265491,SMAT,PMT,staff,lecturer
1002,SP1257,achumphrey@anymail.com,$2y$10$neUcXm/YSGdv1KkEuOvpj.vSZeXiGPIm4NVRvY5KGNFpQeLW59ndW,,2018-01-07 08:09:56.265491,2018-01-07 08:09:56.265491,SOSC,BIO,staff,lecturer
1003,SP1012,acbenedict@anymail.com,$2y$10$neUcXm/YSGdv1KkEuOvpj.vSZeXiGPIm4NVRvY5KGNFpQeLW59ndW,,2018-01-07 08:09:56.265491,2018-01-07 08:09:56.265491,SEET,CHE,staff,lecturer
1004,SP1132,abyahaya@anymail.com,$2y$10$neUcXm/YSGdv1KkEuOvpj.vSZeXiGPIm4NVRvY5KGNFpQeLW59ndW,,2018-01-07 08:09:56.265491,2018-01-07 08:09:56.265491,SEET,CHE,staff,lecturer
1005,SP1062,aarasaaq@anymail.com,$2y$10$neUcXm/YSGdv1KkEuOvpj.vSZeXiGPIm4NVRvY5KGNFpQeLW59ndW,,2018-01-07 08:09:56.265491,2018-01-07 08:09:56.265491,SEET,CHE,staff,lecturer
1006,SP1212,aaoluwole@anymail.com,$2y$10$neUcXm/YSGdv1KkEuOvpj.vSZeXiGPIm4NVRvY5KGNFpQeLW59ndW,,2018-01-07 08:09:56.265491,2018-01-07 08:09:56.265491,SOSC,CHM,staff,lecturer
1007,SP1192,aamohaamed@anymail.com,$2y$10$neUcXm/YSGdv1KkEuOvpj.vSZeXiGPIm4NVRvY5KGNFpQeLW59ndW,,2018-01-07 08:09:56.265491,2018-01-07 08:09:56.265491,SMAT,PMT,staff,lecturer
1008,SP1542,aamatthew@anymail.com,$2y$10$neUcXm/YSGdv1KkEuOvpj.vSZeXiGPIm4NVRvY5KGNFpQeLW59ndW,,2018-01-07 08:09:56.265491,2018-01-07 08:09:56.265491,SOSC,PHY,staff,lecturer
1009,SP1377,aaebenezer@anymail.com,$2y$10$neUcXm/YSGdv1KkEuOvpj.vSZeXiGPIm4NVRvY5KGNFpQeLW59ndW,,2018-01-07 08:09:56.265491,2018-01-07 08:09:56.265491,SEET,CIE,staff,lecturer
1010,SP1027,aaadeyemi@anymail.com,$2y$10$neUcXm/YSGdv1KkEuOvpj.vSZeXiGPIm4NVRvY5KGNFpQeLW59ndW,,2018-01-07 08:09:56.265491,2018-01-07 08:09:56.265491,SOSC,MTH,staff,lecturer
1011,SP1172,aaabiodun@anymail.com,$2y$10$neUcXm/YSGdv1KkEuOvpj.vSZeXiGPIm4NVRvY5KGNFpQeLW59ndW,,2018-01-07 08:09:56.265491,2018-01-07 08:09:56.265491,SEET,CIE,staff,lecturer
1012,20161015290,igbannyjuloma@anymail.culomam,$2y$10$neUcXm/YSGdv1KkEuOvpj.vSZeXiGPIm4NVRvY5KGNFpQeLW59ndW,,2018-01-07 08:09:56.265491,2018-01-07 08:09:56.265491,SEET,CHE,undergraduate,
1013,20163055245,ezeokoliajacinta@anymail.cjacintam,$2y$10$neUcXm/YSGdv1KkEuOvpj.vSZeXiGPIm4NVRvY5KGNFpQeLW59ndW,,2018-01-07 08:09:56.265491,2018-01-07 08:09:56.265491,SEET,CHE,undergraduate,
1014,20161025275,paulcchikamso@anymail.cchikamsom,$2y$10$neUcXm/YSGdv1KkEuOvpj.vSZeXiGPIm4NVRvY5KGNFpQeLW59ndW,,2018-01-07 08:09:56.265491,2018-01-07 08:09:56.265491,SOSC,BIO,undergraduate,
1015,20161020260,anthonynchibuzor@anymail.cchibuzorm,$2y$10$neUcXm/YSGdv1KkEuOvpj.vSZeXiGPIm4NVRvY5KGNFpQeLW59ndW,,2018-01-07 08:09:56.265491,2018-01-07 08:09:56.265491,SEET,CIE,undergraduate,
1016,20163055230,ezenwasa@anymail.cam,$2y$10$neUcXm/YSGdv1KkEuOvpj.vSZeXiGPIm4NVRvY5KGNFpQeLW59ndW,,2018-01-07 08:09:56.265491,2018-01-07 08:09:56.265491,SOSC,MTH,undergraduate,
1017,20163050215,olehoprecious@anymail.cpreciousm,$2y$10$neUcXm/YSGdv1KkEuOvpj.vSZeXiGPIm4NVRvY5KGNFpQeLW59ndW,,2018-01-07 08:09:56.265491,2018-01-07 08:09:56.265491,SEET,MEE,undergraduate,
1018,20163055200,nwanyanwufc@anymail.ccm,$2y$10$neUcXm/YSGdv1KkEuOvpj.vSZeXiGPIm4NVRvY5KGNFpQeLW59ndW,,2018-01-07 08:09:56.265491,2018-01-07 08:09:56.265491,SEET,MEE,undergraduate,
1019,20163050185,obioramtobechukwu@anymail.ctobechukwum,$2y$10$neUcXm/YSGdv1KkEuOvpj.vSZeXiGPIm4NVRvY5KGNFpQeLW59ndW,,2018-01-07 08:09:56.265491,2018-01-07 08:09:56.265491,SOSC,MTH,undergraduate,
1020,20163045170,umunnabuikejt@anymail.ctm,$2y$10$neUcXm/YSGdv1KkEuOvpj.vSZeXiGPIm4NVRvY5KGNFpQeLW59ndW,,2018-01-07 08:09:56.265491,2018-01-07 08:09:56.265491,SMAT,PMT,undergraduate,
1021,20161015245,ibegbulamizuchukwu@anymail.com,$2y$10$neUcXm/YSGdv1KkEuOvpj.vSZeXiGPIm4NVRvY5KGNFpQeLW59ndW,,2018-01-07 08:09:56.265491,2018-01-07 08:09:56.265491,SMAT,IMT,undergraduate,
1022,20163045155,iregbuemmanuela@anymail.com,$2y$10$neUcXm/YSGdv1KkEuOvpj.vSZeXiGPIm4NVRvY5KGNFpQeLW59ndW,,2018-01-07 08:09:56.265491,2018-01-07 08:09:56.265491,SOSC,CHM,undergraduate,
1023,20161030230,chimarokenz@anymail.czm,$2y$10$neUcXm/YSGdv1KkEuOvpj.vSZeXiGPIm4NVRvY5KGNFpQeLW59ndW,,2018-01-07 08:09:56.265491,2018-01-07 08:09:56.265491,SOSC,BIO,undergraduate,
1024,20162040110,fedrickcezenwa@anymail.cezenwam,$2y$10$neUcXm/YSGdv1KkEuOvpj.vSZeXiGPIm4NVRvY5KGNFpQeLW59ndW,,2018-01-07 08:09:56.265491,2018-01-07 08:09:56.265491,SOSC,BIO,undergraduate,
1025,20161025215,okonnamercy@anymail.com,$2y$10$neUcXm/YSGdv1KkEuOvpj.vSZeXiGPIm4NVRvY5KGNFpQeLW59ndW,,2018-01-07 08:09:56.265491,2018-01-07 08:09:56.265491,SEET,CHE,undergraduate,
1026,20161025200,olubunmui-thomasgo@anymail.com,$2y$10$neUcXm/YSGdv1KkEuOvpj.vSZeXiGPIm4NVRvY5KGNFpQeLW59ndW,,2018-01-07 08:09:56.265491,2018-01-07 08:09:56.265491,SEET,MEE,undergraduate,
1027,20161025185,iheanachougochi@anymail.com,$2y$10$neUcXm/YSGdv1KkEuOvpj.vSZeXiGPIm4NVRvY5KGNFpQeLW59ndW,,2018-01-07 08:09:56.265491,2018-01-07 08:09:56.265491,SOSC,BIO,undergraduate,
1028,20161015170,ndubuezeikenna@anymail.com,$2y$10$neUcXm/YSGdv1KkEuOvpj.vSZeXiGPIm4NVRvY5KGNFpQeLW59ndW,,2018-01-07 08:09:56.265491,2018-01-07 08:09:56.265491,SOSC,PHY,undergraduate,
1029,20163045140,cletusmunachi@anymail.com,$2y$10$neUcXm/YSGdv1KkEuOvpj.vSZeXiGPIm4NVRvY5KGNFpQeLW59ndW,,2018-01-07 08:09:56.265491,2018-01-07 08:09:56.265491,SOSC,PHY,undergraduate,
1030,20161030155,nwadikepaschal@anymail.com,$2y$10$neUcXm/YSGdv1KkEuOvpj.vSZeXiGPIm4NVRvY5KGNFpQeLW59ndW,,2018-01-07 08:09:56.265491,2018-01-07 08:09:56.265491,SOSC,BIO,undergraduate,
1031,20163050125,nwanyalilian@anymail.com,$2y$10$neUcXm/YSGdv1KkEuOvpj.vSZeXiGPIm4NVRvY5KGNFpQeLW59ndW,,2018-01-07 08:09:56.265491,2018-01-07 08:09:56.265491,SOSC,CHM,undergraduate,
1032,20162040095,onyechereeberechi@anymail.com,$2y$10$neUcXm/YSGdv1KkEuOvpj.vSZeXiGPIm4NVRvY5KGNFpQeLW59ndW,,2018-01-07 08:09:56.265491,2018-01-07 08:09:56.265491,SOSC,MTH,undergraduate,
1033,20162040080,azuikechijioke@anymail.com,$2y$10$neUcXm/YSGdv1KkEuOvpj.vSZeXiGPIm4NVRvY5KGNFpQeLW59ndW,,2018-01-07 08:09:56.265491,2018-01-07 08:09:56.265491,SOSC,BIO,undergraduate,
1034,20163045110,solomonfo@anymail.com,$2y$10$neUcXm/YSGdv1KkEuOvpj.vSZeXiGPIm4NVRvY5KGNFpQeLW59ndW,,2018-01-07 08:09:56.265491,2018-01-07 08:09:56.265491,SEET,CIE,undergraduate,
1035,20163045095,ezenachukwuvn@anymail.cnm,$2y$10$neUcXm/YSGdv1KkEuOvpj.vSZeXiGPIm4NVRvY5KGNFpQeLW59ndW,,2018-01-07 08:09:56.265491,2018-01-07 08:09:56.265491,SOSC,CHM,undergraduate,
1036,20162040065,udohemediong@anymail.com,$2y$10$neUcXm/YSGdv1KkEuOvpj.vSZeXiGPIm4NVRvY5KGNFpQeLW59ndW,,2018-01-07 08:09:56.265491,2018-01-07 08:09:56.265491,SMAT,PMT,undergraduate,
1037,20161015140,umunabuikejohnbosco@anymail.com,$2y$10$neUcXm/YSGdv1KkEuOvpj.vSZeXiGPIm4NVRvY5KGNFpQeLW59ndW,,2018-01-07 08:09:56.265491,2018-01-07 08:09:56.265491,SEET,MEE,undergraduate,
1038,20162040050,echiclifford@anymail.com,$2y$10$neUcXm/YSGdv1KkEuOvpj.vSZeXiGPIm4NVRvY5KGNFpQeLW59ndW,,2018-01-07 08:09:56.265491,2018-01-07 08:09:56.265491,SMAT,PMT,undergraduate,
1039,20161030125,dikeifeanyi@anymail.com,$2y$10$neUcXm/YSGdv1KkEuOvpj.vSZeXiGPIm4NVRvY5KGNFpQeLW59ndW,,2018-01-07 08:09:56.265491,2018-01-07 08:09:56.265491,SMAT,IMT,undergraduate,
1040,20161025110,ikehenry@anymail.com,$2y$10$neUcXm/YSGdv1KkEuOvpj.vSZeXiGPIm4NVRvY5KGNFpQeLW59ndW,,2018-01-07 08:09:56.265491,2018-01-07 08:09:56.265491,SOSC,BIO,undergraduate,
1041,20163050080,richardchigoziek@anymail.com,$2y$10$neUcXm/YSGdv1KkEuOvpj.vSZeXiGPIm4NVRvY5KGNFpQeLW59ndW,,2018-01-07 08:09:56.265491,2018-01-07 08:09:56.265491,SEET,CIE,undergraduate,
1042,20163055065,igbojianyaoluchi@anymail.com,$2y$10$neUcXm/YSGdv1KkEuOvpj.vSZeXiGPIm4NVRvY5KGNFpQeLW59ndW,,2018-01-07 08:09:56.265491,2018-01-07 08:09:56.265491,SOSC,PHY,undergraduate,
1043,20163045050,onwumereconfidence@anymail.com,$2y$10$neUcXm/YSGdv1KkEuOvpj.vSZeXiGPIm4NVRvY5KGNFpQeLW59ndW,,2018-01-07 08:09:56.265491,2018-01-07 08:09:56.265491,SOSC,CHM,undergraduate,
1044,20161020095,uchenn@anymail.cnm,$2y$10$neUcXm/YSGdv1KkEuOvpj.vSZeXiGPIm4NVRvY5KGNFpQeLW59ndW,,2018-01-07 08:09:56.265491,2018-01-07 08:09:56.265491,SMAT,IMT,undergraduate,
1045,20161015080,obujiachiwendu@anymail.com,$2y$10$neUcXm/YSGdv1KkEuOvpj.vSZeXiGPIm4NVRvY5KGNFpQeLW59ndW,,2018-01-07 08:09:56.265491,2018-01-07 08:09:56.265491,SOSC,MTH,undergraduate,
1046,20161030065,okaforce@anymail.cem,$2y$10$neUcXm/YSGdv1KkEuOvpj.vSZeXiGPIm4NVRvY5KGNFpQeLW59ndW,,2018-01-07 08:09:56.265491,2018-01-07 08:09:56.265491,SMAT,PMT,undergraduate,
1047,20161015050,ikonneku@anymail.cum,$2y$10$neUcXm/YSGdv1KkEuOvpj.vSZeXiGPIm4NVRvY5KGNFpQeLW59ndW,,2018-01-07 08:09:56.265491,2018-01-07 08:09:56.265491,SEET,CHE,undergraduate,
1048,20163055035,okoroaforsamuel@anymail.com,$2y$10$neUcXm/YSGdv1KkEuOvpj.vSZeXiGPIm4NVRvY5KGNFpQeLW59ndW,,2018-01-07 08:09:56.265491,2018-01-07 08:09:56.265491,SEET,CIE,undergraduate,
1049,20163045020,chimeziefc@anymail.ccm,$2y$10$neUcXm/YSGdv1KkEuOvpj.vSZeXiGPIm4NVRvY5KGNFpQeLW59ndW,,2018-01-07 08:09:56.265491,2018-01-07 08:09:56.265491,SEET,CHE,undergraduate,
1050,20161020035,uwattuudeme@anymail.cudemem,$2y$10$neUcXm/YSGdv1KkEuOvpj.vSZeXiGPIm4NVRvY5KGNFpQeLW59ndW,,2018-01-07 08:09:56.265491,2018-01-07 08:09:56.265491,SEET,MEE,undergraduate,
1051,20163055005,onuohachukwuebuka@anymail.com,$2y$10$neUcXm/YSGdv1KkEuOvpj.vSZeXiGPIm4NVRvY5KGNFpQeLW59ndW,,2018-01-07 08:09:56.265491,2018-01-07 08:09:56.265491,SEET,CHE,undergraduate,
1052,20162040035,anyanwupa@anymail.cam,$2y$10$neUcXm/YSGdv1KkEuOvpj.vSZeXiGPIm4NVRvY5KGNFpQeLW59ndW,,2018-01-07 08:09:56.265491,2018-01-07 08:09:56.265491,SOSC,CHM,undergraduate,
1053,20162035020,iheanachocnick@anymail.cnickm,$2y$10$neUcXm/YSGdv1KkEuOvpj.vSZeXiGPIm4NVRvY5KGNFpQeLW59ndW,,2018-01-07 08:09:56.265491,2018-01-07 08:09:56.265491,SMAT,PMT,undergraduate,
1054,20161020020,archibongvictor@anymail.com,$2y$10$neUcXm/YSGdv1KkEuOvpj.vSZeXiGPIm4NVRvY5KGNFpQeLW59ndW,,2018-01-07 08:09:56.265491,2018-01-07 08:09:56.265491,SMAT,IMT,undergraduate,
1055,20161030005,enyiyekonjohn@anymail.com,$2y$10$neUcXm/YSGdv1KkEuOvpj.vSZeXiGPIm4NVRvY5KGNFpQeLW59ndW,,2018-01-07 08:09:56.265491,2018-01-07 08:09:56.265491,SEET,CIE,undergraduate,
1056,20162035005,nnameziecs@anymail.csm,$2y$10$neUcXm/YSGdv1KkEuOvpj.vSZeXiGPIm4NVRvY5KGNFpQeLW59ndW,,2018-01-07 08:09:56.265491,2018-01-07 08:09:56.265491,SOSC,BIO,undergraduate,
1057,20153045230,agbokenechukwu@anymail.com,$2y$10$neUcXm/YSGdv1KkEuOvpj.vSZeXiGPIm4NVRvY5KGNFpQeLW59ndW,,2018-01-07 08:09:56.265491,2018-01-07 08:09:56.265491,SEET,CHE,undergraduate,
1058,20153050215,adubiosunday@anymail.csundaym,$2y$10$neUcXm/YSGdv1KkEuOvpj.vSZeXiGPIm4NVRvY5KGNFpQeLW59ndW,,2018-01-07 08:09:56.265491,2018-01-07 08:09:56.265491,SEET,CIE,undergraduate,
1059,20151025290,kennethgodwin@anymail.com,$2y$10$neUcXm/YSGdv1KkEuOvpj.vSZeXiGPIm4NVRvY5KGNFpQeLW59ndW,,2018-01-07 08:09:56.265491,2018-01-07 08:09:56.265491,SOSC,PHY,undergraduate,
1060,20151025275,udochukwuvi@anymail.cim,$2y$10$neUcXm/YSGdv1KkEuOvpj.vSZeXiGPIm4NVRvY5KGNFpQeLW59ndW,,2018-01-07 08:09:56.265491,2018-01-07 08:09:56.265491,SOSC,PHY,undergraduate,
1061,20153045200,ohakachiamaka@anymail.com,$2y$10$neUcXm/YSGdv1KkEuOvpj.vSZeXiGPIm4NVRvY5KGNFpQeLW59ndW,,2018-01-07 08:09:56.265491,2018-01-07 08:09:56.265491,SEET,CHE,undergraduate,
1062,20151020260,orjiugofgodson@anymail.cgodsonm,$2y$10$neUcXm/YSGdv1KkEuOvpj.vSZeXiGPIm4NVRvY5KGNFpQeLW59ndW,,2018-01-07 08:09:56.265491,2018-01-07 08:09:56.265491,SOSC,BIO,undergraduate,
1063,20151015245,moorechimezie@anymail.com,$2y$10$neUcXm/YSGdv1KkEuOvpj.vSZeXiGPIm4NVRvY5KGNFpQeLW59ndW,,2018-01-07 08:09:56.265491,2018-01-07 08:09:56.265491,SOSC,CHM,undergraduate,
1064,20151030230,obatarheeprince@anymail.cprincem,$2y$10$neUcXm/YSGdv1KkEuOvpj.vSZeXiGPIm4NVRvY5KGNFpQeLW59ndW,,2018-01-07 08:09:56.265491,2018-01-07 08:09:56.265491,SOSC,MTH,undergraduate,
1065,20151020215,ahamefulatochukwu@anymail.com,$2y$10$neUcXm/YSGdv1KkEuOvpj.vSZeXiGPIm4NVRvY5KGNFpQeLW59ndW,,2018-01-07 08:09:56.265491,2018-01-07 08:09:56.265491,SOSC,BIO,undergraduate,
1066,20151020200,divineikara@anymail.com,$2y$10$neUcXm/YSGdv1KkEuOvpj.vSZeXiGPIm4NVRvY5KGNFpQeLW59ndW,,2018-01-07 08:09:56.265491,2018-01-07 08:09:56.265491,SOSC,BIO,undergraduate,
1067,20151020185,ololojonathan@anymail.com,$2y$10$neUcXm/YSGdv1KkEuOvpj.vSZeXiGPIm4NVRvY5KGNFpQeLW59ndW,,2018-01-07 08:09:56.265491,2018-01-07 08:09:56.265491,SOSC,BIO,undergraduate,
1068,20152040125,segiusdaniel@anymail.com,$2y$10$neUcXm/YSGdv1KkEuOvpj.vSZeXiGPIm4NVRvY5KGNFpQeLW59ndW,,2018-01-07 08:09:56.265491,2018-01-07 08:09:56.265491,SMAT,PMT,undergraduate,
1069,20153055185,nwokerghandi@anymail.cghandim,$2y$10$neUcXm/YSGdv1KkEuOvpj.vSZeXiGPIm4NVRvY5KGNFpQeLW59ndW,,2018-01-07 08:09:56.265491,2018-01-07 08:09:56.265491,SEET,MEE,undergraduate,
1070,20152040110,nnorommo@anymail.com,$2y$10$neUcXm/YSGdv1KkEuOvpj.vSZeXiGPIm4NVRvY5KGNFpQeLW59ndW,,2018-01-07 08:09:56.265491,2018-01-07 08:09:56.265491,SMAT,PMT,undergraduate,
1071,20152035095,chinwenduuche@anymail.com,$2y$10$neUcXm/YSGdv1KkEuOvpj.vSZeXiGPIm4NVRvY5KGNFpQeLW59ndW,,2018-01-07 08:09:56.265491,2018-01-07 08:09:56.265491,SMAT,IMT,undergraduate,
1072,20151020170,kwaferuldolf@anymail.com,$2y$10$neUcXm/YSGdv1KkEuOvpj.vSZeXiGPIm4NVRvY5KGNFpQeLW59ndW,,2018-01-07 08:09:56.265491,2018-01-07 08:09:56.265491,SOSC,BIO,undergraduate,
1073,20153050170,humphreyac@anymail.ccm,$2y$10$neUcXm/YSGdv1KkEuOvpj.vSZeXiGPIm4NVRvY5KGNFpQeLW59ndW,,2018-01-07 08:09:56.265491,2018-01-07 08:09:56.265491,SEET,CIE,undergraduate,
1074,20151025155,mbakwefe@anymail.cem,$2y$10$neUcXm/YSGdv1KkEuOvpj.vSZeXiGPIm4NVRvY5KGNFpQeLW59ndW,,2018-01-07 08:09:56.265491,2018-01-07 08:09:56.265491,SOSC,PHY,undergraduate,
1075,20153055155,uchedaniel@anymail.com,$2y$10$neUcXm/YSGdv1KkEuOvpj.vSZeXiGPIm4NVRvY5KGNFpQeLW59ndW,,2018-01-07 08:09:56.265491,2018-01-07 08:09:56.265491,SEET,MEE,undergraduate,
1076,20153050140,nworuhpa@anymail.cam,$2y$10$neUcXm/YSGdv1KkEuOvpj.vSZeXiGPIm4NVRvY5KGNFpQeLW59ndW,,2018-01-07 08:09:56.265491,2018-01-07 08:09:56.265491,SEET,CIE,undergraduate,
1077,20151015140,tonyjerffery@anymail.com,$2y$10$neUcXm/YSGdv1KkEuOvpj.vSZeXiGPIm4NVRvY5KGNFpQeLW59ndW,,2018-01-07 08:09:56.265491,2018-01-07 08:09:56.265491,SOSC,CHM,undergraduate,
1078,20151020125,nwachukwuebuka@anymail.com,$2y$10$neUcXm/YSGdv1KkEuOvpj.vSZeXiGPIm4NVRvY5KGNFpQeLW59ndW,,2018-01-07 08:09:56.265491,2018-01-07 08:09:56.265491,SOSC,BIO,undergraduate,
1079,20151015110,nwokoyedz@anymail.czm,$2y$10$neUcXm/YSGdv1KkEuOvpj.vSZeXiGPIm4NVRvY5KGNFpQeLW59ndW,,2018-01-07 08:09:56.265491,2018-01-07 08:09:56.265491,SOSC,CHM,undergraduate,
1080,20152035080,enwelunkechinyere@anymail.com,$2y$10$neUcXm/YSGdv1KkEuOvpj.vSZeXiGPIm4NVRvY5KGNFpQeLW59ndW,,2018-01-07 08:09:56.265491,2018-01-07 08:09:56.265491,SMAT,IMT,undergraduate,
1081,20151030095,unegbuoluchi@anymail.com,$2y$10$neUcXm/YSGdv1KkEuOvpj.vSZeXiGPIm4NVRvY5KGNFpQeLW59ndW,,2018-01-07 08:09:56.265491,2018-01-07 08:09:56.265491,SOSC,MTH,undergraduate,
1082,20153045125,oparadchukwuemeka@anymail.cchukwuemekam,$2y$10$neUcXm/YSGdv1KkEuOvpj.vSZeXiGPIm4NVRvY5KGNFpQeLW59ndW,,2018-01-07 08:09:56.265491,2018-01-07 08:09:56.265491,SEET,CHE,undergraduate,
1083,20153055110,iroh-idumavictor@anymail.com,$2y$10$neUcXm/YSGdv1KkEuOvpj.vSZeXiGPIm4NVRvY5KGNFpQeLW59ndW,,2018-01-07 08:09:56.265491,2018-01-07 08:09:56.265491,SEET,MEE,undergraduate,
1084,20153045095,ezekorlauretta@anymail.com,$2y$10$neUcXm/YSGdv1KkEuOvpj.vSZeXiGPIm4NVRvY5KGNFpQeLW59ndW,,2018-01-07 08:09:56.265491,2018-01-07 08:09:56.265491,SEET,CHE,undergraduate,
1085,20151015080,osuagwuebuka@anymail.com,$2y$10$neUcXm/YSGdv1KkEuOvpj.vSZeXiGPIm4NVRvY5KGNFpQeLW59ndW,,2018-01-07 08:09:56.265491,2018-01-07 08:09:56.265491,SOSC,CHM,undergraduate,
1086,20151020065,oko-ucheokechukwug@anymail.com,$2y$10$neUcXm/YSGdv1KkEuOvpj.vSZeXiGPIm4NVRvY5KGNFpQeLW59ndW,,2018-01-07 08:09:56.265491,2018-01-07 08:09:56.265491,SOSC,BIO,undergraduate,
1087,20152040065,okerekederrick@anymail.com,$2y$10$neUcXm/YSGdv1KkEuOvpj.vSZeXiGPIm4NVRvY5KGNFpQeLW59ndW,,2018-01-07 08:09:56.265491,2018-01-07 08:09:56.265491,SMAT,PMT,undergraduate,
1088,20152035050,preciouscharles@anymail.com,$2y$10$neUcXm/YSGdv1KkEuOvpj.vSZeXiGPIm4NVRvY5KGNFpQeLW59ndW,,2018-01-07 08:09:56.265491,2018-01-07 08:09:56.265491,SMAT,IMT,undergraduate,
1089,20153050080,kemealagoaj@anymail.com,$2y$10$neUcXm/YSGdv1KkEuOvpj.vSZeXiGPIm4NVRvY5KGNFpQeLW59ndW,,2018-01-07 08:09:56.265491,2018-01-07 08:09:56.265491,SEET,CIE,undergraduate,
1090,20153045065,maxwellprecious@anymail.com,$2y$10$neUcXm/YSGdv1KkEuOvpj.vSZeXiGPIm4NVRvY5KGNFpQeLW59ndW,,2018-01-07 08:09:56.265491,2018-01-07 08:09:56.265491,SEET,CHE,undergraduate,
1091,20153045050,nzeemmanuel@anymail.com,$2y$10$neUcXm/YSGdv1KkEuOvpj.vSZeXiGPIm4NVRvY5KGNFpQeLW59ndW,,2018-01-07 08:09:56.265491,2018-01-07 08:09:56.265491,SEET,CHE,undergraduate,
1092,20151020050,umunnaifesinachi@anymail.com,$2y$10$neUcXm/YSGdv1KkEuOvpj.vSZeXiGPIm4NVRvY5KGNFpQeLW59ndW,,2018-01-07 08:09:56.265491,2018-01-07 08:09:56.265491,SOSC,BIO,undergraduate,
1093,20153050035,maduikejudith@anymail.com,$2y$10$neUcXm/YSGdv1KkEuOvpj.vSZeXiGPIm4NVRvY5KGNFpQeLW59ndW,,2018-01-07 08:09:56.265491,2018-01-07 08:09:56.265491,SEET,CIE,undergraduate,
1094,20153055020,obidoochinaemerem@anymail.com,$2y$10$neUcXm/YSGdv1KkEuOvpj.vSZeXiGPIm4NVRvY5KGNFpQeLW59ndW,,2018-01-07 08:09:56.265491,2018-01-07 08:09:56.265491,SEET,MEE,undergraduate,
1095,20151030035,nworuhgodwinner@anymail.com,$2y$10$neUcXm/YSGdv1KkEuOvpj.vSZeXiGPIm4NVRvY5KGNFpQeLW59ndW,,2018-01-07 08:09:56.265491,2018-01-07 08:09:56.265491,SOSC,MTH,undergraduate,
1096,20152040035,ogechisolomon@anymail.com,$2y$10$neUcXm/YSGdv1KkEuOvpj.vSZeXiGPIm4NVRvY5KGNFpQeLW59ndW,,2018-01-07 08:09:56.265491,2018-01-07 08:09:56.265491,SMAT,PMT,undergraduate,
1097,20152035020,amaugokindnessi@anymail.com,$2y$10$neUcXm/YSGdv1KkEuOvpj.vSZeXiGPIm4NVRvY5KGNFpQeLW59ndW,,2018-01-07 08:09:56.265491,2018-01-07 08:09:56.265491,SMAT,IMT,undergraduate,
1098,20151015020,chibundukelechi@anymail.com,$2y$10$neUcXm/YSGdv1KkEuOvpj.vSZeXiGPIm4NVRvY5KGNFpQeLW59ndW,,2018-01-07 08:09:56.265491,2018-01-07 08:09:56.265491,SOSC,CHM,undergraduate,
1099,20151030005,ihemhurudarlighton@anymail.com,$2y$10$neUcXm/YSGdv1KkEuOvpj.vSZeXiGPIm4NVRvY5KGNFpQeLW59ndW,,2018-01-07 08:09:56.265491,2018-01-07 08:09:56.265491,SOSC,MTH,undergraduate,
1100,20153055005,nnalueanthony@anymail.com,$2y$10$neUcXm/YSGdv1KkEuOvpj.vSZeXiGPIm4NVRvY5KGNFpQeLW59ndW,,2018-01-07 08:09:56.265491,2018-01-07 08:09:56.265491,SEET,MEE,undergraduate,
1101,20152040005,uzoruchenna@anymail.com,$2y$10$neUcXm/YSGdv1KkEuOvpj.vSZeXiGPIm4NVRvY5KGNFpQeLW59ndW,,2018-01-07 08:09:56.265491,2018-01-07 08:09:56.265491,SMAT,PMT,undergraduate,
1102,20141025185,ekwesiprince@anymail.com,$2y$10$neUcXm/YSGdv1KkEuOvpj.vSZeXiGPIm4NVRvY5KGNFpQeLW59ndW,,2018-01-07 08:09:56.265491,2018-01-07 08:09:56.265491,SOSC,PHY,undergraduate,
1103,20143050350,ucherejoice@anymail.com,$2y$10$neUcXm/YSGdv1KkEuOvpj.vSZeXiGPIm4NVRvY5KGNFpQeLW59ndW,,2018-01-07 08:09:56.265491,2018-01-07 08:09:56.265491,SEET,CIE,undergraduate,
1104,20143050335,eronduikechukwu@anymail.com,$2y$10$neUcXm/YSGdv1KkEuOvpj.vSZeXiGPIm4NVRvY5KGNFpQeLW59ndW,,2018-01-07 08:09:56.265491,2018-01-07 08:09:56.265491,SEET,CIE,undergraduate,
1105,20143045320,jimnewmans@anymail.com,$2y$10$neUcXm/YSGdv1KkEuOvpj.vSZeXiGPIm4NVRvY5KGNFpQeLW59ndW,,2018-01-07 08:09:56.265491,2018-01-07 08:09:56.265491,SEET,CHE,undergraduate,
1106,20143055305,ndukwenwokec@anymail.com,$2y$10$neUcXm/YSGdv1KkEuOvpj.vSZeXiGPIm4NVRvY5KGNFpQeLW59ndW,,2018-01-07 08:09:56.265491,2018-01-07 08:09:56.265491,SEET,MEE,undergraduate,
1107,20143050290,enyiekekonjohna@anymail.com,$2y$10$neUcXm/YSGdv1KkEuOvpj.vSZeXiGPIm4NVRvY5KGNFpQeLW59ndW,,2018-01-07 08:09:56.265491,2018-01-07 08:09:56.265491,SEET,CIE,undergraduate,
1108,20142040065,chinagoromchigozirimg@anymail.com,$2y$10$neUcXm/YSGdv1KkEuOvpj.vSZeXiGPIm4NVRvY5KGNFpQeLW59ndW,,2018-01-07 08:09:56.265491,2018-01-07 08:09:56.265491,SMAT,PMT,undergraduate,
1109,20143055275,chinyereokonkwo@anymail.com,$2y$10$neUcXm/YSGdv1KkEuOvpj.vSZeXiGPIm4NVRvY5KGNFpQeLW59ndW,,2018-01-07 08:09:56.265491,2018-01-07 08:09:56.265491,SEET,MEE,undergraduate,
1110,20143045260,nwokomadorcas@anymail.com,$2y$10$neUcXm/YSGdv1KkEuOvpj.vSZeXiGPIm4NVRvY5KGNFpQeLW59ndW,,2018-01-07 08:09:56.265491,2018-01-07 08:09:56.265491,SEET,CHE,undergraduate,
1111,20143045245,akpomedeyerocko@anymail.com,$2y$10$neUcXm/YSGdv1KkEuOvpj.vSZeXiGPIm4NVRvY5KGNFpQeLW59ndW,,2018-01-07 08:09:56.265491,2018-01-07 08:09:56.265491,SEET,CHE,undergraduate,
1112,20142035050,elendukahlanf@anymail.com,$2y$10$neUcXm/YSGdv1KkEuOvpj.vSZeXiGPIm4NVRvY5KGNFpQeLW59ndW,,2018-01-07 08:09:56.265491,2018-01-07 08:09:56.265491,SMAT,IMT,undergraduate,
1113,20143055230,akhigbegodswillo@anymail.com,$2y$10$neUcXm/YSGdv1KkEuOvpj.vSZeXiGPIm4NVRvY5KGNFpQeLW59ndW,,2018-01-07 08:09:56.265491,2018-01-07 08:09:56.265491,SEET,MEE,undergraduate,
1114,20141020170,nwachukwuadaeze@anymail.com,$2y$10$neUcXm/YSGdv1KkEuOvpj.vSZeXiGPIm4NVRvY5KGNFpQeLW59ndW,,2018-01-07 08:09:56.265491,2018-01-07 08:09:56.265491,SOSC,BIO,undergraduate,
1115,20143045215,igwezedaniel@anymail.com,$2y$10$neUcXm/YSGdv1KkEuOvpj.vSZeXiGPIm4NVRvY5KGNFpQeLW59ndW,,2018-01-07 08:09:56.265491,2018-01-07 08:09:56.265491,SEET,CHE,undergraduate,
1116,20143050200,ikechukwugodswill@anymail.com,$2y$10$neUcXm/YSGdv1KkEuOvpj.vSZeXiGPIm4NVRvY5KGNFpQeLW59ndW,,2018-01-07 08:09:56.265491,2018-01-07 08:09:56.265491,SEET,CIE,undergraduate,
1117,20141025155,esomonuchidinma@anymail.com,$2y$10$neUcXm/YSGdv1KkEuOvpj.vSZeXiGPIm4NVRvY5KGNFpQeLW59ndW,,2018-01-07 08:09:56.265491,2018-01-07 08:09:56.265491,SOSC,PHY,undergraduate,
1118,20141020140,eluwaemmanuel@anymail.com,$2y$10$neUcXm/YSGdv1KkEuOvpj.vSZeXiGPIm4NVRvY5KGNFpQeLW59ndW,,2018-01-07 08:09:56.265491,2018-01-07 08:09:56.265491,SOSC,BIO,undergraduate,
1119,20143045185,ezeriohamaryjane@anymail.com,$2y$10$neUcXm/YSGdv1KkEuOvpj.vSZeXiGPIm4NVRvY5KGNFpQeLW59ndW,,2018-01-07 08:09:56.265491,2018-01-07 08:09:56.265491,SEET,CHE,undergraduate,
1120,20143050170,egbomucheemmanuel@anymail.com,$2y$10$neUcXm/YSGdv1KkEuOvpj.vSZeXiGPIm4NVRvY5KGNFpQeLW59ndW,,2018-01-07 08:09:56.265491,2018-01-07 08:09:56.265491,SEET,CIE,undergraduate,
1121,20143055155,uwakwejusticet@anymail.com,$2y$10$neUcXm/YSGdv1KkEuOvpj.vSZeXiGPIm4NVRvY5KGNFpQeLW59ndW,,2018-01-07 08:09:56.265491,2018-01-07 08:09:56.265491,SEET,MEE,undergraduate,
1122,20143050140,okenagbafaiths@anymail.com,$2y$10$neUcXm/YSGdv1KkEuOvpj.vSZeXiGPIm4NVRvY5KGNFpQeLW59ndW,,2018-01-07 08:09:56.265491,2018-01-07 08:09:56.265491,SEET,CIE,undergraduate,
1123,20141020125,okoliugochukwu@anymail.com,$2y$10$neUcXm/YSGdv1KkEuOvpj.vSZeXiGPIm4NVRvY5KGNFpQeLW59ndW,,2018-01-07 08:09:56.265491,2018-01-07 08:09:56.265491,SOSC,BIO,undergraduate,
1124,20141020100,oliverchidera@anymail.com,$2y$10$neUcXm/YSGdv1KkEuOvpj.vSZeXiGPIm4NVRvY5KGNFpQeLW59ndW,,2018-01-07 08:09:56.265491,2018-01-07 08:09:56.265491,SOSC,BIO,undergraduate,
1125,20141025095,umembaemmanuel@anymail.com,$2y$10$neUcXm/YSGdv1KkEuOvpj.vSZeXiGPIm4NVRvY5KGNFpQeLW59ndW,,2018-01-07 08:09:56.265491,2018-01-07 08:09:56.265491,SOSC,PHY,undergraduate,
1126,20142035035,egwuatuchuka@anymail.com,$2y$10$neUcXm/YSGdv1KkEuOvpj.vSZeXiGPIm4NVRvY5KGNFpQeLW59ndW,,2018-01-07 08:09:56.265491,2018-01-07 08:09:56.265491,SMAT,IMT,undergraduate,
1127,20143055125,ekekechinaza@anymail.com,$2y$10$neUcXm/YSGdv1KkEuOvpj.vSZeXiGPIm4NVRvY5KGNFpQeLW59ndW,,2018-01-07 08:09:56.265491,2018-01-07 08:09:56.265491,SEET,MEE,undergraduate,
1128,20143045110,godwinmercye@anymail.com,$2y$10$neUcXm/YSGdv1KkEuOvpj.vSZeXiGPIm4NVRvY5KGNFpQeLW59ndW,,2018-01-07 08:09:56.265491,2018-01-07 08:09:56.265491,SEET,CHE,undergraduate,
1129,20143045095,ekehgodwinm@anymail.com,$2y$10$neUcXm/YSGdv1KkEuOvpj.vSZeXiGPIm4NVRvY5KGNFpQeLW59ndW,,2018-01-07 08:09:56.265491,2018-01-07 08:09:56.265491,SEET,CHE,undergraduate,
1130,20141015080,josephemmanuel@anymail.com,$2y$10$neUcXm/YSGdv1KkEuOvpj.vSZeXiGPIm4NVRvY5KGNFpQeLW59ndW,,2018-01-07 08:09:56.265491,2018-01-07 08:09:56.265491,SOSC,CHM,undergraduate,
1131,20143055080,ahanekuezinne@anymail.com,$2y$10$neUcXm/YSGdv1KkEuOvpj.vSZeXiGPIm4NVRvY5KGNFpQeLW59ndW,,2018-01-07 08:09:56.265491,2018-01-07 08:09:56.265491,SEET,MEE,undergraduate,
1132,20143050065,emoleonyinyechi@anymail.com,$2y$10$neUcXm/YSGdv1KkEuOvpj.vSZeXiGPIm4NVRvY5KGNFpQeLW59ndW,,2018-01-07 08:09:56.265491,2018-01-07 08:09:56.265491,SEET,CIE,undergraduate,
1133,20143055050,danielseguisn@anymail.com,$2y$10$neUcXm/YSGdv1KkEuOvpj.vSZeXiGPIm4NVRvY5KGNFpQeLW59ndW,,2018-01-07 08:09:56.265491,2018-01-07 08:09:56.265491,SEET,MEE,undergraduate,
1134,20142035020,nnamakajohne@anymail.com,$2y$10$neUcXm/YSGdv1KkEuOvpj.vSZeXiGPIm4NVRvY5KGNFpQeLW59ndW,,2018-01-07 08:09:56.265491,2018-01-07 08:09:56.265491,SMAT,IMT,undergraduate,
1135,20143055035,mbachuchisomp@anymail.com,$2y$10$neUcXm/YSGdv1KkEuOvpj.vSZeXiGPIm4NVRvY5KGNFpQeLW59ndW,,2018-01-07 08:09:56.265491,2018-01-07 08:09:56.265491,SEET,MEE,undergraduate,
1136,20141020065,azubuikechinwendu@anymail.com,$2y$10$neUcXm/YSGdv1KkEuOvpj.vSZeXiGPIm4NVRvY5KGNFpQeLW59ndW,,2018-01-07 08:09:56.265491,2018-01-07 08:09:56.265491,SOSC,BIO,undergraduate,
1137,20142035005,adewolooluwasoore@anymail.com,$2y$10$neUcXm/YSGdv1KkEuOvpj.vSZeXiGPIm4NVRvY5KGNFpQeLW59ndW,,2018-01-07 08:09:56.265491,2018-01-07 08:09:56.265491,SMAT,IMT,undergraduate,
1138,20141015050,ahamefulachiedozie@anymail.com,$2y$10$neUcXm/YSGdv1KkEuOvpj.vSZeXiGPIm4NVRvY5KGNFpQeLW59ndW,,2018-01-07 08:09:56.265491,2018-01-07 08:09:56.265491,SOSC,CHM,undergraduate,
1139,20143045020,anyaerubachukwudi@anymail.com,$2y$10$neUcXm/YSGdv1KkEuOvpj.vSZeXiGPIm4NVRvY5KGNFpQeLW59ndW,,2018-01-07 08:09:56.265491,2018-01-07 08:09:56.265491,SEET,CHE,undergraduate,
1140,20141015035,okekeamara@anymail.com,$2y$10$neUcXm/YSGdv1KkEuOvpj.vSZeXiGPIm4NVRvY5KGNFpQeLW59ndW,,2018-01-07 08:09:56.265491,2018-01-07 08:09:56.265491,SOSC,CHM,undergraduate,
1141,20143055005,naabonracheal@anymail.com,$2y$10$neUcXm/YSGdv1KkEuOvpj.vSZeXiGPIm4NVRvY5KGNFpQeLW59ndW,,2018-01-07 08:09:56.265491,2018-01-07 08:09:56.265491,SEET,MEE,undergraduate,
1142,20141020020,danemefon@anymail.com,$2y$10$neUcXm/YSGdv1KkEuOvpj.vSZeXiGPIm4NVRvY5KGNFpQeLW59ndW,,2018-01-07 08:09:56.265491,2018-01-07 08:09:56.265491,SOSC,BIO,undergraduate,
1143,20141025005,obioramiraclet@anymail.com,$2y$10$neUcXm/YSGdv1KkEuOvpj.vSZeXiGPIm4NVRvY5KGNFpQeLW59ndW,,2018-01-07 08:09:56.265491,2018-01-07 08:09:56.265491,SOSC,PHY,undergraduate,
1144,20133045200,igboginikam@anymail.com,$2y$10$neUcXm/YSGdv1KkEuOvpj.vSZeXiGPIm4NVRvY5KGNFpQeLW59ndW,,2018-01-07 08:09:56.265491,2018-01-07 08:09:56.265491,SEET,CHE,undergraduate,
1145,20133055185,uchenkechinyere@anymail.com,$2y$10$neUcXm/YSGdv1KkEuOvpj.vSZeXiGPIm4NVRvY5KGNFpQeLW59ndW,,2018-01-07 08:09:56.265491,2018-01-07 08:09:56.265491,SEET,MEE,undergraduate,
1146,20131025215,samuelawah@anymail.com,$2y$10$neUcXm/YSGdv1KkEuOvpj.vSZeXiGPIm4NVRvY5KGNFpQeLW59ndW,,2018-01-07 08:09:56.265491,2018-01-07 08:09:56.265491,SOSC,PHY,undergraduate,
1147,20132040080,adelowooluwasoore@anymail.com,$2y$10$neUcXm/YSGdv1KkEuOvpj.vSZeXiGPIm4NVRvY5KGNFpQeLW59ndW,,2018-01-07 08:09:56.265491,2018-01-07 08:09:56.265491,SMAT,PMT,undergraduate,
1148,20131030200,obujianaghac@anymail.com,$2y$10$neUcXm/YSGdv1KkEuOvpj.vSZeXiGPIm4NVRvY5KGNFpQeLW59ndW,,2018-01-07 08:09:56.265491,2018-01-07 08:09:56.265491,SOSC,MTH,undergraduate,
1149,20131015185,chiechefugodianc@anymail.com,$2y$10$neUcXm/YSGdv1KkEuOvpj.vSZeXiGPIm4NVRvY5KGNFpQeLW59ndW,,2018-01-07 08:09:56.265491,2018-01-07 08:09:56.265491,SOSC,CHM,undergraduate,
1150,20133055170,naabonrachaelz@anymail.com,$2y$10$neUcXm/YSGdv1KkEuOvpj.vSZeXiGPIm4NVRvY5KGNFpQeLW59ndW,,2018-01-07 08:09:56.265491,2018-01-07 08:09:56.265491,SEET,MEE,undergraduate,
1151,20131030170,okaforchibuezec@anymail.com,$2y$10$neUcXm/YSGdv1KkEuOvpj.vSZeXiGPIm4NVRvY5KGNFpQeLW59ndW,,2018-01-07 08:09:56.265491,2018-01-07 08:09:56.265491,SOSC,MTH,undergraduate,
1152,20133055155,eseericau@anymail.com,$2y$10$neUcXm/YSGdv1KkEuOvpj.vSZeXiGPIm4NVRvY5KGNFpQeLW59ndW,,2018-01-07 08:09:56.265491,2018-01-07 08:09:56.265491,SEET,MEE,undergraduate,
1153,20131025155,odorpreciousc@anymail.com,$2y$10$neUcXm/YSGdv1KkEuOvpj.vSZeXiGPIm4NVRvY5KGNFpQeLW59ndW,,2018-01-07 08:09:56.265491,2018-01-07 08:09:56.265491,SOSC,PHY,undergraduate,
1154,20131025140,akorinelson@anymail.com,$2y$10$neUcXm/YSGdv1KkEuOvpj.vSZeXiGPIm4NVRvY5KGNFpQeLW59ndW,,2018-01-07 08:09:56.265491,2018-01-07 08:09:56.265491,SOSC,PHY,undergraduate,
1155,20131030125,amadipraiseo@anymail.com,$2y$10$neUcXm/YSGdv1KkEuOvpj.vSZeXiGPIm4NVRvY5KGNFpQeLW59ndW,,2018-01-07 08:09:56.265491,2018-01-07 08:09:56.265491,SOSC,MTH,undergraduate,
1156,20132035065,godwingodvessela@anymail.com,$2y$10$neUcXm/YSGdv1KkEuOvpj.vSZeXiGPIm4NVRvY5KGNFpQeLW59ndW,,2018-01-07 08:09:56.265491,2018-01-07 08:09:56.265491,SMAT,IMT,undergraduate,
1157,20133045140,uchennakelechi@anymail.com,$2y$10$neUcXm/YSGdv1KkEuOvpj.vSZeXiGPIm4NVRvY5KGNFpQeLW59ndW,,2018-01-07 08:09:56.265491,2018-01-07 08:09:56.265491,SEET,CHE,undergraduate,
1158,20132040050,nwawiheanthonyp@anymail.com,$2y$10$neUcXm/YSGdv1KkEuOvpj.vSZeXiGPIm4NVRvY5KGNFpQeLW59ndW,,2018-01-07 08:09:56.265491,2018-01-07 08:09:56.265491,SMAT,PMT,undergraduate,
1159,20133055125,kenechidukeo@anymail.com,$2y$10$neUcXm/YSGdv1KkEuOvpj.vSZeXiGPIm4NVRvY5KGNFpQeLW59ndW,,2018-01-07 08:09:56.265491,2018-01-07 08:09:56.265491,SEET,MEE,undergraduate,
1160,20133055110,nwachukwurichard@anymail.com,$2y$10$neUcXm/YSGdv1KkEuOvpj.vSZeXiGPIm4NVRvY5KGNFpQeLW59ndW,,2018-01-07 08:09:56.265491,2018-01-07 08:09:56.265491,SEET,MEE,undergraduate,
1161,20131030110,nwayanwufrederich@anymail.com,$2y$10$neUcXm/YSGdv1KkEuOvpj.vSZeXiGPIm4NVRvY5KGNFpQeLW59ndW,,2018-01-07 08:09:56.265491,2018-01-07 08:09:56.265491,SOSC,MTH,undergraduate,
1162,20133055095,ohanachooziomachukwu@anymail.com,$2y$10$neUcXm/YSGdv1KkEuOvpj.vSZeXiGPIm4NVRvY5KGNFpQeLW59ndW,,2018-01-07 08:09:56.265491,2018-01-07 08:09:56.265491,SEET,MEE,undergraduate,
1163,20132035035,orjisamuel@anymail.com,$2y$10$neUcXm/YSGdv1KkEuOvpj.vSZeXiGPIm4NVRvY5KGNFpQeLW59ndW,,2018-01-07 08:09:56.265491,2018-01-07 08:09:56.265491,SMAT,IMT,undergraduate,
1164,20132035020,onwuzurikejoseph@anymail.com,$2y$10$neUcXm/YSGdv1KkEuOvpj.vSZeXiGPIm4NVRvY5KGNFpQeLW59ndW,,2018-01-07 08:09:56.265491,2018-01-07 08:09:56.265491,SMAT,IMT,undergraduate,
1165,20133055080,omakablessingj@anymail.com,$2y$10$neUcXm/YSGdv1KkEuOvpj.vSZeXiGPIm4NVRvY5KGNFpQeLW59ndW,,2018-01-07 08:09:56.265491,2018-01-07 08:09:56.265491,SEET,MEE,undergraduate,
1166,20131020095,njokuwisdomk@anymail.com,$2y$10$neUcXm/YSGdv1KkEuOvpj.vSZeXiGPIm4NVRvY5KGNFpQeLW59ndW,,2018-01-07 08:09:56.265491,2018-01-07 08:09:56.265491,SOSC,BIO,undergraduate,
1167,20131025080,nworuhchristain@anymail.com,$2y$10$neUcXm/YSGdv1KkEuOvpj.vSZeXiGPIm4NVRvY5KGNFpQeLW59ndW,,2018-01-07 08:09:56.265491,2018-01-07 08:09:56.265491,SOSC,PHY,undergraduate,
1168,20133050065,ogemdiadindu@anymail.com,$2y$10$neUcXm/YSGdv1KkEuOvpj.vSZeXiGPIm4NVRvY5KGNFpQeLW59ndW,,2018-01-07 08:09:56.265491,2018-01-07 08:09:56.265491,SEET,CIE,undergraduate,
1169,20131025065,obasiemmanuel@anymail.com,$2y$10$neUcXm/YSGdv1KkEuOvpj.vSZeXiGPIm4NVRvY5KGNFpQeLW59ndW,,2018-01-07 08:09:56.265491,2018-01-07 08:09:56.265491,SOSC,PHY,undergraduate,
1170,20133050050,ezechioma@anymail.com,$2y$10$neUcXm/YSGdv1KkEuOvpj.vSZeXiGPIm4NVRvY5KGNFpQeLW59ndW,,2018-01-07 08:09:56.265491,2018-01-07 08:09:56.265491,SEET,CIE,undergraduate,
1171,20131025050,irokaprincewill@anymail.com,$2y$10$neUcXm/YSGdv1KkEuOvpj.vSZeXiGPIm4NVRvY5KGNFpQeLW59ndW,,2018-01-07 08:09:56.265491,2018-01-07 08:09:56.265491,SOSC,PHY,undergraduate,
1172,20131020035,nwekestanley@anymail.com,$2y$10$neUcXm/YSGdv1KkEuOvpj.vSZeXiGPIm4NVRvY5KGNFpQeLW59ndW,,2018-01-07 08:09:56.265491,2018-01-07 08:09:56.265491,SOSC,BIO,undergraduate,
1173,20133050035,chibundujoyce@anymail.com,$2y$10$neUcXm/YSGdv1KkEuOvpj.vSZeXiGPIm4NVRvY5KGNFpQeLW59ndW,,2018-01-07 08:09:56.265491,2018-01-07 08:09:56.265491,SEET,CIE,undergraduate,
1174,20133045020,fakoredesodiq@anymail.com,$2y$10$neUcXm/YSGdv1KkEuOvpj.vSZeXiGPIm4NVRvY5KGNFpQeLW59ndW,,2018-01-07 08:09:56.265491,2018-01-07 08:09:56.265491,SEET,CHE,undergraduate,
1175,20133045005,oziomaisrealc@anymail.com,$2y$10$neUcXm/YSGdv1KkEuOvpj.vSZeXiGPIm4NVRvY5KGNFpQeLW59ndW,,2018-01-07 08:09:56.265491,2018-01-07 08:09:56.265491,SEET,CHE,undergraduate,
1176,20131025020,nwokeghandir@anymail.com,$2y$10$neUcXm/YSGdv1KkEuOvpj.vSZeXiGPIm4NVRvY5KGNFpQeLW59ndW,,2018-01-07 08:09:56.265491,2018-01-07 08:09:56.265491,SOSC,PHY,undergraduate,
1177,20132035005,agochukwuruth@anymail.com,$2y$10$neUcXm/YSGdv1KkEuOvpj.vSZeXiGPIm4NVRvY5KGNFpQeLW59ndW,,2018-01-07 08:09:56.265491,2018-01-07 08:09:56.265491,SMAT,IMT,undergraduate,
1178,20131030005,okorieonyedikachi@anymail.com,$2y$10$neUcXm/YSGdv1KkEuOvpj.vSZeXiGPIm4NVRvY5KGNFpQeLW59ndW,,2018-01-07 08:09:56.265491,2018-01-07 08:09:56.265491,SOSC,MTH,undergraduate,
1179,20121030215,uzomamarvin@anymail.com,$2y$10$neUcXm/YSGdv1KkEuOvpj.vSZeXiGPIm4NVRvY5KGNFpQeLW59ndW,,2018-01-07 08:09:56.265491,2018-01-07 08:09:56.265491,SOSC,MTH,undergraduate,
1180,20123050200,onyinyechipaule@anymail.com,$2y$10$neUcXm/YSGdv1KkEuOvpj.vSZeXiGPIm4NVRvY5KGNFpQeLW59ndW,,2018-01-07 08:09:56.265491,2018-01-07 08:09:56.265491,SEET,CIE,undergraduate,
1181,20121015200,ikengaderrick@anymail.com,$2y$10$neUcXm/YSGdv1KkEuOvpj.vSZeXiGPIm4NVRvY5KGNFpQeLW59ndW,,2018-01-07 08:09:56.265491,2018-01-07 08:09:56.265491,SOSC,CHM,undergraduate,
1182,20123050185,okereaforelvish@anymail.com,$2y$10$neUcXm/YSGdv1KkEuOvpj.vSZeXiGPIm4NVRvY5KGNFpQeLW59ndW,,2018-01-07 08:09:56.265491,2018-01-07 08:09:56.265491,SEET,CIE,undergraduate,
1183,20123045170,izidehfortune@anymail.com,$2y$10$neUcXm/YSGdv1KkEuOvpj.vSZeXiGPIm4NVRvY5KGNFpQeLW59ndW,,2018-01-07 08:09:56.265491,2018-01-07 08:09:56.265491,SEET,CHE,undergraduate,
1184,20123050155,ibechioma@anymail.com,$2y$10$neUcXm/YSGdv1KkEuOvpj.vSZeXiGPIm4NVRvY5KGNFpQeLW59ndW,,2018-01-07 08:09:56.265491,2018-01-07 08:09:56.265491,SEET,CIE,undergraduate,
1185,20122040040,anipaulfredrickn@anymail.com,$2y$10$neUcXm/YSGdv1KkEuOvpj.vSZeXiGPIm4NVRvY5KGNFpQeLW59ndW,,2018-01-07 08:09:56.265491,2018-01-07 08:09:56.265491,SMAT,PMT,undergraduate,
1186,20122035025,charlespreciousc@anymail.com,$2y$10$neUcXm/YSGdv1KkEuOvpj.vSZeXiGPIm4NVRvY5KGNFpQeLW59ndW,,2018-01-07 08:09:56.265491,2018-01-07 08:09:56.265491,SMAT,IMT,undergraduate,
1187,20121030085,ejioguvictorc@anymail.com,$2y$10$neUcXm/YSGdv1KkEuOvpj.vSZeXiGPIm4NVRvY5KGNFpQeLW59ndW,,2018-01-07 08:09:56.265491,2018-01-07 08:09:56.265491,SOSC,MTH,undergraduate,
1188,20122040010,okolintagodwin@anymail.com,$2y$10$neUcXm/YSGdv1KkEuOvpj.vSZeXiGPIm4NVRvY5KGNFpQeLW59ndW,,2018-01-07 08:09:56.265491,2018-01-07 08:09:56.265491,SMAT,PMT,undergraduate,
1189,20122035095,oduleyeseun@anymail.com,$2y$10$neUcXm/YSGdv1KkEuOvpj.vSZeXiGPIm4NVRvY5KGNFpQeLW59ndW,,2018-01-07 08:09:56.265491,2018-01-07 08:09:56.265491,SMAT,IMT,undergraduate,
1190,20121015070,ezegloria@anymail.com,$2y$10$neUcXm/YSGdv1KkEuOvpj.vSZeXiGPIm4NVRvY5KGNFpQeLW59ndW,,2018-01-07 08:09:56.265491,2018-01-07 08:09:56.265491,SOSC,CHM,undergraduate,
1191,20122035080,chukwukaemmanuelo@anymail.com,$2y$10$neUcXm/YSGdv1KkEuOvpj.vSZeXiGPIm4NVRvY5KGNFpQeLW59ndW,,2018-01-07 08:09:56.265491,2018-01-07 08:09:56.265491,SMAT,IMT,undergraduate,
1192,20121015155,chidozied@anymail.com,$2y$10$neUcXm/YSGdv1KkEuOvpj.vSZeXiGPIm4NVRvY5KGNFpQeLW59ndW,,2018-01-07 08:09:56.265491,2018-01-07 08:09:56.265491,SOSC,CHM,undergraduate,
1193,20123055140,ezeofortobechukwuk@anymail.com,$2y$10$neUcXm/YSGdv1KkEuOvpj.vSZeXiGPIm4NVRvY5KGNFpQeLW59ndW,,2018-01-07 08:09:56.265491,2018-01-07 08:09:56.265491,SEET,MEE,undergraduate,
1194,20123050125,diojilovethc@anymail.com,$2y$10$neUcXm/YSGdv1KkEuOvpj.vSZeXiGPIm4NVRvY5KGNFpQeLW59ndW,,2018-01-07 08:09:56.265491,2018-01-07 08:09:56.265491,SEET,CIE,undergraduate,
1195,20123045110,irokadavid@anymail.com,$2y$10$neUcXm/YSGdv1KkEuOvpj.vSZeXiGPIm4NVRvY5KGNFpQeLW59ndW,,2018-01-07 08:09:56.265491,2018-01-07 08:09:56.265491,SEET,CHE,undergraduate,
1196,20123055095,umannamdii@anymail.com,$2y$10$neUcXm/YSGdv1KkEuOvpj.vSZeXiGPIm4NVRvY5KGNFpQeLW59ndW,,2018-01-07 08:09:56.265491,2018-01-07 08:09:56.265491,SEET,MEE,undergraduate,
1197,20123050080,amobivictoryo@anymail.com,$2y$10$neUcXm/YSGdv1KkEuOvpj.vSZeXiGPIm4NVRvY5KGNFpQeLW59ndW,,2018-01-07 08:09:56.265491,2018-01-07 08:09:56.265491,SEET,CIE,undergraduate,
1198,20122040065,ohakachiamakas@anymail.com,$2y$10$neUcXm/YSGdv1KkEuOvpj.vSZeXiGPIm4NVRvY5KGNFpQeLW59ndW,,2018-01-07 08:09:56.265491,2018-01-07 08:09:56.265491,SMAT,PMT,undergraduate,
1199,20121025140,ogwublessingn@anymail.com,$2y$10$neUcXm/YSGdv1KkEuOvpj.vSZeXiGPIm4NVRvY5KGNFpQeLW59ndW,,2018-01-07 08:09:56.265491,2018-01-07 08:09:56.265491,SOSC,PHY,undergraduate,
1200,20123055065,afolabimarym@anymail.com,$2y$10$neUcXm/YSGdv1KkEuOvpj.vSZeXiGPIm4NVRvY5KGNFpQeLW59ndW,,2018-01-07 08:09:56.265491,2018-01-07 08:09:56.265491,SEET,MEE,undergraduate,
1201,20121020125,chibuzorikechukwu@anymail.com,$2y$10$neUcXm/YSGdv1KkEuOvpj.vSZeXiGPIm4NVRvY5KGNFpQeLW59ndW,,2018-01-07 08:09:56.265491,2018-01-07 08:09:56.265491,SOSC,BIO,undergraduate,
1202,20121015110,nwachukwufaithc@anymail.com,$2y$10$neUcXm/YSGdv1KkEuOvpj.vSZeXiGPIm4NVRvY5KGNFpQeLW59ndW,,2018-01-07 08:09:56.265491,2018-01-07 08:09:56.265491,SOSC,CHM,undergraduate,
1203,20121030095,akubavictoro@anymail.com,$2y$10$neUcXm/YSGdv1KkEuOvpj.vSZeXiGPIm4NVRvY5KGNFpQeLW59ndW,,2018-01-07 08:09:56.265491,2018-01-07 08:09:56.265491,SOSC,MTH,undergraduate,
1204,20123055050,adumadanielj@anymail.com,$2y$10$neUcXm/YSGdv1KkEuOvpj.vSZeXiGPIm4NVRvY5KGNFpQeLW59ndW,,2018-01-07 08:09:56.265491,2018-01-07 08:09:56.265491,SEET,MEE,undergraduate,
1205,20122035050,franksolomonm@anymail.com,$2y$10$neUcXm/YSGdv1KkEuOvpj.vSZeXiGPIm4NVRvY5KGNFpQeLW59ndW,,2018-01-07 08:09:56.265491,2018-01-07 08:09:56.265491,SMAT,IMT,undergraduate,
1206,20121025080,okorochiamakaq@anymail.com,$2y$10$neUcXm/YSGdv1KkEuOvpj.vSZeXiGPIm4NVRvY5KGNFpQeLW59ndW,,2018-01-07 08:09:56.265491,2018-01-07 08:09:56.265491,SOSC,PHY,undergraduate,
1207,20121030065,innocentfelixk@anymail.com,$2y$10$neUcXm/YSGdv1KkEuOvpj.vSZeXiGPIm4NVRvY5KGNFpQeLW59ndW,,2018-01-07 08:09:56.265491,2018-01-07 08:09:56.265491,SOSC,MTH,undergraduate,
1208,20121025050,edemekongsamuelm@anymail.com,$2y$10$neUcXm/YSGdv1KkEuOvpj.vSZeXiGPIm4NVRvY5KGNFpQeLW59ndW,,2018-01-07 08:09:56.265491,2018-01-07 08:09:56.265491,SOSC,PHY,undergraduate,
1209,20121025035,ihemhuruchizobamp@anymail.com,$2y$10$neUcXm/YSGdv1KkEuOvpj.vSZeXiGPIm4NVRvY5KGNFpQeLW59ndW,,2018-01-07 08:09:56.265491,2018-01-07 08:09:56.265491,SOSC,PHY,undergraduate,
1210,20122040035,nzeribegodfrey@anymail.com,$2y$10$neUcXm/YSGdv1KkEuOvpj.vSZeXiGPIm4NVRvY5KGNFpQeLW59ndW,,2018-01-07 08:09:56.265491,2018-01-07 08:09:56.265491,SMAT,PMT,undergraduate,
1211,20122040025,hokuamachundim@anymail.com,$2y$10$neUcXm/YSGdv1KkEuOvpj.vSZeXiGPIm4NVRvY5KGNFpQeLW59ndW,,2018-01-07 08:09:56.265491,2018-01-07 08:09:56.265491,SMAT,PMT,undergraduate,
1212,20123055035,dominicpreciousg@anymail.com,$2y$10$neUcXm/YSGdv1KkEuOvpj.vSZeXiGPIm4NVRvY5KGNFpQeLW59ndW,,2018-01-07 08:09:56.265491,2018-01-07 08:09:56.265491,SEET,MEE,undergraduate,
1213,20123050020,oparaochachidozied@anymail.com,$2y$10$neUcXm/YSGdv1KkEuOvpj.vSZeXiGPIm4NVRvY5KGNFpQeLW59ndW,,2018-01-07 08:09:56.265491,2018-01-07 08:09:56.265491,SEET,CIE,undergraduate,
1214,20121030020,nduvictoro@anymail.com,$2y$10$neUcXm/YSGdv1KkEuOvpj.vSZeXiGPIm4NVRvY5KGNFpQeLW59ndW,,2018-01-07 08:09:56.265491,2018-01-07 08:09:56.265491,SOSC,MTH,undergraduate,
1215,20122040015,adubisundayo@anymail.com,$2y$10$neUcXm/YSGdv1KkEuOvpj.vSZeXiGPIm4NVRvY5KGNFpQeLW59ndW,,2018-01-07 08:09:56.265491,2018-01-07 08:09:56.265491,SMAT,PMT,undergraduate,
1216,20122040005,ezekennetho@anymail.com,$2y$10$neUcXm/YSGdv1KkEuOvpj.vSZeXiGPIm4NVRvY5KGNFpQeLW59ndW,,2018-01-07 08:09:56.265491,2018-01-07 08:09:56.265491,SMAT,PMT,undergraduate,
1217,20123055005,nduovictor@gmail.com,$2y$10$neUcXm/YSGdv1KkEuOvpj.vSZeXiGPIm4NVRvY5KGNFpQeLW59ndW,,2018-01-07 08:09:56.265491,2018-01-07 08:09:56.265491,SEET,MEE,undergraduate,
1218,20121025005,nkwoparamaryc@anymail.com,$2y$10$neUcXm/YSGdv1KkEuOvpj.vSZeXiGPIm4NVRvY5KGNFpQeLW59ndW,,2018-01-07 08:09:56.265491,2018-01-07 08:09:56.265491,SOSC,PHY,undergraduate,
1219,reginald,reginald@newmail.com,$2y$10$neUcXm/YSGdv1KkEuOvpj.vSZeXiGPIm4NVRvY5KGNFpQeLW59ndW,,2018-01-07 08:09:56.265491,2018-01-07 08:09:56.265491,,,guardian,
1220,selina,selina@newmail.com,$2y$10$neUcXm/YSGdv1KkEuOvpj.vSZeXiGPIm4NVRvY5KGNFpQeLW59ndW,,2018-01-07 08:09:56.265491,2018-01-07 08:09:56.265491,,,guardian,
1221,solomon,solomon@newmail.com,$2y$10$neUcXm/YSGdv1KkEuOvpj.vSZeXiGPIm4NVRvY5KGNFpQeLW59ndW,,2018-01-07 08:09:56.265491,2018-01-07 08:09:56.265491,,,guardian,
1222,nneka,nneka@newmail.com,$2y$10$neUcXm/YSGdv1KkEuOvpj.vSZeXiGPIm4NVRvY5KGNFpQeLW59ndW,,2018-01-07 08:09:56.265491,2018-01-07 08:09:56.265491,,,guardian,
1223,olagoke,olagoke@newmail.com,$2y$10$neUcXm/YSGdv1KkEuOvpj.vSZeXiGPIm4NVRvY5KGNFpQeLW59ndW,,2018-01-07 08:09:56.265491,2018-01-07 08:09:56.265491,,,guardian,
1224,olayinka,olayinka@newmail.com,$2y$10$neUcXm/YSGdv1KkEuOvpj.vSZeXiGPIm4NVRvY5KGNFpQeLW59ndW,,2018-01-07 08:09:56.265491,2018-01-07 08:09:56.265491,,,guardian,
1225,samuel,samuel@newmail.com,$2y$10$neUcXm/YSGdv1KkEuOvpj.vSZeXiGPIm4NVRvY5KGNFpQeLW59ndW,,2018-01-07 08:09:56.265491,2018-01-07 08:09:56.265491,,,guardian,
1226,gladys,gladys@newmail.com,$2y$10$neUcXm/YSGdv1KkEuOvpj.vSZeXiGPIm4NVRvY5KGNFpQeLW59ndW,,2018-01-07 08:09:56.265491,2018-01-07 08:09:56.265491,,,guardian,
1227,humphrey,humphrey@newmail.com,$2y$10$neUcXm/YSGdv1KkEuOvpj.vSZeXiGPIm4NVRvY5KGNFpQeLW59ndW,,2018-01-07 08:09:56.265491,2018-01-07 08:09:56.265491,,,guardian,
1228,john,john@newmail.com,$2y$10$neUcXm/YSGdv1KkEuOvpj.vSZeXiGPIm4NVRvY5KGNFpQeLW59ndW,,2018-01-07 08:09:56.265491,2018-01-07 08:09:56.265491,,,guardian,
1229,ogechi,ogechi@newmail.com,$2y$10$neUcXm/YSGdv1KkEuOvpj.vSZeXiGPIm4NVRvY5KGNFpQeLW59ndW,,2018-01-07 08:09:56.265491,2018-01-07 08:09:56.265491,,,guardian,
1230,charles,charles@newmail.com,$2y$10$neUcXm/YSGdv1KkEuOvpj.vSZeXiGPIm4NVRvY5KGNFpQeLW59ndW,,2018-01-07 08:09:56.265491,2018-01-07 08:09:56.265491,,,guardian,
1231,chinyere,chinyere@newmail.com,$2y$10$neUcXm/YSGdv1KkEuOvpj.vSZeXiGPIm4NVRvY5KGNFpQeLW59ndW,,2018-01-07 08:09:56.265491,2018-01-07 08:09:56.265491,,,guardian,
1232,christopher,christopher@newmail.com,$2y$10$neUcXm/YSGdv1KkEuOvpj.vSZeXiGPIm4NVRvY5KGNFpQeLW59ndW,,2018-01-07 08:09:56.265491,2018-01-07 08:09:56.265491,,,guardian,
1233,godsent,godsent@newmail.com,$2y$10$neUcXm/YSGdv1KkEuOvpj.vSZeXiGPIm4NVRvY5KGNFpQeLW59ndW,,2018-01-07 08:09:56.265491,2018-01-07 08:09:56.265491,,,guardian,
1234,adedeji ,adedeji @newmail.com,$2y$10$neUcXm/YSGdv1KkEuOvpj.vSZeXiGPIm4NVRvY5KGNFpQeLW59ndW,,2018-01-07 08:09:56.265491,2018-01-07 08:09:56.265491,,,guardian,
1235,adeyemi,adeyemi@newmail.com,$2y$10$neUcXm/YSGdv1KkEuOvpj.vSZeXiGPIm4NVRvY5KGNFpQeLW59ndW,,2018-01-07 08:09:56.265491,2018-01-07 08:09:56.265491,,,guardian,
1236,albert,albert@newmail.com,$2y$10$neUcXm/YSGdv1KkEuOvpj.vSZeXiGPIm4NVRvY5KGNFpQeLW59ndW,,2018-01-07 08:09:56.265491,2018-01-07 08:09:56.265491,,,guardian,
1237,chibundo,chibundo@newmail.com,$2y$10$neUcXm/YSGdv1KkEuOvpj.vSZeXiGPIm4NVRvY5KGNFpQeLW59ndW,,2018-01-07 08:09:56.265491,2018-01-07 08:09:56.265491,,,guardian,
1238,adekola,adekola@newmail.com,$2y$10$neUcXm/YSGdv1KkEuOvpj.vSZeXiGPIm4NVRvY5KGNFpQeLW59ndW,,2018-01-07 08:09:56.265491,2018-01-07 08:09:56.265491,,,guardian,
1239,okechukwu,okechukwu@newmail.com,$2y$10$neUcXm/YSGdv1KkEuOvpj.vSZeXiGPIm4NVRvY5KGNFpQeLW59ndW,,2018-01-07 08:09:56.265491,2018-01-07 08:09:56.265491,,,guardian,
1240,henry,henry@newmail.com,$2y$10$neUcXm/YSGdv1KkEuOvpj.vSZeXiGPIm4NVRvY5KGNFpQeLW59ndW,,2018-01-07 08:09:56.265491,2018-01-07 08:09:56.265491,,,guardian,
1241,chima,chima@newmail.com,$2y$10$neUcXm/YSGdv1KkEuOvpj.vSZeXiGPIm4NVRvY5KGNFpQeLW59ndW,,2018-01-07 08:09:56.265491,2018-01-07 08:09:56.265491,,,guardian,
1242,adeola,adeola@newmail.com,$2y$10$neUcXm/YSGdv1KkEuOvpj.vSZeXiGPIm4NVRvY5KGNFpQeLW59ndW,,2018-01-07 08:09:56.265491,2018-01-07 08:09:56.265491,,,guardian,
1243,yahaya,yahaya@newmail.com,$2y$10$neUcXm/YSGdv1KkEuOvpj.vSZeXiGPIm4NVRvY5KGNFpQeLW59ndW,,2018-01-07 08:09:56.265491,2018-01-07 08:09:56.265491,,,guardian,
1244,rasaaq,rasaaq@newmail.com,$2y$10$neUcXm/YSGdv1KkEuOvpj.vSZeXiGPIm4NVRvY5KGNFpQeLW59ndW,,2018-01-07 08:09:56.265491,2018-01-07 08:09:56.265491,,,guardian,
1245,petronilla,petronilla@newmail.com,$2y$10$neUcXm/YSGdv1KkEuOvpj.vSZeXiGPIm4NVRvY5KGNFpQeLW59ndW,,2018-01-07 08:09:56.265491,2018-01-07 08:09:56.265491,,,guardian,
1246,nancy,nancy@newmail.com,$2y$10$neUcXm/YSGdv1KkEuOvpj.vSZeXiGPIm4NVRvY5KGNFpQeLW59ndW,,2018-01-07 08:09:56.265491,2018-01-07 08:09:56.265491,,,guardian,
1247,mudasiru,mudasiru@newmail.com,$2y$10$neUcXm/YSGdv1KkEuOvpj.vSZeXiGPIm4NVRvY5KGNFpQeLW59ndW,,2018-01-07 08:09:56.265491,2018-01-07 08:09:56.265491,,,guardian,
1248,ginika,ginika@newmail.com,$2y$10$neUcXm/YSGdv1KkEuOvpj.vSZeXiGPIm4NVRvY5KGNFpQeLW59ndW,,2018-01-07 08:09:56.265491,2018-01-07 08:09:56.265491,,,guardian,
1249,fidelia,fidelia@newmail.com,$2y$10$neUcXm/YSGdv1KkEuOvpj.vSZeXiGPIm4NVRvY5KGNFpQeLW59ndW,,2018-01-07 08:09:56.265491,2018-01-07 08:09:56.265491,,,guardian,
1250,caleb,caleb@newmail.com,$2y$10$neUcXm/YSGdv1KkEuOvpj.vSZeXiGPIm4NVRvY5KGNFpQeLW59ndW,,2018-01-07 08:09:56.265491,2018-01-07 08:09:56.265491,,,guardian,
1251,basden,basden@newmail.com,$2y$10$neUcXm/YSGdv1KkEuOvpj.vSZeXiGPIm4NVRvY5KGNFpQeLW59ndW,,2018-01-07 08:09:56.265491,2018-01-07 08:09:56.265491,,,guardian,
1252,abiodun,abiodun@newmail.com,$2y$10$neUcXm/YSGdv1KkEuOvpj.vSZeXiGPIm4NVRvY5KGNFpQeLW59ndW,,2018-01-07 08:09:56.265491,2018-01-07 08:09:56.265491,,,guardian,
1253,raphael,raphael@newmail.com,$2y$10$neUcXm/YSGdv1KkEuOvpj.vSZeXiGPIm4NVRvY5KGNFpQeLW59ndW,,2018-01-07 08:09:56.265491,2018-01-07 08:09:56.265491,,,guardian,
1254,uvie,uvie@newmail.com,$2y$10$neUcXm/YSGdv1KkEuOvpj.vSZeXiGPIm4NVRvY5KGNFpQeLW59ndW,,2018-01-07 08:09:56.265491,2018-01-07 08:09:56.265491,,,guardian,
1255,vincent,vincent@newmail.com,$2y$10$neUcXm/YSGdv1KkEuOvpj.vSZeXiGPIm4NVRvY5KGNFpQeLW59ndW,,2018-01-07 08:09:56.265491,2018-01-07 08:09:56.265491,,,guardian,
1256,mustafa,mustafa@newmail.com,$2y$10$neUcXm/YSGdv1KkEuOvpj.vSZeXiGPIm4NVRvY5KGNFpQeLW59ndW,,2018-01-07 08:09:56.265491,2018-01-07 08:09:56.265491,,,guardian,
1257,osaretin,osaretin@newmail.com,$2y$10$neUcXm/YSGdv1KkEuOvpj.vSZeXiGPIm4NVRvY5KGNFpQeLW59ndW,,2018-01-07 08:09:56.265491,2018-01-07 08:09:56.265491,,,guardian,
1258,patience,patience@newmail.com,$2y$10$neUcXm/YSGdv1KkEuOvpj.vSZeXiGPIm4NVRvY5KGNFpQeLW59ndW,,2018-01-07 08:09:56.265491,2018-01-07 08:09:56.265491,,,guardian,
1259,gandhi,gandhi@newmail.com,$2y$10$neUcXm/YSGdv1KkEuOvpj.vSZeXiGPIm4NVRvY5KGNFpQeLW59ndW,,2018-01-07 08:09:56.265491,2018-01-07 08:09:56.265491,,,guardian,
1260,martin,martin@newmail.com,$2y$10$neUcXm/YSGdv1KkEuOvpj.vSZeXiGPIm4NVRvY5KGNFpQeLW59ndW,,2018-01-07 08:09:56.265491,2018-01-07 08:09:56.265491,,,guardian,
1261,michael,michael@newmail.com,$2y$10$neUcXm/YSGdv1KkEuOvpj.vSZeXiGPIm4NVRvY5KGNFpQeLW59ndW,,2018-01-07 08:09:56.265491,2018-01-07 08:09:56.265491,,,guardian,
1262,benedict,benedict@newmail.com,$2y$10$neUcXm/YSGdv1KkEuOvpj.vSZeXiGPIm4NVRvY5KGNFpQeLW59ndW,,2018-01-07 08:09:56.265491,2018-01-07 08:09:56.265491,,,guardian,
1263,ebenezer,ebenezer@newmail.com,$2y$10$neUcXm/YSGdv1KkEuOvpj.vSZeXiGPIm4NVRvY5KGNFpQeLW59ndW,,2018-01-07 08:09:56.265491,2018-01-07 08:09:56.265491,,,guardian,
1264,esther,esther@newmail.com,$2y$10$neUcXm/YSGdv1KkEuOvpj.vSZeXiGPIm4NVRvY5KGNFpQeLW59ndW,,2018-01-07 08:09:56.265491,2018-01-07 08:09:56.265491,,,guardian,
1265,austin,austin@newmail.com,$2y$10$neUcXm/YSGdv1KkEuOvpj.vSZeXiGPIm4NVRvY5KGNFpQeLW59ndW,,2018-01-07 08:09:56.265491,2018-01-07 08:09:56.265491,,,guardian,
1266,balarabe ,balarabe @newmail.com,$2y$10$neUcXm/YSGdv1KkEuOvpj.vSZeXiGPIm4NVRvY5KGNFpQeLW59ndW,,2018-01-07 08:09:56.265491,2018-01-07 08:09:56.265491,,,guardian,
1267,sunday,sunday@newmail.com,$2y$10$neUcXm/YSGdv1KkEuOvpj.vSZeXiGPIm4NVRvY5KGNFpQeLW59ndW,,2018-01-07 08:09:56.265491,2018-01-07 08:09:56.265491,,,guardian,
1268,oluranti,oluranti@newmail.com,$2y$10$neUcXm/YSGdv1KkEuOvpj.vSZeXiGPIm4NVRvY5KGNFpQeLW59ndW,,2018-01-07 08:09:56.265491,2018-01-07 08:09:56.265491,,,guardian,
1269,macleans,macleans@newmail.com,$2y$10$neUcXm/YSGdv1KkEuOvpj.vSZeXiGPIm4NVRvY5KGNFpQeLW59ndW,,2018-01-07 08:09:56.265491,2018-01-07 08:09:56.265491,,,guardian,
1270,clement,clement@newmail.com,$2y$10$neUcXm/YSGdv1KkEuOvpj.vSZeXiGPIm4NVRvY5KGNFpQeLW59ndW,,2018-01-07 08:09:56.265491,2018-01-07 08:09:56.265491,,,guardian,
1271,angela,angela@newmail.com,$2y$10$neUcXm/YSGdv1KkEuOvpj.vSZeXiGPIm4NVRvY5KGNFpQeLW59ndW,,2018-01-07 08:09:56.265491,2018-01-07 08:09:56.265491,,,guardian,
1272,umar g,umar g@newmail.com,$2y$10$neUcXm/YSGdv1KkEuOvpj.vSZeXiGPIm4NVRvY5KGNFpQeLW59ndW,,2018-01-07 08:09:56.265491,2018-01-07 08:09:56.265491,,,guardian,
1273,oluwole,oluwole@newmail.com,$2y$10$neUcXm/YSGdv1KkEuOvpj.vSZeXiGPIm4NVRvY5KGNFpQeLW59ndW,,2018-01-07 08:09:56.265491,2018-01-07 08:09:56.265491,,,guardian,
1274,mahmoud,mahmoud@newmail.com,$2y$10$neUcXm/YSGdv1KkEuOvpj.vSZeXiGPIm4NVRvY5KGNFpQeLW59ndW,,2018-01-07 08:09:56.265491,2018-01-07 08:09:56.265491,,,guardian,
1275,doris,doris@newmail.com,$2y$10$neUcXm/YSGdv1KkEuOvpj.vSZeXiGPIm4NVRvY5KGNFpQeLW59ndW,,2018-01-07 08:09:56.265491,2018-01-07 08:09:56.265491,,,guardian,
1276,anthony,anthony@newmail.com,$2y$10$neUcXm/YSGdv1KkEuOvpj.vSZeXiGPIm4NVRvY5KGNFpQeLW59ndW,,2018-01-07 08:09:56.265491,2018-01-07 08:09:56.265491,,,guardian,
1277,philip,philip@newmail.com,$2y$10$neUcXm/YSGdv1KkEuOvpj.vSZeXiGPIm4NVRvY5KGNFpQeLW59ndW,,2018-01-07 08:09:56.265491,2018-01-07 08:09:56.265491,,,guardian,
1278,muhammad,muhammad@newmail.com,$2y$10$neUcXm/YSGdv1KkEuOvpj.vSZeXiGPIm4NVRvY5KGNFpQeLW59ndW,,2018-01-07 08:09:56.265491,2018-01-07 08:09:56.265491,,,guardian,
1279,folashade,folashade@newmail.com,$2y$10$neUcXm/YSGdv1KkEuOvpj.vSZeXiGPIm4NVRvY5KGNFpQeLW59ndW,,2018-01-07 08:09:56.265491,2018-01-07 08:09:56.265491,,,guardian,
1280,basil,basil@newmail.com,$2y$10$neUcXm/YSGdv1KkEuOvpj.vSZeXiGPIm4NVRvY5KGNFpQeLW59ndW,,2018-01-07 08:09:56.265491,2018-01-07 08:09:56.265491,,,guardian,
1281,tochukwu,tochukwu@newmail.com,$2y$10$neUcXm/YSGdv1KkEuOvpj.vSZeXiGPIm4NVRvY5KGNFpQeLW59ndW,,2018-01-07 08:09:56.265491,2018-01-07 08:09:56.265491,,,guardian,
1282,oluwafunke,oluwafunke@newmail.com,$2y$10$neUcXm/YSGdv1KkEuOvpj.vSZeXiGPIm4NVRvY5KGNFpQeLW59ndW,,2018-01-07 08:09:56.265491,2018-01-07 08:09:56.265491,,,guardian,
1283,madubueze,madubueze@newmail.com,$2y$10$neUcXm/YSGdv1KkEuOvpj.vSZeXiGPIm4NVRvY5KGNFpQeLW59ndW,,2018-01-07 08:09:56.265491,2018-01-07 08:09:56.265491,,,guardian,
1284,dike,dike@newmail.com,$2y$10$neUcXm/YSGdv1KkEuOvpj.vSZeXiGPIm4NVRvY5KGNFpQeLW59ndW,,2018-01-07 08:09:56.265491,2018-01-07 08:09:56.265491,,,guardian,
1285,anthonia,anthonia@newmail.com,$2y$10$neUcXm/YSGdv1KkEuOvpj.vSZeXiGPIm4NVRvY5KGNFpQeLW59ndW,,2018-01-07 08:09:56.265491,2018-01-07 08:09:56.265491,,,guardian,
1286,victor,victor@newmail.com,$2y$10$neUcXm/YSGdv1KkEuOvpj.vSZeXiGPIm4NVRvY5KGNFpQeLW59ndW,,2018-01-07 08:09:56.265491,2018-01-07 08:09:56.265491,,,guardian,
1287,pascal,pascal@newmail.com,$2y$10$neUcXm/YSGdv1KkEuOvpj.vSZeXiGPIm4NVRvY5KGNFpQeLW59ndW,,2018-01-07 08:09:56.265491,2018-01-07 08:09:56.265491,,,guardian,
1288,matthew,matthew@newmail.com,$2y$10$neUcXm/YSGdv1KkEuOvpj.vSZeXiGPIm4NVRvY5KGNFpQeLW59ndW,,2018-01-07 08:09:56.265491,2018-01-07 08:09:56.265491,,,guardian,
1289,emmanuel,emmanuel@newmail.com,$2y$10$neUcXm/YSGdv1KkEuOvpj.vSZeXiGPIm4NVRvY5KGNFpQeLW59ndW,,2018-01-07 08:09:56.265491,2018-01-07 08:09:56.265491,,,guardian,
1290,ayodele,ayodele@newmail.com,$2y$10$neUcXm/YSGdv1KkEuOvpj.vSZeXiGPIm4NVRvY5KGNFpQeLW59ndW,,2018-01-07 08:09:56.265491,2018-01-07 08:09:56.265491,,,guardian,
1291,wilson,wilson@newmail.com,$2y$10$neUcXm/YSGdv1KkEuOvpj.vSZeXiGPIm4NVRvY5KGNFpQeLW59ndW,,2018-01-07 08:09:56.265491,2018-01-07 08:09:56.265491,,,guardian,
1292,peter,peter@newmail.com,$2y$10$neUcXm/YSGdv1KkEuOvpj.vSZeXiGPIm4NVRvY5KGNFpQeLW59ndW,,2018-01-07 08:09:56.265491,2018-01-07 08:09:56.265491,,,guardian,
1293,mohammed,mohammed@newmail.com,$2y$10$neUcXm/YSGdv1KkEuOvpj.vSZeXiGPIm4NVRvY5KGNFpQeLW59ndW,,2018-01-07 08:09:56.265491,2018-01-07 08:09:56.265491,,,guardian,
1294,evelyn,evelyn@newmail.com,$2y$10$neUcXm/YSGdv1KkEuOvpj.vSZeXiGPIm4NVRvY5KGNFpQeLW59ndW,,2018-01-07 08:09:56.265491,2018-01-07 08:09:56.265491,,,guardian,
1295,barbara,barbara@newmail.com,$2y$10$neUcXm/YSGdv1KkEuOvpj.vSZeXiGPIm4NVRvY5KGNFpQeLW59ndW,,2018-01-07 08:09:56.265491,2018-01-07 08:09:56.265491,,,guardian,
1296,stanley,stanley@newmail.com,$2y$10$neUcXm/YSGdv1KkEuOvpj.vSZeXiGPIm4NVRvY5KGNFpQeLW59ndW,,2018-01-07 08:09:56.265491,2018-01-07 08:09:56.265491,,,guardian,
1297,olukemi,olukemi@newmail.com,$2y$10$neUcXm/YSGdv1KkEuOvpj.vSZeXiGPIm4NVRvY5KGNFpQeLW59ndW,,2018-01-07 08:09:56.265491,2018-01-07 08:09:56.265491,,,guardian,
1298,kamilu,kamilu@newmail.com,$2y$10$neUcXm/YSGdv1KkEuOvpj.vSZeXiGPIm4NVRvY5KGNFpQeLW59ndW,,2018-01-07 08:09:56.265491,2018-01-07 08:09:56.265491,,,guardian,
1299,ciroma,ciroma@newmail.com,$2y$10$neUcXm/YSGdv1KkEuOvpj.vSZeXiGPIm4NVRvY5KGNFpQeLW59ndW,,2018-01-07 08:09:56.265491,2018-01-07 08:09:56.265491,,,guardian,
1300,andrew,andrew@newmail.com,$2y$10$neUcXm/YSGdv1KkEuOvpj.vSZeXiGPIm4NVRvY5KGNFpQeLW59ndW,,2018-01-07 08:09:56.265491,2018-01-07 08:09:56.265491,,,guardian,
1301,20171015020,ibeawuchiekpe@newmail.com,$2y$10$neUcXm/YSGdv1KkEuOvpj.vSZeXiGPIm4NVRvY5KGNFpQeLW59ndW,,2018-01-07 08:09:56.265491,2018-01-07 08:09:56.265491,SOSC,BIO,undergraduate,
1302,20171015080,temitopeolabode@newmail.com,$2y$10$neUcXm/YSGdv1KkEuOvpj.vSZeXiGPIm4NVRvY5KGNFpQeLW59ndW,,2018-01-07 08:09:56.265491,2018-01-07 08:09:56.265491,SEET,CIE,undergraduate,
1303,20171015110,abiola olabisi@newmail.com,$2y$10$neUcXm/YSGdv1KkEuOvpj.vSZeXiGPIm4NVRvY5KGNFpQeLW59ndW,,2018-01-07 08:09:56.265491,2018-01-07 08:09:56.265491,SMAT,IMT,undergraduate,
1304,20171015140,adeyipeter@newmail.com,$2y$10$neUcXm/YSGdv1KkEuOvpj.vSZeXiGPIm4NVRvY5KGNFpQeLW59ndW,,2018-01-07 08:09:56.265491,2018-01-07 08:09:56.265491,SMAT,PMT,undergraduate,
1305,20171015245,alaotaiwo@newmail.com,$2y$10$neUcXm/YSGdv1KkEuOvpj.vSZeXiGPIm4NVRvY5KGNFpQeLW59ndW,,2018-01-07 08:09:56.265491,2018-01-07 08:09:56.265491,SOSC,CHM,undergraduate,
1306,20171020050,jibrinsunday@newmail.com,$2y$10$neUcXm/YSGdv1KkEuOvpj.vSZeXiGPIm4NVRvY5KGNFpQeLW59ndW,,2018-01-07 08:09:56.265491,2018-01-07 08:09:56.265491,SEET,CHE,undergraduate,
1307,20171020065,toryilasolomon@newmail.com,$2y$10$neUcXm/YSGdv1KkEuOvpj.vSZeXiGPIm4NVRvY5KGNFpQeLW59ndW,,2018-01-07 08:09:56.265491,2018-01-07 08:09:56.265491,SEET,MEE,undergraduate,
1308,20171020125,idiahirievelyn@newmail.com,$2y$10$neUcXm/YSGdv1KkEuOvpj.vSZeXiGPIm4NVRvY5KGNFpQeLW59ndW,,2018-01-07 08:09:56.265491,2018-01-07 08:09:56.265491,SEET,CHE,undergraduate,
1309,20171020170,chiemekaemmanuel@newmail.com,$2y$10$neUcXm/YSGdv1KkEuOvpj.vSZeXiGPIm4NVRvY5KGNFpQeLW59ndW,,2018-01-07 08:09:56.265491,2018-01-07 08:09:56.265491,SOSC,MTH,undergraduate,
1310,20171020185,ejoradams@newmail.com,$2y$10$neUcXm/YSGdv1KkEuOvpj.vSZeXiGPIm4NVRvY5KGNFpQeLW59ndW,,2018-01-07 08:09:56.265491,2018-01-07 08:09:56.265491,SMAT,IMT,undergraduate,
1311,20171020200,onwukaijeoma@newmail.com,$2y$10$neUcXm/YSGdv1KkEuOvpj.vSZeXiGPIm4NVRvY5KGNFpQeLW59ndW,,2018-01-07 08:09:56.265491,2018-01-07 08:09:56.265491,SOSC,CHM,undergraduate,
1312,20171020215,stephentemitope@newmail.com,$2y$10$neUcXm/YSGdv1KkEuOvpj.vSZeXiGPIm4NVRvY5KGNFpQeLW59ndW,,2018-01-07 08:09:56.265491,2018-01-07 08:09:56.265491,SOSC,BIO,undergraduate,
1313,20171020260,onojayefesampson@newmail.com,$2y$10$neUcXm/YSGdv1KkEuOvpj.vSZeXiGPIm4NVRvY5KGNFpQeLW59ndW,,2018-01-07 08:09:56.265491,2018-01-07 08:09:56.265491,SOSC,CHM,undergraduate,
1314,20171025155,kehindeomolola@newmail.com,$2y$10$neUcXm/YSGdv1KkEuOvpj.vSZeXiGPIm4NVRvY5KGNFpQeLW59ndW,,2018-01-07 08:09:56.265491,2018-01-07 08:09:56.265491,SEET,CIE,undergraduate,
1315,20171025275,danielolagoke@newmail.com,$2y$10$neUcXm/YSGdv1KkEuOvpj.vSZeXiGPIm4NVRvY5KGNFpQeLW59ndW,,2018-01-07 08:09:56.265491,2018-01-07 08:09:56.265491,SEET,MEE,undergraduate,
1316,20171025290,ukehchidi@newmail.com,$2y$10$neUcXm/YSGdv1KkEuOvpj.vSZeXiGPIm4NVRvY5KGNFpQeLW59ndW,,2018-01-07 08:09:56.265491,2018-01-07 08:09:56.265491,SOSC,BIO,undergraduate,
1317,20171030005,fadeyicomfort@newmail.com,$2y$10$neUcXm/YSGdv1KkEuOvpj.vSZeXiGPIm4NVRvY5KGNFpQeLW59ndW,,2018-01-07 08:09:56.265491,2018-01-07 08:09:56.265491,SOSC,MTH,undergraduate,
1318,20171030035,gbaderohezekiah@newmail.com,$2y$10$neUcXm/YSGdv1KkEuOvpj.vSZeXiGPIm4NVRvY5KGNFpQeLW59ndW,,2018-01-07 08:09:56.265491,2018-01-07 08:09:56.265491,SOSC,CHM,undergraduate,
1319,20171030095,okorovictor@newmail.com,$2y$10$neUcXm/YSGdv1KkEuOvpj.vSZeXiGPIm4NVRvY5KGNFpQeLW59ndW,,2018-01-07 08:09:56.265491,2018-01-07 08:09:56.265491,SOSC,BIO,undergraduate,
1320,20171030230,adigunoluwakemi@newmail.com,$2y$10$neUcXm/YSGdv1KkEuOvpj.vSZeXiGPIm4NVRvY5KGNFpQeLW59ndW,,2018-01-07 08:09:56.265491,2018-01-07 08:09:56.265491,SEET,CHE,undergraduate,
1321,20172035020,jonathanadokige@newmail.com,$2y$10$neUcXm/YSGdv1KkEuOvpj.vSZeXiGPIm4NVRvY5KGNFpQeLW59ndW,,2018-01-07 08:09:56.265491,2018-01-07 08:09:56.265491,SOSC,PHY,undergraduate,
1322,20172035050,michaeljoseph@newmail.com,$2y$10$neUcXm/YSGdv1KkEuOvpj.vSZeXiGPIm4NVRvY5KGNFpQeLW59ndW,,2018-01-07 08:09:56.265491,2018-01-07 08:09:56.265491,SOSC,PHY,undergraduate,
1323,20172035080,onifadeomowunmi@newmail.com,$2y$10$neUcXm/YSGdv1KkEuOvpj.vSZeXiGPIm4NVRvY5KGNFpQeLW59ndW,,2018-01-07 08:09:56.265491,2018-01-07 08:09:56.265491,SEET,CIE,undergraduate,
1324,20172035095,obiobopaul@newmail.com,$2y$10$neUcXm/YSGdv1KkEuOvpj.vSZeXiGPIm4NVRvY5KGNFpQeLW59ndW,,2018-01-07 08:09:56.265491,2018-01-07 08:09:56.265491,SEET,CHE,undergraduate,
1325,20172040005,udenyisunday@newmail.com,$2y$10$neUcXm/YSGdv1KkEuOvpj.vSZeXiGPIm4NVRvY5KGNFpQeLW59ndW,,2018-01-07 08:09:56.265491,2018-01-07 08:09:56.265491,SMAT,PMT,undergraduate,
1326,20172040035,odabavictoria@newmail.com,$2y$10$neUcXm/YSGdv1KkEuOvpj.vSZeXiGPIm4NVRvY5KGNFpQeLW59ndW,,2018-01-07 08:09:56.265491,2018-01-07 08:09:56.265491,SEET,MEE,undergraduate,
1327,20172040065,okedelesamuel@newmail.com,$2y$10$neUcXm/YSGdv1KkEuOvpj.vSZeXiGPIm4NVRvY5KGNFpQeLW59ndW,,2018-01-07 08:09:56.265491,2018-01-07 08:09:56.265491,SOSC,MTH,undergraduate,
1328,20172040110,idahosapaul@newmail.com,$2y$10$neUcXm/YSGdv1KkEuOvpj.vSZeXiGPIm4NVRvY5KGNFpQeLW59ndW,,2018-01-07 08:09:56.265491,2018-01-07 08:09:56.265491,SEET,CIE,undergraduate,
1329,20172040125,badmusmichael@newmail.com,$2y$10$neUcXm/YSGdv1KkEuOvpj.vSZeXiGPIm4NVRvY5KGNFpQeLW59ndW,,2018-01-07 08:09:56.265491,2018-01-07 08:09:56.265491,SOSC,BIO,undergraduate,
1330,20173045050,odedirananuoluwa@newmail.com,$2y$10$neUcXm/YSGdv1KkEuOvpj.vSZeXiGPIm4NVRvY5KGNFpQeLW59ndW,,2018-01-07 08:09:56.265491,2018-01-07 08:09:56.265491,SEET,CHE,undergraduate,
1331,20173045065,ibrahimadeola@newmail.com,$2y$10$neUcXm/YSGdv1KkEuOvpj.vSZeXiGPIm4NVRvY5KGNFpQeLW59ndW,,2018-01-07 08:09:56.265491,2018-01-07 08:09:56.265491,SEET,CHE,undergraduate,
1332,20173045095,abisoyestephen@newmail.com,$2y$10$neUcXm/YSGdv1KkEuOvpj.vSZeXiGPIm4NVRvY5KGNFpQeLW59ndW,,2018-01-07 08:09:56.265491,2018-01-07 08:09:56.265491,SOSC,PHY,undergraduate,
1333,20173045125,anisandra@newmail.com,$2y$10$neUcXm/YSGdv1KkEuOvpj.vSZeXiGPIm4NVRvY5KGNFpQeLW59ndW,,2018-01-07 08:09:56.265491,2018-01-07 08:09:56.265491,SEET,CIE,undergraduate,
1334,20173045200,jesuloluwasefunmi@newmail.com,$2y$10$neUcXm/YSGdv1KkEuOvpj.vSZeXiGPIm4NVRvY5KGNFpQeLW59ndW,,2018-01-07 08:09:56.265491,2018-01-07 08:09:56.265491,SOSC,BIO,undergraduate,
1335,20173045230,owolabidavid@newmail.com,$2y$10$neUcXm/YSGdv1KkEuOvpj.vSZeXiGPIm4NVRvY5KGNFpQeLW59ndW,,2018-01-07 08:09:56.265491,2018-01-07 08:09:56.265491,SMAT,IMT,undergraduate,
1336,20173050035,egentiemmanuel@newmail.com,$2y$10$neUcXm/YSGdv1KkEuOvpj.vSZeXiGPIm4NVRvY5KGNFpQeLW59ndW,,2018-01-07 08:09:56.265491,2018-01-07 08:09:56.265491,SMAT,PMT,undergraduate,
1337,20173050080,oluwatayomichael@newmail.com,$2y$10$neUcXm/YSGdv1KkEuOvpj.vSZeXiGPIm4NVRvY5KGNFpQeLW59ndW,,2018-01-07 08:09:56.265491,2018-01-07 08:09:56.265491,SEET,MEE,undergraduate,
1338,20173050140,rufusebere@newmail.com,$2y$10$neUcXm/YSGdv1KkEuOvpj.vSZeXiGPIm4NVRvY5KGNFpQeLW59ndW,,2018-01-07 08:09:56.265491,2018-01-07 08:09:56.265491,SMAT,PMT,undergraduate,
1339,20173050170,olatuyiolayinka@newmail.com,$2y$10$neUcXm/YSGdv1KkEuOvpj.vSZeXiGPIm4NVRvY5KGNFpQeLW59ndW,,2018-01-07 08:09:56.265491,2018-01-07 08:09:56.265491,SOSC,BIO,undergraduate,
1340,20173050215,ekechidi@newmail.com,$2y$10$neUcXm/YSGdv1KkEuOvpj.vSZeXiGPIm4NVRvY5KGNFpQeLW59ndW,,2018-01-07 08:09:56.265491,2018-01-07 08:09:56.265491,SOSC,BIO,undergraduate,
1341,20173055005,akajitochukwu@newmail.com,$2y$10$neUcXm/YSGdv1KkEuOvpj.vSZeXiGPIm4NVRvY5KGNFpQeLW59ndW,,2018-01-07 08:09:56.265491,2018-01-07 08:09:56.265491,SOSC,CHM,undergraduate,
1342,20173055020,ciromaagnes@newmail.com,$2y$10$neUcXm/YSGdv1KkEuOvpj.vSZeXiGPIm4NVRvY5KGNFpQeLW59ndW,,2018-01-07 08:09:56.265491,2018-01-07 08:09:56.265491,SMAT,IMT,undergraduate,
1343,20173055110,templeshokanitan@newmail.com,$2y$10$neUcXm/YSGdv1KkEuOvpj.vSZeXiGPIm4NVRvY5KGNFpQeLW59ndW,,2018-01-07 08:09:56.265491,2018-01-07 08:09:56.265491,SMAT,PMT,undergraduate,
1344,20173055155,samsonadelaja@newmail.com,$2y$10$neUcXm/YSGdv1KkEuOvpj.vSZeXiGPIm4NVRvY5KGNFpQeLW59ndW,,2018-01-07 08:09:56.265491,2018-01-07 08:09:56.265491,SOSC,MTH,undergraduate,
1345,20173055185,godfreyokorieh@newmail.com,$2y$10$neUcXm/YSGdv1KkEuOvpj.vSZeXiGPIm4NVRvY5KGNFpQeLW59ndW,,2018-01-07 08:09:56.265491,2018-01-07 08:09:56.265491,SEET,MEE,undergraduate,
