id,gurdian_id,first_name,last_name,sex,photo_location,name_initials,created_at,updated_at
1,reginald,Reginald,,Female,images/global/avatars/_avatar_female_2.png,,2018-01-02 21:48:55.785620,2018-01-02 21:48:55.785620
2,selina,Selina,,Female,images/global/avatars/_avatar_female_3.png,,2018-01-02 21:48:55.785620,2018-01-02 21:48:55.785620
3,solomon,Solomon,,Male,images/global/avatars/_avatar_male_2.png,,2018-01-02 21:48:55.785620,2018-01-02 21:48:55.785620
4,nneka,Nneka,,Female,images/global/avatars/_avatar_female_1.png,,2018-01-02 21:48:55.785620,2018-01-02 21:48:55.785620
5,olagoke,Olagoke,,Male,images/global/avatars/_avatar_male_1.png,,2018-01-02 21:48:55.785620,2018-01-02 21:48:55.785620
6,olayinka,Olayinka,,Female,images/global/avatars/_avatar_female_2.png,,2018-01-02 21:48:55.785620,2018-01-02 21:48:55.785620
7,samuel,Samuel,,Male,images/global/avatars/_avatar_male_1.png,,2018-01-02 21:48:55.785620,2018-01-02 21:48:55.785620
8,gladys,Gladys,,Female,images/global/avatars/_avatar_female_2.png,,2018-01-02 21:48:55.785620,2018-01-02 21:48:55.785620
9,humphrey,Humphrey,,Male,images/global/avatars/_avatar_male_2.png,,2018-01-02 21:48:55.785620,2018-01-02 21:48:55.785620
10,john,John,,Male,images/global/avatars/_avatar_male_1.png,,2018-01-02 21:48:55.785620,2018-01-02 21:48:55.785620
11,ogechi,Ogechi,,Female,images/global/avatars/_avatar_female_2.png,,2018-01-02 21:48:55.785620,2018-01-02 21:48:55.785620
12,charles,Charles,,Male,images/global/avatars/_avatar_male_1.png,,2018-01-02 21:48:55.785620,2018-01-02 21:48:55.785620
13,chinyere,Chinyere,,Female,images/global/avatars/_avatar_female_3.png,,2018-01-02 21:48:55.785620,2018-01-02 21:48:55.785620
14,christopher,Christopher,,Male,images/global/avatars/_avatar_male_2.png,,2018-01-02 21:48:55.785620,2018-01-02 21:48:55.785620
15,godsent,Godsent,,Male,images/global/avatars/_avatar_male_2.png,,2018-01-02 21:48:55.785620,2018-01-02 21:48:55.785620
16,adedeji ,Adedeji ,,Female,images/global/avatars/_avatar_female_1.png,,2018-01-02 21:48:55.785620,2018-01-02 21:48:55.785620
17,adeyemi,Adeyemi,,Male,images/global/avatars/_avatar_male_1.png,,2018-01-02 21:48:55.785620,2018-01-02 21:48:55.785620
18,albert,Albert,,Female,images/global/avatars/_avatar_female_1.png,,2018-01-02 21:48:55.785620,2018-01-02 21:48:55.785620
19,chibundo,Chibundo,,Male,images/global/avatars/_avatar_male_1.png,,2018-01-02 21:48:55.785620,2018-01-02 21:48:55.785620
20,adekola,Adekola,,Female,images/global/avatars/_avatar_female_3.png,,2018-01-02 21:48:55.785620,2018-01-02 21:48:55.785620
21,samuel,Samuel,,Male,images/global/avatars/_avatar_male_2.png,,2018-01-02 21:48:55.785620,2018-01-02 21:48:55.785620
22,okechukwu,Okechukwu,,Male,images/global/avatars/_avatar_male_1.png,,2018-01-02 21:48:55.785620,2018-01-02 21:48:55.785620
23,henry,Henry,,Male,images/global/avatars/_avatar_male_1.png,,2018-01-02 21:48:55.785620,2018-01-02 21:48:55.785620
24,chima,Chima,,Male,images/global/avatars/_avatar_male_2.png,,2018-01-02 21:48:55.785620,2018-01-02 21:48:55.785620
25,adeola,Adeola,,Male,images/global/avatars/_avatar_male_2.png,,2018-01-02 21:48:55.785620,2018-01-02 21:48:55.785620
26,yahaya,Yahaya,,Male,images/global/avatars/_avatar_male_2.png,,2018-01-02 21:48:55.785620,2018-01-02 21:48:55.785620
27,rasaaq,Rasaaq,,Male,images/global/avatars/_avatar_male_2.png,,2018-01-02 21:48:55.785620,2018-01-02 21:48:55.785620
28,petronilla,Petronilla,,Female,images/global/avatars/_avatar_female_1.png,,2018-01-02 21:48:55.785620,2018-01-02 21:48:55.785620
29,nancy,Nancy,,Female,images/global/avatars/_avatar_female_3.png,,2018-01-02 21:48:55.785620,2018-01-02 21:48:55.785620
30,mudasiru,Mudasiru,,Male,images/global/avatars/_avatar_male_1.png,,2018-01-02 21:48:55.785620,2018-01-02 21:48:55.785620
31,ginika,Ginika,,Female,images/global/avatars/_avatar_female_3.png,,2018-01-02 21:48:55.785620,2018-01-02 21:48:55.785620
32,fidelia,Fidelia,,Female,images/global/avatars/_avatar_female_3.png,,2018-01-02 21:48:55.785620,2018-01-02 21:48:55.785620
33,caleb,Caleb,,Male,images/global/avatars/_avatar_male_1.png,,2018-01-02 21:48:55.785620,2018-01-02 21:48:55.785620
34,basden,Basden,,Female,images/global/avatars/_avatar_female_3.png,,2018-01-02 21:48:55.785620,2018-01-02 21:48:55.785620
35,abiodun,Abiodun,,Male,images/global/avatars/_avatar_male_2.png,,2018-01-02 21:48:55.785620,2018-01-02 21:48:55.785620
36,raphael,Raphael,,Male,images/global/avatars/_avatar_male_2.png,,2018-01-02 21:48:55.785620,2018-01-02 21:48:55.785620
37,uvie,Uvie,,Female,images/global/avatars/_avatar_female_2.png,,2018-01-02 21:48:55.785620,2018-01-02 21:48:55.785620
38,vincent,Vincent,,Female,images/global/avatars/_avatar_female_3.png,,2018-01-02 21:48:55.785620,2018-01-02 21:48:55.785620
39,mustafa,Mustafa,,Male,images/global/avatars/_avatar_male_1.png,,2018-01-02 21:48:55.785620,2018-01-02 21:48:55.785620
40,osaretin,Osaretin,,Male,images/global/avatars/_avatar_male_2.png,,2018-01-02 21:48:55.785620,2018-01-02 21:48:55.785620
41,patience,Patience,,Female,images/global/avatars/_avatar_female_1.png,,2018-01-02 21:48:55.785620,2018-01-02 21:48:55.785620
42,gandhi,Gandhi,,Male,images/global/avatars/_avatar_male_1.png,,2018-01-02 21:48:55.785620,2018-01-02 21:48:55.785620
43,martin,Martin,,Male,images/global/avatars/_avatar_male_1.png,,2018-01-02 21:48:55.785620,2018-01-02 21:48:55.785620
44,michael,Michael,,Male,images/global/avatars/_avatar_male_2.png,,2018-01-02 21:48:55.785620,2018-01-02 21:48:55.785620
45,benedict,Benedict,,Male,images/global/avatars/_avatar_male_1.png,,2018-01-02 21:48:55.785620,2018-01-02 21:48:55.785620
46,ebenezer,Ebenezer,,Male,images/global/avatars/_avatar_male_2.png,,2018-01-02 21:48:55.785620,2018-01-02 21:48:55.785620
47,esther,Esther,,Female,images/global/avatars/_avatar_female_1.png,,2018-01-02 21:48:55.785620,2018-01-02 21:48:55.785620
48,austin,Austin,,Male,images/global/avatars/_avatar_male_1.png,,2018-01-02 21:48:55.785620,2018-01-02 21:48:55.785620
49,balarabe ,Balarabe ,,Male,images/global/avatars/_avatar_male_1.png,,2018-01-02 21:48:55.785620,2018-01-02 21:48:55.785620
50,sunday,Sunday,,Male,images/global/avatars/_avatar_male_2.png,,2018-01-02 21:48:55.785620,2018-01-02 21:48:55.785620
51,oluranti,Oluranti,,Male,images/global/avatars/_avatar_male_2.png,,2018-01-02 21:48:55.785620,2018-01-02 21:48:55.785620
52,macleans,Macleans,,Male,images/global/avatars/_avatar_male_1.png,,2018-01-02 21:48:55.785620,2018-01-02 21:48:55.785620
53,clement,Clement,,Male,images/global/avatars/_avatar_male_1.png,,2018-01-02 21:48:55.785620,2018-01-02 21:48:55.785620
54,angela,Angela,,Female,images/global/avatars/_avatar_female_2.png,,2018-01-02 21:48:55.785620,2018-01-02 21:48:55.785620
55,umar g,Umar G,,Female,images/global/avatars/_avatar_female_1.png,,2018-01-02 21:48:55.785620,2018-01-02 21:48:55.785620
56,oluwole,Oluwole,,Male,images/global/avatars/_avatar_male_2.png,,2018-01-02 21:48:55.785620,2018-01-02 21:48:55.785620
57,mahmoud,Mahmoud,,Male,images/global/avatars/_avatar_male_1.png,,2018-01-02 21:48:55.785620,2018-01-02 21:48:55.785620
58,doris,Doris,,Female,images/global/avatars/_avatar_female_1.png,,2018-01-02 21:48:55.785620,2018-01-02 21:48:55.785620
59,anthony,Anthony,,Female,images/global/avatars/_avatar_female_1.png,,2018-01-02 21:48:55.785620,2018-01-02 21:48:55.785620
60,philip,Philip,,Male,images/global/avatars/_avatar_male_1.png,,2018-01-02 21:48:55.785620,2018-01-02 21:48:55.785620
61,muhammad,Muhammad,,Male,images/global/avatars/_avatar_male_2.png,,2018-01-02 21:48:55.785620,2018-01-02 21:48:55.785620
62,folashade,Folashade,,Male,images/global/avatars/_avatar_male_2.png,,2018-01-02 21:48:55.785620,2018-01-02 21:48:55.785620
63,basil,Basil,,Male,images/global/avatars/_avatar_male_2.png,,2018-01-02 21:48:55.785620,2018-01-02 21:48:55.785620
64,tochukwu,Tochukwu,,Male,images/global/avatars/_avatar_male_2.png,,2018-01-02 21:48:55.785620,2018-01-02 21:48:55.785620
65,oluwafunke,Oluwafunke,,Female,images/global/avatars/_avatar_female_3.png,,2018-01-02 21:48:55.785620,2018-01-02 21:48:55.785620
66,madubueze,Madubueze,,Male,images/global/avatars/_avatar_male_1.png,,2018-01-02 21:48:55.785620,2018-01-02 21:48:55.785620
67,dike,Dike,,Male,images/global/avatars/_avatar_male_2.png,,2018-01-02 21:48:55.785620,2018-01-02 21:48:55.785620
68,anthonia,Anthonia,,Female,images/global/avatars/_avatar_female_2.png,,2018-01-02 21:48:55.785620,2018-01-02 21:48:55.785620
69,victor,Victor,,Male,images/global/avatars/_avatar_male_2.png,,2018-01-02 21:48:55.785620,2018-01-02 21:48:55.785620
70,pascal,Pascal,,Female,images/global/avatars/_avatar_female_3.png,,2018-01-02 21:48:55.785620,2018-01-02 21:48:55.785620
71,matthew,Matthew,,Male,images/global/avatars/_avatar_male_1.png,,2018-01-02 21:48:55.785620,2018-01-02 21:48:55.785620
72,emmanuel,Emmanuel,,Male,images/global/avatars/_avatar_male_1.png,,2018-01-02 21:48:55.785620,2018-01-02 21:48:55.785620
73,ayodele,Ayodele,,Male,images/global/avatars/_avatar_male_2.png,,2018-01-02 21:48:55.785620,2018-01-02 21:48:55.785620
74,wilson,Wilson,,Female,images/global/avatars/_avatar_female_1.png,,2018-01-02 21:48:55.785620,2018-01-02 21:48:55.785620
75,peter,Peter,,Male,images/global/avatars/_avatar_male_1.png,,2018-01-02 21:48:55.785620,2018-01-02 21:48:55.785620
76,mohammed,Mohammed,,Male,images/global/avatars/_avatar_male_2.png,,2018-01-02 21:48:55.785620,2018-01-02 21:48:55.785620
77,evelyn,Evelyn,,Female,images/global/avatars/_avatar_female_2.png,,2018-01-02 21:48:55.785620,2018-01-02 21:48:55.785620
78,barbara,Barbara,,Female,images/global/avatars/_avatar_female_1.png,,2018-01-02 21:48:55.785620,2018-01-02 21:48:55.785620
79,stanley,Stanley,,Male,images/global/avatars/_avatar_male_1.png,,2018-01-02 21:48:55.785620,2018-01-02 21:48:55.785620
80,olukemi,Olukemi,,Female,images/global/avatars/_avatar_female_2.png,,2018-01-02 21:48:55.785620,2018-01-02 21:48:55.785620
81,kamilu,Kamilu,,Male,images/global/avatars/_avatar_male_1.png,,2018-01-02 21:48:55.785620,2018-01-02 21:48:55.785620
82,ciroma,Ciroma,,Female,images/global/avatars/_avatar_female_3.png,,2018-01-02 21:48:55.785620,2018-01-02 21:48:55.785620
83,andrew,Andrew,,Male,images/global/avatars/_avatar_male_1.png,,2018-01-02 21:48:55.785620,2018-01-02 21:48:55.785620
