1,Oko-uche,Okechukwu,G,Male,Single,20151020065,BIO,SOSC,Industrial Microbiology,2015,JME,B.Sc,5,reginald,images/global/avatars/_avatar_male_2.png,
2,Adewolo,Oluwasoore,,Female,Single,20142035005,IMT,SMAT,Information Management Technology,2014,JME,B.Tech,5,selina,images/global/avatars/_avatar_female_1.png,
3,Azubuike,Chinwendu,,Female,Single,20141020065,BIO,SOSC,Industrial Microbiology,2014,JME,B.Sc,5,solomon,images/global/avatars/_avatar_female_3.png,
4,Mbachu,Chisom,P,Male,Single,20143055035,MEE,SEET,Mechanical Engineering,2014,JME,B.Eng,5,nneka,images/global/avatars/_avatar_male_2.png,
5,Nnamaka,John,E,Male,Single,20142035020,IMT,SMAT,Information Management Technology,2014,JME,B.Tech,5,olagoke,images/global/avatars/_avatar_male_2.png,
6,Daniel,Seguis,N,Male,Single,20143055050,MEE,SEET,Mechanical Engineering,2014,DIRECT,B.Eng,5,olayinka,images/global/avatars/_avatar_male_1.png,
7,Keme,Alagoa,Joyce,Female,Single,20153050080,CIE,SEET,Civil Engineering,2015,DIRECT,B.Eng,5,samuel,images/global/avatars/_avatar_female_3.png,
8,Precious,Charles,,Female,Single,20152035050,IMT,SMAT,Information Management Technology,2015,JME,B.Tech,5,gladys,images/global/avatars/_avatar_female_1.png,
9,Okereke,Derrick,,Male,Single,20152040065,PMT,SMAT,Project Management Technology,2015,JME,B.Tech,5,humphrey,images/global/avatars/_avatar_male_2.png,
10,Osuagwu,Ebuka,J. P.,Male,Single,20151015080,CHM,SOSC,Industrial Chemistry,2015,JME,B.Sc,5,john,images/global/avatars/_avatar_male_1.png,
11,Ezekor,Lauretta,,Female,Single,20153045095,CHE,SEET,Chemical Engineering,2015,JME,B.Eng,5,ogechi,images/global/avatars/_avatar_female_1.png,
12,Iroh-Iduma,Victor,,Male,Single,20153055110,MEE,SEET,Mechanical Engineering,2015,JME,B.Eng,5,charles,images/global/avatars/_avatar_male_2.png,
13,Opara,Daniel,Chukwuemeka,Male,Single,20153045125,CHE,SEET,Chemical Engineering,2015,JME,B.Eng,5,chinyere,images/global/avatars/_avatar_male_1.png,
14,Unegbu,Oluchi,,Female,Single,20151030095,MTH,SOSC,Mathematics,2015,JME,B.Sc,5,christopher,images/global/avatars/_avatar_female_1.png,
15,Enwelu,Nkechinyere,,Female,Single,20152035080,IMT,SMAT,Information Management Technology,2015,JME,B.Tech,5,godsent,images/global/avatars/_avatar_female_1.png,
16,Nwokoye,Dumbei,Z,Female,Single,20151015110,CHM,SOSC,Industrial Chemistry,2015,JME,B.Sc,5,adedeji ,images/global/avatars/_avatar_female_2.png,
17,Nwachukwu,Ebuka,,Male,Single,20151020125,BIO,SOSC,Industrial Microbiology,2015,JME,B.Sc,5,adeyemi,images/global/avatars/_avatar_male_1.png,
18,Tony,Jerffery,,Male,Single,20151015140,CHM,SOSC,Industrial Chemistry,2015,JME,B.Sc,5,albert,images/global/avatars/_avatar_male_1.png,
19,Nworuh,Praise,A,Female,Single,20153050140,CIE,SEET,Civil Engineering,2015,JME,B.Eng,5,chibundo,images/global/avatars/_avatar_female_3.png,
20,Uche,Daniel,,Male,Single,20153055155,MEE,SEET,Mechanical Engineering,2015,JME,B.Eng,5,adekola,images/global/avatars/_avatar_male_2.png,
21,Ahamefula,Tochukwu,,Male,Single,20151020215,BIO,SOSC,Industrial Microbiology,2015,JME,B.Sc,5,samuel,images/global/avatars/_avatar_male_1.png,
22,Obatarhe,Eseri,Prince,Male,Single,20151030230,MTH,SOSC,Mathematics,2015,JME,B.Sc,5,okechukwu,images/global/avatars/_avatar_male_2.png,
23,Moore,Chimezie,,Male,Single,20151015245,CHM,SOSC,Industrial Chemistry,2015,JME,B.Sc,5,henry,images/global/avatars/_avatar_male_1.png,
24,Orjiugo,Favor,Godson,Female,Single,20151020260,BIO,SOSC,Industrial Microbiology,2015,JME,B.Sc,5,chima,images/global/avatars/_avatar_female_1.png,
25,Ohaka,Chiamaka,,Female,Single,20153045200,CHE,SEET,Chemical Engineering,2015,JME,B.Eng,5,adeola,images/global/avatars/_avatar_female_1.png,
26,Udochukwu,Victor,I,Male,Single,20151025275,PHY,SOSC,Industrial Physics,2015,JME,B.Sc,5,yahaya,images/global/avatars/_avatar_male_2.png,
27,Kenneth,Godwin,,Male,Single,20151025290,PHY,SOSC,Industrial Physics,2015,DIRECT,B.Sc,5,rasaaq,images/global/avatars/_avatar_male_1.png,
28,Adubi,Opeyemi,Sunday,Male,Single,20153050215,CIE,SEET,Civil Engineering,2015,JME,B.Eng,5,petronilla,images/global/avatars/_avatar_male_1.png,
29,Agbo,Kenechukwu,,Male,Single,20153045230,CHE,SEET,Chemical Engineering,2015,DIRECT,B.Eng,5,nancy,images/global/avatars/_avatar_male_2.png,
30,Nnamezie,Chimezie,S,Male,Single,20162035005,BIO,SOSC,Industrial Microbiology,2016,JME,B.Sc,5,mudasiru,images/global/avatars/_avatar_male_1.png,
31,Enyiyekon,John,,Male,Single,20161030005,CIE,SEET,Civil Engineering,2016,DIRECT,B.Eng,5,ginika,images/global/avatars/_avatar_male_1.png,
32,Archibong,Victor,,Male,Single,20161020020,IMT,SMAT,Information Management Technology,2016,JME,B.Tech,5,fidelia,images/global/avatars/_avatar_male_2.png,
33,Iheanacho,Caleb,Nick,Male,Single,20162035020,PMT,SMAT,Project Management Technology,2016,JME,B.Tech,5,caleb,images/global/avatars/_avatar_male_2.png,
34,Anyanwu,Peace,A,Female,Single,20162040035,CHM,SOSC,Industrial Chemistry,2016,JME,B.Sc,5,basden,images/global/avatars/_avatar_female_2.png,
35,Onuoha,Chukwuebuka,,Male,Single,20163055005,CHE,SEET,Chemical Engineering,2016,JME,B.Eng,5,abiodun,images/global/avatars/_avatar_male_1.png,
36,Uwatt,Uko,Udeme,Male,Single,20161020035,MEE,SEET,Mechanical Engineering,2016,JME,B.Eng,5,raphael,images/global/avatars/_avatar_male_2.png,
37,Chimezie,Faith,C,Female,Single,20163045020,CHE,SEET,Chemical Engineering,2016,JME,B.Eng,5,uvie,images/global/avatars/_avatar_female_1.png,
38,ObujiA,Chiwendu,,Female,Single,20161015080,MTH,SOSC,Mathematics,2016,JME,B.Sc,5,vincent,images/global/avatars/_avatar_female_3.png,
39,Uche,Nkechinyere,N,Female,Single,20161020095,IMT,SMAT,Information Management Technology,2016,JME,B.Tech,5,mustafa,images/global/avatars/_avatar_female_1.png,
40,Onwumere,Confidence,,Female,Single,20163045050,CHM,SOSC,Industrial Chemistry,2016,JME,B.Sc,5,osaretin,images/global/avatars/_avatar_female_1.png,
41,Iheanacho,Ugochi,,Female,Single,20161025185,BIO,SOSC,Industrial Microbiology,2016,JME,B.Sc,5,patience,images/global/avatars/_avatar_female_2.png,
42,Nwachukwu,Faith,Chisom,Female,Single,20121015110,CHM,SOSC,Industrial Chemistry,2012,DIRECT,B.Sc,5,gandhi,images/global/avatars/_avatar_female_2.png,
43,Uma,Nnamdi,Idika,Male,Single,20123055095,MEE,SEET,Mechanical Engineering,2012,JME,B.Eng,5,martin,images/global/avatars/_avatar_male_1.png,
44,Iroka,David,,Male,Single,20123045110,CHE,SEET,Chemical Engineering,2012,DIRECT,B.Eng,5,michael,images/global/avatars/_avatar_male_2.png,
45,Dioji,Loveth,C,Female,Single,20123050125,CIE,SEET,Civil Engineering,2012,JME,B.Eng,5,benedict,images/global/avatars/_avatar_female_3.png,
46,Ezeofor,Tobechukwu,K,Male,Single,20123055140,MEE,SEET,Mechanical Engineering,2012,JME,B.Eng,5,ebenezer,images/global/avatars/_avatar_male_2.png,
47,Chidozie,D,,Male,Single,20121015155,CHM,SOSC,Industrial Chemistry,2012,JME,B.Sc,5,esther,images/global/avatars/_avatar_male_2.png,
48,Chukwuka,Emmanuel,O,Male,Single,20122035080,IMT,SMAT,Information Management Technology,2012,JME,B.Tech,5,austin,images/global/avatars/_avatar_male_1.png,
49,Eze,Gloria,,Female,Single,20121015070,CHM,SOSC,Industrial Chemistry,2012,JME,B.Sc,5,balarabe ,images/global/avatars/_avatar_female_2.png,
50,Oduleye,Seun,,Male,Single,20122035095,IMT,SMAT,Information Management Technology,2012,JME,B.Tech,5,sunday,images/global/avatars/_avatar_male_1.png,
51,Okolinta,Godwin,,Male,Single,20122040010,PMT,SMAT,Project Management Technology,2012,JME,B.Tech,5,oluranti,images/global/avatars/_avatar_male_1.png,
52,Uzoma,Marvin,,Male,Single,20121030215,MTH,SOSC,Mathematics,2012,JME,B.Sc,5,macleans,images/global/avatars/_avatar_male_1.png,
53,Esomonu,Chidinma,,Female,Single,20141025155,PHY,SOSC,Industrial Physics,2014,JME,B.Sc,5,clement,images/global/avatars/_avatar_female_2.png,
54,Ikechukwu,Godswill,,Male,Single,20143050200,CIE,SEET,Civil Engineering,2014,JME,B.Eng,5,angela,images/global/avatars/_avatar_male_1.png,
55,Igweze,Daniel,,Male,Single,20143045215,CHE,SEET,Chemical Engineering,2014,JME,B.Eng,5,umar g,images/global/avatars/_avatar_male_1.png,
56,Nwachukwu,Adaeze,,Female,Single,20141020170,BIO,SOSC,Industrial Microbiology,2014,JME,B.Sc,5,oluwole,images/global/avatars/_avatar_female_3.png,
57,Akhigbe,Godswill,O,Male,Single,20143055230,MEE,SEET,Mechanical Engineering,2014,JME,B.Eng,5,mahmoud,images/global/avatars/_avatar_male_2.png,
58,Elendu,Kahlan,F,Female,Single,20142035050,IMT,SMAT,Information Management Technology,2014,JME,B.Tech,5,doris,images/global/avatars/_avatar_female_1.png,
59,Chinagorom,Chigozirim,G,Male,Single,20142040065,PMT,SMAT,Project Management Technology,2014,JME,B.Tech,5,anthony,images/global/avatars/_avatar_male_2.png,
60,Enyiekekon,John,A,Male,Single,20143050290,CIE,SEET,Civil Engineering,2014,JME,B.Eng,5,philip,images/global/avatars/_avatar_male_1.png,
61,Ndukwe,Nwoke,Chiziterem,Male,Single,20143055305,MEE,SEET,Mechanical Engineering,2014,JME,B.Eng,5,muhammad,images/global/avatars/_avatar_male_2.png,
62,Jim,Newman,S,Male,Single,20143045320,CHE,SEET,Chemical Engineering,2014,JME,B.Eng,5,folashade,images/global/avatars/_avatar_male_1.png,
63,Erondu,Ikechukwu,,Male,Single,20143050335,CIE,SEET,Civil Engineering,2014,JME,B.Eng,5,basil,images/global/avatars/_avatar_male_1.png,
64,Uche,Rejoice,,Female,Single,20143050350,CIE,SEET,Civil Engineering,2014,DIRECT,B.Eng,5,tochukwu,images/global/avatars/_avatar_female_2.png,
65,Ekwesi,Prince,,Male,Single,20141025185,PHY,SOSC,Industrial Physics,2014,JME,B.Sc,5,oluwafunke,images/global/avatars/_avatar_male_2.png,
66,Uzor,Uchenna,,Male,Single,20152040005,PMT,SMAT,Project Management Technology,2015,JME,B.Tech,5,madubueze,images/global/avatars/_avatar_male_1.png,
67,Nnalue,Anthony,,Male,Single,20153055005,MEE,SEET,Mechanical Engineering,2015,JME,B.Eng,5,dike,images/global/avatars/_avatar_male_1.png,
68,Ihemhuru,Darlighton,,Male,Single,20151030005,MTH,SOSC,Mathematics,2015,JME,B.Sc,5,anthonia,images/global/avatars/_avatar_male_1.png,
69,Njoku,Wisdom,K,Male,Single,20131020095,BIO,SOSC,Industrial Microbiology,2013,JME,B.Sc,5,victor,images/global/avatars/_avatar_male_1.png,
70,Ohanacho,Oziomachukwu,,Male,Single,20133055095,MEE,SEET,Mechanical Engineering,2013,JME,B.Eng,5,pascal,images/global/avatars/_avatar_male_1.png,
71,Nwayanwu,Frederich,,Male,Single,20131030110,MTH,SOSC,Mathematics,2013,JME,B.Sc,5,matthew,images/global/avatars/_avatar_male_2.png,
72,Nwachukwu,Richard,,Male,Single,20133055110,MEE,SEET,Mechanical Engineering,2013,JME,B.Eng,5,emmanuel,images/global/avatars/_avatar_male_2.png,
73,Kenechi,Duke,O,Male,Single,20133055125,MEE,SEET,Mechanical Engineering,2013,JME,B.Eng,5,ayodele,images/global/avatars/_avatar_male_1.png,
74,Nwawihe,Anthony,P,Male,Single,20132040050,PMT,SMAT,Project Management Technology,2013,JME,B.Tech,5,wilson,images/global/avatars/_avatar_male_1.png,
75,Uchenna,kelechi,,Male,Single,20133045140,CHE,SEET,Chemical Engineering,2013,JME,B.Eng,5,peter,images/global/avatars/_avatar_male_2.png,
76,Godwin,Godvessel,A,Male,Single,20132035065,IMT,SMAT,Information Management Technology,2013,JME,B.Tech,5,mohammed,images/global/avatars/_avatar_male_2.png,
77,Amadi,PraiseO,,Male,Single,20131030125,MTH,SOSC,Mathematics,2013,JME,B.Sc,5,evelyn,images/global/avatars/_avatar_male_1.png,
78,Odor,Precious,C,Female,Single,20131025155,PHY,SOSC,Industrial Physics,2013,JME,B.Sc,5,barbara,images/global/avatars/_avatar_female_2.png,
79,Ese,Erica,U,Female,Single,20133055155,MEE,SEET,Mechanical Engineering,2013,JME,B.Eng,5,stanley,images/global/avatars/_avatar_female_3.png,
80,Okafor,Chibueze,Christian,Male,Single,20131030170,MTH,SOSC,Mathematics,2013,JME,B.Sc,5,olukemi,images/global/avatars/_avatar_male_1.png,
81,Naabon,Rachael,Z,Male,Single,20133055170,MEE,SEET,Mechanical Engineering,2013,JME,B.Eng,5,kamilu,images/global/avatars/_avatar_male_1.png,
82,Chiechefu,Godian,Chijioke,Male,Single,20131015185,CHM,SOSC,Industrial Chemistry,2013,DIRECT,B.Sc,5,ciroma,images/global/avatars/_avatar_male_2.png,
83,Obuji,Anagha,Chiwendu,Female,Single,20131030200,MTH,SOSC,Mathematics,2013,JME,B.Sc,5,andrew,images/global/avatars/_avatar_female_3.png,
84,Akori,Nelson,,Male,Single,20131025140,PHY,SOSC,Industrial Physics,2013,JME,B.Sc,5,reginald,images/global/avatars/_avatar_male_2.png,
85,Emole,Onyinyechi,,Female,Single,20143050065,CIE,SEET,Civil Engineering,2014,JME,B.Eng,5,selina,images/global/avatars/_avatar_female_2.png,
86,Ahaneku,Ezinne,,Female,Single,20143055080,MEE,SEET,Mechanical Engineering,2014,JME,B.Eng,5,solomon,images/global/avatars/_avatar_female_1.png,
87,Joseph,Emmanuel,,Male,Single,20141015080,CHM,SOSC,Industrial Chemistry,2014,JME,B.Sc,5,nneka,images/global/avatars/_avatar_male_1.png,
88,Ekeh,Godwin,M,Male,Single,20143045095,CHE,SEET,Chemical Engineering,2014,JME,B.Eng,5,olagoke,images/global/avatars/_avatar_male_1.png,
89,Akpomedeye,Rock,O,Male,Single,20143045245,CHE,SEET,Chemical Engineering,2014,JME,B.Eng,5,olayinka,images/global/avatars/_avatar_male_1.png,
90,Chibuzor,Ikechukwu,,Male,Single,20121020125,BIO,SOSC,Industrial Microbiology,2012,JME,B.Sc,5,samuel,images/global/avatars/_avatar_male_1.png,
91,Afolabi,Mary,M,Female,Single,20123055065,MEE,SEET,Mechanical Engineering,2012,JME,B.Eng,5,gladys,images/global/avatars/_avatar_female_2.png,
92,Ogwu,Blessing,N,Female,Single,20121025140,PHY,SOSC,Industrial Physics,2012,JME,B.Sc,5,humphrey,images/global/avatars/_avatar_female_3.png,
93,Ezenachukwu,Victoria,N,Male,Single,20163045095,CHM,SOSC,Industrial Chemistry,2016,JME,B.Sc,5,john,images/global/avatars/_avatar_male_1.png,
94,Solomon,Faith,O,Female,Single,20163045110,CIE,SEET,Civil Engineering,2016,JME,B.Eng,5,ogechi,images/global/avatars/_avatar_female_2.png,
95,Olubunmui-Thomas,Gideon,O,Male,Single,20161025200,MEE,SEET,Mechanical Engineering,2016,JME,B.Eng,5,charles,images/global/avatars/_avatar_male_1.png,
96,Azuike,Chijioke,,Male,Single,20162040080,BIO,SOSC,Industrial Microbiology,2016,JME,B.Sc,5,chinyere,images/global/avatars/_avatar_male_1.png,
97,Onyechere,Eberechi,,Female,Single,20162040095,MTH,SOSC,Mathematics,2016,JME,B.Sc,5,christopher,images/global/avatars/_avatar_female_1.png,
98,Nwanya,Lilian,,Female,Single,20163050125,CHM,SOSC,Industrial Chemistry,2016,JME,B.Sc,5,godsent,images/global/avatars/_avatar_female_1.png,
99,Nwadike,Paschal,,Male,Single,20161030155,BIO,SOSC,Industrial Microbiology,2016,JME,B.Sc,5,adedeji ,images/global/avatars/_avatar_male_2.png,
100,Ohaka,Chiamaka,S,Female,Single,20122040065,PMT,SMAT,Project Management Technology,2012,JME,B.Tech,5,adeyemi,images/global/avatars/_avatar_female_2.png,
101,Okonna,Mercy,,Female,Single,20161025215,CHE,SEET,Chemical Engineering,2016,JME,B.Eng,5,albert,images/global/avatars/_avatar_female_1.png,
102,Nwokoma,Dorcas,,Female,Single,20143045260,CHE,SEET,Chemical Engineering,2014,DIRECT,B.Eng,5,chibundo,images/global/avatars/_avatar_female_3.png,
103,Chinyere,Okonkwo,,Female,Single,20143055275,MEE,SEET,Mechanical Engineering,2014,JME,B.Eng,5,adekola,images/global/avatars/_avatar_female_2.png,
104,Maduike,Judith,,Female,Single,20153050035,CIE,SEET,Civil Engineering,2015,JME,B.Eng,5,samuel,images/global/avatars/_avatar_female_3.png,
105,Umunna,Ifesinachi,,Male,Single,20151020050,BIO,SOSC,Industrial Microbiology,2015,JME,B.Sc,5,okechukwu,images/global/avatars/_avatar_male_1.png,
106,Nze,Emmanuel,,Male,Single,20153045050,CHE,SEET,Chemical Engineering,2015,JME,B.Eng,5,henry,images/global/avatars/_avatar_male_1.png,
107,Maxwell,Precious,,Female,Single,20153045065,CHE,SEET,Chemical Engineering,2015,JME,B.Eng,5,chima,images/global/avatars/_avatar_female_2.png,
108,Mbakwe,Frank,E,Male,Single,20151025155,PHY,SOSC,Industrial Physics,2015,JME,B.Sc,5,adeola,images/global/avatars/_avatar_male_2.png,
109,Humphrey,Amarachi,C,Female,Single,20153050170,CIE,SEET,Civil Engineering,2015,DIRECT,B.Eng,5,yahaya,images/global/avatars/_avatar_female_3.png,
110,Kwafe,Ruldolf,,Male,Single,20151020170,BIO,SOSC,Industrial Microbiology,2015,JME,B.Sc,5,rasaaq,images/global/avatars/_avatar_male_1.png,
111,Chinwendu,Uche,,Female,Single,20152035095,IMT,SMAT,Information Management Technology,2015,JME,B.Tech,5,petronilla,images/global/avatars/_avatar_female_1.png,
112,Nnorom,Miracle,O,Male,Single,20152040110,PMT,SMAT,Project Management Technology,2015,JME,B.Tech,5,nancy,images/global/avatars/_avatar_male_2.png,
113,Nwoke,Robert,Ghandi,Male,Single,20153055185,MEE,SEET,Mechanical Engineering,2015,JME,B.Eng,5,mudasiru,images/global/avatars/_avatar_male_2.png,
114,Segius,Daniel,,Male,Single,20152040125,PMT,SMAT,Project Management Technology,2015,JME,B.Tech,5,ginika,images/global/avatars/_avatar_male_1.png,
115,Cletus,Munachi,,Male,Single,20163045140,PHY,SOSC,Industrial Physics,2016,JME,B.Sc,5,fidelia,images/global/avatars/_avatar_male_2.png,
116,Ndubueze,Ikenna,,Male,Single,20161015170,PHY,SOSC,Industrial Physics,2016,DIRECT,B.Sc,5,caleb,images/global/avatars/_avatar_male_1.png,
117,Ejiogu,Victor,C,Male,Single,20121030085,MTH,SOSC,Mathematics,2012,JME,B.Sc,5,basden,images/global/avatars/_avatar_male_1.png,
118,Jeff,James,Chinomso,Male,Single,20123055005,MEE,SEET,Mechanical Engineering,2012,JME,B.Eng,5,abiodun,images/global/avatars/_avatar_male_1.png,
119,Charles,Precious,Chidera,Female,Married,20122035025,IMT,SMAT,Information Management Technology,2012,JME,B.Tech,5,raphael,images/global/avatars/_avatar_female_2.png,
120,Anipaul,Fredrick,N,Male,Single,20122040040,PMT,SMAT,Project Management Technology,2012,JME,B.Tech,5,uvie,images/global/avatars/_avatar_male_1.png,
121,Ibe,Chioma,,Female,Single,20123050155,CIE,SEET,Civil Engineering,2012,JME,B.Eng,5,vincent,images/global/avatars/_avatar_female_3.png,
122,Izideh,Fortune,,Male,Single,20123045170,CHE,SEET,Chemical Engineering,2012,JME,B.Eng,5,mustafa,images/global/avatars/_avatar_male_1.png,
123,Okereafor,Elvis,Harry,Male,Single,20123050185,CIE,SEET,Civil Engineering,2012,JME,B.Eng,5,osaretin,images/global/avatars/_avatar_male_2.png,
124,Ikenga,Derrick,,Male,Single,20121015200,CHM,SOSC,Industrial Chemistry,2012,JME,B.Sc,5,patience,images/global/avatars/_avatar_male_1.png,
125,Eze,Kenneth,O,Male,Single,20122040005,PMT,SMAT,Project Management Technology,2012,JME,B.Tech,5,gandhi,images/global/avatars/_avatar_male_1.png,
126,Adubi,SundayO,,Male,Single,20122040015,PMT,SMAT,Project Management Technology,2012,JME,B.Tech,5,martin,images/global/avatars/_avatar_male_1.png,
127,Ololo,Jonathan,,Male,Single,20151020185,BIO,SOSC,Industrial Microbiology,2015,DIRECT,B.Sc,5,michael,images/global/avatars/_avatar_male_2.png,
128,Divine,Ikara,,Male,Single,20151020200,BIO,SOSC,Industrial Microbiology,2015,JME,B.Sc,5,benedict,images/global/avatars/_avatar_male_1.png,
129,Okoroafor,Samuel,,Male,Single,20163055035,CIE,SEET,Civil Engineering,2016,JME,B.Eng,5,ebenezer,images/global/avatars/_avatar_male_2.png,
130,Ikonne,Kennedy,U,Male,Single,20161015050,CHE,SEET,Chemical Engineering,2016,DIRECT,B.Eng,5,esther,images/global/avatars/_avatar_male_1.png,
131,Okafor,Chukwuka,E,Male,Single,20161030065,PMT,SMAT,Project Management Technology,2016,JME,B.Tech,5,austin,images/global/avatars/_avatar_male_2.png,
132,Oleh,Ogechukwu,Precious,Female,Single,20163050215,MEE,SEET,Mechanical Engineering,2016,JME,B.Eng,5,balarabe ,images/global/avatars/_avatar_female_1.png,
133,Ezenwa,Sopuruchukwu,A,Male,Single,20163055230,MTH,SOSC,Mathematics,2016,JME,B.Sc,5,sunday,images/global/avatars/_avatar_male_2.png,
134,Anthony,Nnazue,Chibuzor,Male,Single,20161020260,CIE,SEET,Civil Engineering,2016,JME,B.Eng,5,oluranti,images/global/avatars/_avatar_male_2.png,
135,Paul,Chris,Chikamso,Male,Single,20161025275,BIO,SOSC,Industrial Microbiology,2016,JME,B.Sc,5,macleans,images/global/avatars/_avatar_male_2.png,
136,Ezeokoli,Adanna,Jacinta,Female,Single,20163055245,CHE,SEET,Chemical Engineering,2016,JME,B.Eng,5,clement,images/global/avatars/_avatar_female_3.png,
137,Igbanny,Janet,Uloma,Female,Single,20161015290,CHE,SEET,Chemical Engineering,2016,JME,B.Eng,5,angela,images/global/avatars/_avatar_female_3.png,
138,Onyinyechi,Paul,Emole,Male,Single,20123050200,CIE,SEET,Civil Engineering,2012,DIRECT,B.Eng,5,umar g,images/global/avatars/_avatar_male_1.png,
139,Okorie,Onyedikachi,,Male,Single,20131030005,MTH,SOSC,Mathematics,2013,JME,B.Sc,5,oluwole,images/global/avatars/_avatar_male_1.png,
140,Nzeribe,Godfrey,,Male,Single,20122040035,PMT,SMAT,Project Management Technology,2012,DIRECT,B.Tech,5,mahmoud,images/global/avatars/_avatar_male_2.png,
141,Ihemhuru,ChizobamP,,Male,Single,20121025035,PHY,SOSC,Industrial Physics,2012,JME,B.Sc,5,doris,images/global/avatars/_avatar_male_2.png,
142,Edemekong,Samuel,M,Male,Single,20121025050,PHY,SOSC,Industrial Physics,2012,JME,B.Sc,5,anthony,images/global/avatars/_avatar_male_1.png,
143,Innocent,felixK,,Male,Single,20121030065,MTH,SOSC,Mathematics,2012,JME,B.Sc,5,philip,images/global/avatars/_avatar_male_2.png,
144,Okoro,Chiamaka,Q,Female,Single,20121025080,PHY,SOSC,Industrial Physics,2012,JME,B.Sc,5,muhammad,images/global/avatars/_avatar_female_3.png,
145,Frank,Solomon,Marvelous,Female,Married,20122035050,IMT,SMAT,Information Management Technology,2012,JME,B.Tech,5,folashade,images/global/avatars/_avatar_female_1.png,
146,Aduma,Daniel,Jackson,Male,Single,20123055050,MEE,SEET,Mechanical Engineering,2012,JME,B.Eng,5,basil,images/global/avatars/_avatar_male_1.png,
147,Akuba,Victor,O,Male,Single,20121030095,MTH,SOSC,Mathematics,2012,JME,B.Sc,5,tochukwu,images/global/avatars/_avatar_male_1.png,
148,Agochukwu,Ruth,,Female,Single,20132035005,IMT,SMAT,Information Management Technology,2013,JME,B.Tech,5,oluwafunke,images/global/avatars/_avatar_female_3.png,
149,Nwoke,Ghandi,Robert,Male,Single,20131025020,PHY,SOSC,Industrial Physics,2013,JME,B.Sc,5,madubueze,images/global/avatars/_avatar_male_2.png,
150,Ozioma,Isreal,C,Male,Single,20133045005,CHE,SEET,Chemical Engineering,2013,JME,B.Eng,5,dike,images/global/avatars/_avatar_male_1.png,
151,Fakorede,Sodiq,,Male,Single,20133045020,CHE,SEET,Chemical Engineering,2013,JME,B.Eng,5,anthonia,images/global/avatars/_avatar_male_1.png,
152,Chibundu,Joyce,,Female,Married,20133050035,CIE,SEET,Civil Engineering,2013,JME,B.Eng,5,victor,images/global/avatars/_avatar_female_2.png,
153,Nweke,Stanley,,Male,Single,20131020035,BIO,SOSC,Industrial Microbiology,2013,DIRECT,B.Sc,5,pascal,images/global/avatars/_avatar_male_2.png,
154,Iroka,Princewill,,Male,Single,20131025050,PHY,SOSC,Industrial Physics,2013,JME,B.Sc,5,matthew,images/global/avatars/_avatar_male_1.png,
155,Eze,Chioma,,Male,Single,20133050050,CIE,SEET,Civil Engineering,2013,JME,B.Eng,5,emmanuel,images/global/avatars/_avatar_male_1.png,
156,Obasi,Emmanuel,,Male,Single,20131025065,PHY,SOSC,Industrial Physics,2013,JME,B.Sc,5,ayodele,images/global/avatars/_avatar_male_2.png,
157,Ogemdi,Adindu,,Female,Single,20133050065,CIE,SEET,Civil Engineering,2013,JME,B.Eng,5,wilson,images/global/avatars/_avatar_female_2.png,
158,Nworuh,Christain,,Male,Single,20131025080,PHY,SOSC,Industrial Physics,2013,JME,B.Sc,5,peter,images/global/avatars/_avatar_male_1.png,
159,Omaka,Blessing,Jane,Female,Single,20133055080,MEE,SEET,Mechanical Engineering,2013,JME,B.Eng,5,mohammed,images/global/avatars/_avatar_female_3.png,
160,Onwuzurike,Joseph,,Male,Single,20132035020,IMT,SMAT,Information Management Technology,2013,JME,B.Tech,5,evelyn,images/global/avatars/_avatar_male_2.png,
161,Orji,Samuel,,Male,Single,20132035035,IMT,SMAT,Information Management Technology,2013,DIRECT,B.Tech,5,barbara,images/global/avatars/_avatar_male_2.png,
162,Adelowo,Oluwasoore,,Female,Single,20132040080,PMT,SMAT,Project Management Technology,2013,JME,B.Tech,5,stanley,images/global/avatars/_avatar_female_1.png,
163,Samuel,Awah,,Male,Single,20131025215,PHY,SOSC,Industrial Physics,2013,JME,B.Sc,5,olukemi,images/global/avatars/_avatar_male_1.png,
164,Uche,Nkechinyere,,Female,Single,20133055185,MEE,SEET,Mechanical Engineering,2013,JME,B.Eng,5,kamilu,images/global/avatars/_avatar_female_3.png,
165,Igbo,Ginika,Mercy,Female,Married,20133045200,CHE,SEET,Chemical Engineering,2013,JME,B.Eng,5,ciroma,images/global/avatars/_avatar_female_1.png,
166,Obiora,Miracle,T,Male,Single,20141025005,PHY,SOSC,Industrial Physics,2014,JME,B.Sc,5,andrew,images/global/avatars/_avatar_male_1.png,
167,Dan,Emefon,,Male,Single,20141020020,BIO,SOSC,Industrial Microbiology,2014,JME,B.Sc,5,reginald,images/global/avatars/_avatar_male_2.png,
168,Amobi,Victory,O,Female,Single,20123050080,CIE,SEET,Civil Engineering,2012,JME,B.Eng,5,selina,images/global/avatars/_avatar_female_3.png,
169,Naabon,Racheal,,Male,Single,20143055005,MEE,SEET,Mechanical Engineering,2014,JME,B.Eng,5,solomon,images/global/avatars/_avatar_male_1.png,
170,Okeke,Amara,,Female,Single,20141015035,CHM,SOSC,Industrial Chemistry,2014,DIRECT,B.Sc,5,nneka,images/global/avatars/_avatar_female_2.png,
171,Anyaeruba,Chukwudi,,Male,Single,20143045020,CHE,SEET,Chemical Engineering,2014,JME,B.Eng,5,olagoke,images/global/avatars/_avatar_male_2.png,
172,Ahamefula,Chiedozie,,Male,Single,20141015050,CHM,SOSC,Industrial Chemistry,2014,JME,B.Sc,5,olayinka,images/global/avatars/_avatar_male_1.png,
173,Godwin,Mercy,E,Male,Single,20143045110,CHE,SEET,Chemical Engineering,2014,JME,B.Eng,5,samuel,images/global/avatars/_avatar_male_2.png,
174,Ekeke,Chinaza,,Male,Single,20143055125,MEE,SEET,Mechanical Engineering,2014,JME,B.Eng,5,gladys,images/global/avatars/_avatar_male_1.png,
175,Egwuatu,Chuka,,Male,Single,20142035035,IMT,SMAT,Information Management Technology,2014,DIRECT,B.Tech,5,humphrey,images/global/avatars/_avatar_male_2.png,
176,Umemba,Emmanuel,,Male,Single,20141025095,PHY,SOSC,Industrial Physics,2014,JME,B.Sc,5,john,images/global/avatars/_avatar_male_1.png,
177,Oliver,Chidera,,Female,Single,20141020100,BIO,SOSC,Industrial Microbiology,2014,JME,B.Sc,5,ogechi,images/global/avatars/_avatar_female_1.png,
178,Okoli,Ugochukwu,,Male,Single,20141020125,BIO,SOSC,Industrial Microbiology,2014,DIRECT,B.Sc,5,charles,images/global/avatars/_avatar_male_1.png,
179,Okenagba,Faith,S,Female,Single,20143050140,CIE,SEET,Civil Engineering,2014,JME,B.Eng,5,chinyere,images/global/avatars/_avatar_female_1.png,
180,Uwakwe,Justice,T,Male,Single,20143055155,MEE,SEET,Mechanical Engineering,2014,JME,B.Eng,5,christopher,images/global/avatars/_avatar_male_2.png,
181,Egbomuche,Emmanuel,,Male,Single,20143050170,CIE,SEET,Civil Engineering,2014,JME,B.Eng,5,godsent,images/global/avatars/_avatar_male_1.png,
182,Ezerioha,MaryJane,,Female,Single,20143045185,CHE,SEET,Chemical Engineering,2014,DIRECT,B.Eng,5,adedeji ,images/global/avatars/_avatar_female_3.png,
183,Eluwa,Emmanuel,,Male,Single,20141020140,BIO,SOSC,Industrial Microbiology,2014,JME,B.Sc,5,adeyemi,images/global/avatars/_avatar_male_2.png,
184,Chibundu,Kelechi,,Female,Single,20151015020,CHM,SOSC,Industrial Chemistry,2015,JME,B.Sc,5,albert,images/global/avatars/_avatar_female_1.png,
185,Amaugo,Kindness,I,Male,Single,20152035020,IMT,SMAT,Information Management Technology,2015,JME,B.Tech,5,chibundo,images/global/avatars/_avatar_male_2.png,
186,Ogechi,Solomon,,Female,Single,20152040035,PMT,SMAT,Project Management Technology,2015,DIRECT,B.Tech,5,adekola,images/global/avatars/_avatar_female_2.png,
187,Nworuh,Godwinner,,Male,Single,20151030035,MTH,SOSC,Mathematics,2015,JME,B.Sc,5,samuel,images/global/avatars/_avatar_male_2.png,
188,Obidoo,Chinaemerem,,Male,Single,20153055020,MEE,SEET,Mechanical Engineering,2015,JME,B.Eng,5,okechukwu,images/global/avatars/_avatar_male_2.png,
189,Igbojianya,Oluchi,,Female,Single,20163055065,PHY,SOSC,Industrial Physics,2016,JME,B.Sc,5,henry,images/global/avatars/_avatar_female_3.png,
190,Richard,ChigozieK,,Male,Single,20163050080,CIE,SEET,Civil Engineering,2016,DIRECT,B.Eng,5,chima,images/global/avatars/_avatar_male_1.png,
191,Ike,Henry,,Male,Single,20161025110,BIO,SOSC,Industrial Microbiology,2016,JME,B.Sc,5,adeola,images/global/avatars/_avatar_male_2.png,
192,Dike,Ifeanyi,,Male,Single,20161030125,IMT,SMAT,Information Management Technology,2016,JME,B.Tech,5,yahaya,images/global/avatars/_avatar_male_1.png,
193,Echi,Clifford,,Male,Single,20162040050,PMT,SMAT,Project Management Technology,2016,JME,B.Tech,5,rasaaq,images/global/avatars/_avatar_male_1.png,
194,Umunabuike,Johnbosco,,Male,Single,20161015140,MEE,SEET,Mechanical Engineering,2016,JME,B.Eng,5,petronilla,images/global/avatars/_avatar_male_2.png,
195,Udoh,Emediong,,Male,Single,20162040065,PMT,SMAT,Project Management Technology,2016,JME,B.Tech,5,nancy,images/global/avatars/_avatar_male_2.png,
196,Ndu,Victor,O,Male,Single,20121030020,MTH,SOSC,Mathematics,2012,JME,B.Sc,5,mudasiru,images/global/avatars/passport.png,
197,Oparaocha,ChidozieD,,Male,Single,20123050020,CIE,SEET,Civil Engineering,2012,JME,B.Eng,5,ginika,images/global/avatars/_avatar_male_2.png,
198,Dominic,Precious,Gold,Female,Single,20123055035,MEE,SEET,Mechanical Engineering,2012,JME,B.Eng,5,fidelia,images/global/avatars/_avatar_female_2.png,
199,Hoku,Amachundi,M,Male,Single,20122040025,PMT,SMAT,Project Management Technology,2012,JME,B.Tech,5,caleb,images/global/avatars/_avatar_male_2.png,
200,Nkwopara,Mary,C,Female,Single,20121025005,PHY,SOSC,Industrial Physics,2012,JME,B.Sc,5,basden,images/global/avatars/_avatar_female_3.png,
201,Fedrick,Chiemeka,Ezenwa,Male,Single,20162040110,BIO,SOSC,Industrial Microbiology,2016,DIRECT,B.Sc,5,abiodun,images/global/avatars/_avatar_male_2.png,
202,Chimaroke,Nnamdi,Z,Male,Single,20161030230,BIO,SOSC,Industrial Microbiology,2016,JME,B.Sc,5,raphael,images/global/avatars/_avatar_male_2.png,
203,Iregbu,Emmanuela,,Female,Single,20163045155,CHM,SOSC,Industrial Chemistry,2016,JME,B.Sc,5,uvie,images/global/avatars/_avatar_female_2.png,
204,Ibegbulam,Izuchukwu,,Male,Single,20161015245,IMT,SMAT,Information Management Technology,2016,JME,B.Tech,5,vincent,images/global/avatars/_avatar_male_1.png,
205,Umunnabuike,Johnbosco,T,Male,Single,20163045170,PMT,SMAT,Project Management Technology,2016,DIRECT,B.Tech,5,mustafa,images/global/avatars/_avatar_male_1.png,
206,Obiora,Miracle,Tobechukwu,Male,Single,20163050185,MTH,SOSC,Mathematics,2016,JME,B.Sc,5,osaretin,images/global/avatars/_avatar_male_2.png,
207,Nwanyanwu,Fredrick,C,Male,Single,20163055200,MEE,SEET,Mechanical Engineering,2016,JME,B.Eng,5,patience,images/global/avatars/_avatar_male_1.png,
208,Ibeawuchi,Ekpe,N,Male,Single,20171015020,BIO,SOSC,Industrial Microbiology,2017,JME,B.Sc,5,gandhi,images/global/avatars/_avatar_male_1.png,ibeawuchiekpe@newmail.com
209,Temitope,Olabode,H,Female,Single,20171015080,CIE,SEET,Civil Engineering,2017,DIRECT,B.Eng,5,martin,images/global/avatars/_avatar_female_1.png,temitopeolabode@newmail.com
210,Abiola ,Olabisi,Michael,Female,Single,20171015110,IMT,SMAT,Information Management Technology,2017,JME,B.Tech,5,michael,images/global/avatars/_avatar_female_1.png,abiola olabisi@newmail.com
211,Adeyi,Peter,Tosin,Male,Single,20171015140,PMT,SMAT,Project Management Technology,2017,JME,B.Tech,5,benedict,images/global/avatars/_avatar_male_2.png,adeyipeter@newmail.com
212,Alao,Taiwo,O,Male,Single,20171015245,CHM,SOSC,Industrial Chemistry,2017,JME,B.Sc,5,ebenezer,images/global/avatars/_avatar_male_1.png,alaotaiwo@newmail.com
213,Jibrin,Sunday,E,Male,Single,20171020050,CHE,SEET,Chemical Engineering,2017,JME,B.Eng,5,esther,images/global/avatars/_avatar_male_2.png,jibrinsunday@newmail.com
214,Toryila,Solomon,Mule,Male,Single,20171020065,MEE,SEET,Mechanical Engineering,2017,JME,B.Eng,5,austin,images/global/avatars/_avatar_male_1.png,toryilasolomon@newmail.com
215,Idiahiri,Evelyn,M,Female,Single,20171020125,CHE,SEET,Chemical Engineering,2017,JME,B.Eng,5,balarabe ,images/global/avatars/_avatar_female_1.png,idiahirievelyn@newmail.com
216,Chiemeka,Emmanuel,U,Male,Single,20171020170,MTH,SOSC,Mathematics,2017,JME,B.Sc,5,sunday,images/global/avatars/_avatar_male_1.png,chiemekaemmanuel@newmail.com
217,Ejor,Adams,Moses,Male,Single,20171020185,IMT,SMAT,Information Management Technology,2017,JME,B.Tech,5,oluranti,images/global/avatars/_avatar_male_2.png,ejoradams@newmail.com
218,Onwuka,Ijeoma,,Male,Single,20171020200,CHM,SOSC,Industrial Chemistry,2017,JME,B.Sc,5,macleans,images/global/avatars/_avatar_male_1.png,onwukaijeoma@newmail.com
219,Stephen,Temitope,K,Female,Single,20171020215,BIO,SOSC,Industrial Microbiology,2017,JME,B.Sc,5,clement,images/global/avatars/_avatar_female_1.png,stephentemitope@newmail.com
220,Onojayefe,Sampson,Obehi,Male,Single,20171020260,CHM,SOSC,Industrial Chemistry,2017,JME,B.Sc,5,angela,images/global/avatars/_avatar_male_1.png,onojayefesampson@newmail.com
221,Kehinde,Omolola,E,Male,Single,20171025155,CIE,SEET,Civil Engineering,2017,JME,B.Eng,5,umar g,images/global/avatars/_avatar_male_2.png,kehindeomolola@newmail.com
222,Daniel,Olagoke,A,Male,Single,20171025275,MEE,SEET,Mechanical Engineering,2017,JME,B.Eng,5,oluwole,images/global/avatars/_avatar_male_1.png,danielolagoke@newmail.com
223,Ukeh,Chidi,N,Male,Single,20171025290,BIO,SOSC,Industrial Microbiology,2017,JME,B.Sc,5,mahmoud,images/global/avatars/_avatar_male_2.png,ukehchidi@newmail.com
224,Fadeyi,Comfort,Damilola,Female,Single,20171030005,MTH,SOSC,Mathematics,2017,JME,B.Sc,5,doris,images/global/avatars/_avatar_female_1.png,fadeyicomfort@newmail.com
225,Gbadero,Hezekiah,D,Male,Single,20171030035,CHM,SOSC,Industrial Chemistry,2017,JME,B.Sc,5,anthony,images/global/avatars/_avatar_male_2.png,gbaderohezekiah@newmail.com
226,Okoro,Victor,O,Male,Single,20171030095,BIO,SOSC,Industrial Microbiology,2017,JME,B.Sc,5,philip,images/global/avatars/_avatar_male_1.png,okorovictor@newmail.com
227,Adigun,Oluwakemi,Tolu,Female,Single,20171030230,CHE,SEET,Chemical Engineering,2017,JME,B.Eng,5,muhammad,images/global/avatars/_avatar_female_1.png,adigunoluwakemi@newmail.com
228,Jonathan,Adokige,W,Male,Single,20172035020,PHY,SOSC,Industrial Physics,2017,JME,B.Sc,5,folashade,images/global/avatars/_avatar_male_1.png,jonathanadokige@newmail.com
229,Michael,Joseph,O,Male,Single,20172035050,PHY,SOSC,Industrial Physics,2017,DIRECT,B.Sc,5,basil,images/global/avatars/_avatar_male_2.png,michaeljoseph@newmail.com
230,Onifade,Omowunmi,W,Male,Single,20172035080,CIE,SEET,Civil Engineering,2017,JME,B.Eng,5,tochukwu,images/global/avatars/_avatar_male_1.png,onifadeomowunmi@newmail.com
231,Obiobo,Paul,U. L.,Male,Single,20172035095,CHE,SEET,Chemical Engineering,2017,DIRECT,B.Eng,5,oluwafunke,images/global/avatars/_avatar_male_2.png,obiobopaul@newmail.com
232,Udenyi,Sunday,O,Male,Single,20172040005,PMT,SMAT,Project Management Technology,2017,JME,B.Tech,5,madubueze,images/global/avatars/_avatar_male_1.png,udenyisunday@newmail.com
233,Odaba,Victoria,S,Female,Single,20172040035,MEE,SEET,Mechanical Engineering,2017,JME,B.Eng,5,dike,images/global/avatars/_avatar_female_1.png,odabavictoria@newmail.com
234,Okedele,Samuel,Olaoluwa,Male,Single,20172040065,MTH,SOSC,Mathematics,2017,JME,B.Sc,5,anthonia,images/global/avatars/_avatar_male_1.png,okedelesamuel@newmail.com
235,Idahosa,Paul,,Male,Single,20172040110,CIE,SEET,Civil Engineering,2017,JME,B.Eng,5,victor,images/global/avatars/_avatar_male_2.png,idahosapaul@newmail.com
236,Badmus,Michael,K,Male,Single,20172040125,BIO,SOSC,Industrial Microbiology,2017,JME,B.Sc,5,pascal,images/global/avatars/_avatar_male_1.png,badmusmichael@newmail.com
237,Odediran,Anuoluwa,,Female,Single,20173045050,CHE,SEET,Chemical Engineering,2017,JME,B.Eng,5,matthew,images/global/avatars/_avatar_female_1.png,odedirananuoluwa@newmail.com
238,Ibrahim,Adeola,M,Female,Single,20173045065,CHE,SEET,Chemical Engineering,2017,JME,B.Eng,5,emmanuel,images/global/avatars/_avatar_female_1.png,ibrahimadeola@newmail.com
239,Abisoye,Stephen,K,Male,Single,20173045095,PHY,SOSC,Industrial Physics,2017,JME,B.Sc,5,ayodele,images/global/avatars/_avatar_male_2.png,abisoyestephen@newmail.com
240,Ani,Sandra,K,Female,Single,20173045125,CIE,SEET,Civil Engineering,2017,DIRECT,B.Eng,5,wilson,images/global/avatars/_avatar_female_1.png,anisandra@newmail.com
241,Jesuloluwa,Sefunmi,,Female,Single,20173045200,BIO,SOSC,Industrial Microbiology,2017,JME,B.Sc,5,peter,images/global/avatars/_avatar_female_1.png,jesuloluwasefunmi@newmail.com
242,Owolabi,David,Seyi,Male,Single,20173045230,IMT,SMAT,Information Management Technology,2017,JME,B.Tech,5,mohammed,images/global/avatars/_avatar_male_1.png,owolabidavid@newmail.com
243,Egenti,Emmanuel,C,Male,Single,20173050035,PMT,SMAT,Project Management Technology,2017,JME,B.Tech,5,evelyn,images/global/avatars/_avatar_male_2.png,egentiemmanuel@newmail.com
244,Oluwatayo,Michael,,Male,Single,20173050080,MEE,SEET,Mechanical Engineering,2017,JME,B.Eng,5,barbara,images/global/avatars/_avatar_male_1.png,oluwatayomichael@newmail.com
245,Rufus,Ebere,Clinton,Male,Single,20173050140,PMT,SMAT,Project Management Technology,2017,JME,B.Tech,5,stanley,images/global/avatars/_avatar_male_2.png,rufusebere@newmail.com
246,Olatuyi,Olayinka,C,Male,Single,20173050170,BIO,SOSC,Industrial Microbiology,2017,DIRECT,B.Sc,5,olukemi,images/global/avatars/_avatar_male_1.png,olatuyiolayinka@newmail.com
247,Eke,Chidi,Collins,Male,Single,20173050215,BIO,SOSC,Industrial Microbiology,2017,JME,B.Sc,5,kamilu,images/global/avatars/_avatar_male_2.png,ekechidi@newmail.com
248,Akaji,Tochukwu,A,Male,Single,20173055005,CHM,SOSC,Industrial Chemistry,2017,JME,B.Sc,5,ciroma,images/global/avatars/_avatar_male_1.png,akajitochukwu@newmail.com
249,Ciroma,Agnes,C,Female,Single,20173055020,IMT,SMAT,Information Management Technology,2017,JME,B.Tech,5,andrew,images/global/avatars/_avatar_female_1.png,ciromaagnes@newmail.com
250,Temple,Shokanitan,E,Male,Single,20173055110,PMT,SMAT,Project Management Technology,2017,DIRECT,B.Tech,5,reginald,images/global/avatars/_avatar_male_1.png,templeshokanitan@newmail.com
251,Samson,Adelaja,G,Male,Single,20173055155,MTH,SOSC,Mathematics,2017,JME,B.Sc,5,selina,images/global/avatars/_avatar_male_2.png,samsonadelaja@newmail.com
252,Godfrey,Okorieh,M,Male,Single,20173055185,MEE,SEET,Mechanical Engineering,2017,JME,B.Eng,5,solomon,images/global/avatars/_avatar_male_1.png,godfreyokorieh@newmail.com
