1,SP1302,yschristopher@anymail.com,$2y$10$neUcXm/YSGdv1KkEuOvpj.vSZeXiGPIm4NVRvY5KGNFpQeLW59ndW,,2018-01-09 09:21:37.872209,2018-01-09 09:21:37.872209,SMAT,IMT,staff,lecturer
2,SP1227,upmichael@anymail.com,$2y$10$neUcXm/YSGdv1KkEuOvpj.vSZeXiGPIm4NVRvY5KGNFpQeLW59ndW,,2018-01-09 09:21:37.872209,2018-01-09 09:21:37.872209,SOSC,PHY,staff,lecturer
3,SP1467,umejiroghene@anymail.com,$2y$10$neUcXm/YSGdv1KkEuOvpj.vSZeXiGPIm4NVRvY5KGNFpQeLW59ndW,,2018-01-09 09:21:37.872209,2018-01-09 09:21:37.872209,SMAT,IMT,staff,lecturer
4,SP1097,uidoris@anymail.com,$2y$10$neUcXm/YSGdv1KkEuOvpj.vSZeXiGPIm4NVRvY5KGNFpQeLW59ndW,,2018-01-09 09:21:37.872209,2018-01-09 09:21:37.872209,SEET,MEE,staff,lecturer
5,SP1267,uctochukwu@anymail.com,$2y$10$neUcXm/YSGdv1KkEuOvpj.vSZeXiGPIm4NVRvY5KGNFpQeLW59ndW,,2018-01-09 09:21:37.872209,2018-01-09 09:21:37.872209,SOGS,GST,staff,lecturer
6,SP1462,ucginika@anymail.com,$2y$10$neUcXm/YSGdv1KkEuOvpj.vSZeXiGPIm4NVRvY5KGNFpQeLW59ndW,,2018-01-09 09:21:37.872209,2018-01-09 09:21:37.872209,SMAT,IMT,staff,lecturer
7,SP1512,ubchinyere@anymail.com,$2y$10$neUcXm/YSGdv1KkEuOvpj.vSZeXiGPIm4NVRvY5KGNFpQeLW59ndW,,2018-01-09 09:21:37.872209,2018-01-09 09:21:37.872209,SEET,CIE,staff,lecturer
8,SP1287,uapatience@anymail.com,$2y$10$neUcXm/YSGdv1KkEuOvpj.vSZeXiGPIm4NVRvY5KGNFpQeLW59ndW,,2018-01-09 09:21:37.872209,2018-01-09 09:21:37.872209,SEET,CHE,staff,lecturer
9,SP1292,tomartins@anymail.com,$2y$10$neUcXm/YSGdv1KkEuOvpj.vSZeXiGPIm4NVRvY5KGNFpQeLW59ndW,,2018-01-09 09:21:37.872209,2018-01-09 09:21:37.872209,SEET,CIE,staff,lecturer
10,SP1252,tnpetronilla@anymail.com,$2y$10$neUcXm/YSGdv1KkEuOvpj.vSZeXiGPIm4NVRvY5KGNFpQeLW59ndW,,2018-01-09 09:21:37.872209,2018-01-09 09:21:37.872209,SOSC,MTH,staff,lecturer
11,SP1047,tamohammed@anymail.com,$2y$10$neUcXm/YSGdv1KkEuOvpj.vSZeXiGPIm4NVRvY5KGNFpQeLW59ndW,,2018-01-09 09:21:37.872209,2018-01-09 09:21:37.872209,SOSC,MTH,staff,lecturer
12,SP1297,sumahmoud@anymail.com,$2y$10$neUcXm/YSGdv1KkEuOvpj.vSZeXiGPIm4NVRvY5KGNFpQeLW59ndW,,2018-01-09 09:21:37.872209,2018-01-09 09:21:37.872209,SMAT,IMT,staff,lecturer
13,SP1397,sgbalarabe@anymail.com,$2y$10$neUcXm/YSGdv1KkEuOvpj.vSZeXiGPIm4NVRvY5KGNFpQeLW59ndW,,2018-01-09 09:21:37.872209,2018-01-09 09:21:37.872209,SEET,CHE,staff,lecturer
14,SP1117,sewilson@anymail.com,$2y$10$neUcXm/YSGdv1KkEuOvpj.vSZeXiGPIm4NVRvY5KGNFpQeLW59ndW,,2018-01-09 09:21:37.872209,2018-01-09 09:21:37.872209,SOSC,PHY,staff,lecturer
15,SP1122,samudasiru@anymail.com,$2y$10$neUcXm/YSGdv1KkEuOvpj.vSZeXiGPIm4NVRvY5KGNFpQeLW59ndW,,2018-01-09 09:21:37.872209,2018-01-09 09:21:37.872209,SOGS,GST,staff,lecturer
16,SP1032,ouuvie@anymail.com,$2y$10$neUcXm/YSGdv1KkEuOvpj.vSZeXiGPIm4NVRvY5KGNFpQeLW59ndW,,2018-01-09 09:21:37.872209,2018-01-09 09:21:37.872209,SMAT,IMT,staff,lecturer
17,SP1052,oustanley@anymail.com,$2y$10$neUcXm/YSGdv1KkEuOvpj.vSZeXiGPIm4NVRvY5KGNFpQeLW59ndW,,2018-01-09 09:21:37.872209,2018-01-09 09:21:37.872209,SOSC,BIO,staff,lecturer
18,SP1492,oucharles@anymail.com,$2y$10$neUcXm/YSGdv1KkEuOvpj.vSZeXiGPIm4NVRvY5KGNFpQeLW59ndW,,2018-01-09 09:21:37.872209,2018-01-09 09:21:37.872209,SOSC,BIO,staff,lecturer
19,SP1527,osossai@anymail.com,$2y$10$neUcXm/YSGdv1KkEuOvpj.vSZeXiGPIm4NVRvY5KGNFpQeLW59ndW,,2018-01-09 09:21:37.872209,2018-01-09 09:21:37.872209,SMAT,IMT,staff,lecturer
20,SP1197,osokechukwu@anymail.com,$2y$10$neUcXm/YSGdv1KkEuOvpj.vSZeXiGPIm4NVRvY5KGNFpQeLW59ndW,,2018-01-09 09:21:37.872209,2018-01-09 09:21:37.872209,SOSC,PHY,staff,lecturer
21,SP1562,oovincent@anymail.com,$2y$10$neUcXm/YSGdv1KkEuOvpj.vSZeXiGPIm4NVRvY5KGNFpQeLW59ndW,,2018-01-09 09:21:37.872209,2018-01-09 09:21:37.872209,SEET,MEE,staff,lecturer
22,SP1262,ooreginald@anymail.com,$2y$10$neUcXm/YSGdv1KkEuOvpj.vSZeXiGPIm4NVRvY5KGNFpQeLW59ndW,,2018-01-09 09:21:37.872209,2018-01-09 09:21:37.872209,SMAT,IMT,staff,lecturer
23,SP1477,ooelijah@anymail.com,$2y$10$neUcXm/YSGdv1KkEuOvpj.vSZeXiGPIm4NVRvY5KGNFpQeLW59ndW,,2018-01-09 09:21:37.872209,2018-01-09 09:21:37.872209,SMAT,PMT,staff,lecturer
24,SP1502,ooclement@anymail.com,$2y$10$neUcXm/YSGdv1KkEuOvpj.vSZeXiGPIm4NVRvY5KGNFpQeLW59ndW,,2018-01-09 09:21:37.872209,2018-01-09 09:21:37.872209,SEET,MEE,staff,lecturer
25,SP1352,ooaustin@anymail.com,$2y$10$neUcXm/YSGdv1KkEuOvpj.vSZeXiGPIm4NVRvY5KGNFpQeLW59ndW,,2018-01-09 09:21:37.872209,2018-01-09 09:21:37.872209,SMAT,PMT,staff,lecturer
26,SP1432,onselina@anymail.com,$2y$10$neUcXm/YSGdv1KkEuOvpj.vSZeXiGPIm4NVRvY5KGNFpQeLW59ndW,,2018-01-09 09:21:37.872209,2018-01-09 09:21:37.872209,SOSC,MTH,staff,lecturer
27,SP1237,onesther@anymail.com,$2y$10$neUcXm/YSGdv1KkEuOvpj.vSZeXiGPIm4NVRvY5KGNFpQeLW59ndW,,2018-01-09 09:21:37.872209,2018-01-09 09:21:37.872209,SOSC,PHY,staff,lecturer
28,SP1372,onaugustine@anymail.com,$2y$10$neUcXm/YSGdv1KkEuOvpj.vSZeXiGPIm4NVRvY5KGNFpQeLW59ndW,,2018-01-09 09:21:37.872209,2018-01-09 09:21:37.872209,SMAT,PMT,staff,lecturer
29,SP1232,okingsleypchima@anymail.com,$2y$10$neUcXm/YSGdv1KkEuOvpj.vSZeXiGPIm4NVRvY5KGNFpQeLW59ndW,,2018-01-09 09:21:37.872209,2018-01-09 09:21:37.872209,SOSC,CHM,staff,lecturer
30,SP1282,ojosaretin@anymail.com,$2y$10$neUcXm/YSGdv1KkEuOvpj.vSZeXiGPIm4NVRvY5KGNFpQeLW59ndW,,2018-01-09 09:21:37.872209,2018-01-09 09:21:37.872209,SOSC,BIO,staff,lecturer
31,SP1447,ojbasden@anymail.com,$2y$10$neUcXm/YSGdv1KkEuOvpj.vSZeXiGPIm4NVRvY5KGNFpQeLW59ndW,,2018-01-09 09:21:37.872209,2018-01-09 09:21:37.872209,SOSC,CHM,staff,lecturer
32,SP1522,oisamuel@anymail.com,$2y$10$neUcXm/YSGdv1KkEuOvpj.vSZeXiGPIm4NVRvY5KGNFpQeLW59ndW,,2018-01-09 09:21:37.872209,2018-01-09 09:21:37.872209,SOSC,BIO,staff,lecturer
33,SP1247,oihenry@anymail.com,$2y$10$neUcXm/YSGdv1KkEuOvpj.vSZeXiGPIm4NVRvY5KGNFpQeLW59ndW,,2018-01-09 09:21:37.872209,2018-01-09 09:21:37.872209,SOSC,MTH,staff,lecturer
34,SP1412,oiemmanuel@anymail.com,$2y$10$neUcXm/YSGdv1KkEuOvpj.vSZeXiGPIm4NVRvY5KGNFpQeLW59ndW,,2018-01-09 09:21:37.872209,2018-01-09 09:21:37.872209,SEET,MEE,staff,lecturer
35,SP1482,oibasil@anymail.com,$2y$10$neUcXm/YSGdv1KkEuOvpj.vSZeXiGPIm4NVRvY5KGNFpQeLW59ndW,,2018-01-09 09:21:37.872209,2018-01-09 09:21:37.872209,SEET,CIE,staff,lecturer
36,SP1357,oiangela@anymail.com,$2y$10$neUcXm/YSGdv1KkEuOvpj.vSZeXiGPIm4NVRvY5KGNFpQeLW59ndW,,2018-01-09 09:21:37.872209,2018-01-09 09:21:37.872209,SEET,CHE,staff,lecturer
37,SP1367,oialbert@anymail.com,$2y$10$neUcXm/YSGdv1KkEuOvpj.vSZeXiGPIm4NVRvY5KGNFpQeLW59ndW,,2018-01-09 09:21:37.872209,2018-01-09 09:21:37.872209,SOSC,MTH,staff,lecturer
38,SP1572,ogoladimeji@anymail.com,$2y$10$neUcXm/YSGdv1KkEuOvpj.vSZeXiGPIm4NVRvY5KGNFpQeLW59ndW,,2018-01-09 09:21:37.872209,2018-01-09 09:21:37.872209,SMAT,IMT,staff,lecturer
39,SP1162,oevincent@anymail.com,$2y$10$neUcXm/YSGdv1KkEuOvpj.vSZeXiGPIm4NVRvY5KGNFpQeLW59ndW,,2018-01-09 09:21:37.872209,2018-01-09 09:21:37.872209,SOSC,PHY,staff,lecturer
40,SP1042,oebarbara@anymail.com,$2y$10$neUcXm/YSGdv1KkEuOvpj.vSZeXiGPIm4NVRvY5KGNFpQeLW59ndW,,2018-01-09 09:21:37.872209,2018-01-09 09:21:37.872209,SEET,CHE,staff,lecturer
41,SP1362,odpeter@anymail.com,$2y$10$neUcXm/YSGdv1KkEuOvpj.vSZeXiGPIm4NVRvY5KGNFpQeLW59ndW,,2018-01-09 09:21:37.872209,2018-01-09 09:21:37.872209,SEET,CIE,staff,lecturer
42,SP1337,ocndudim@anymail.com,$2y$10$neUcXm/YSGdv1KkEuOvpj.vSZeXiGPIm4NVRvY5KGNFpQeLW59ndW,,2018-01-09 09:21:37.872209,2018-01-09 09:21:37.872209,SOGS,GST,staff,lecturer
43,SP1202,ocfaith@anymail.com,$2y$10$neUcXm/YSGdv1KkEuOvpj.vSZeXiGPIm4NVRvY5KGNFpQeLW59ndW,,2018-01-09 09:21:37.872209,2018-01-09 09:21:37.872209,SEET,MEE,staff,lecturer
44,SP1452,ocesther@anymail.com,$2y$10$neUcXm/YSGdv1KkEuOvpj.vSZeXiGPIm4NVRvY5KGNFpQeLW59ndW,,2018-01-09 09:21:37.872209,2018-01-09 09:21:37.872209,SOSC,MTH,staff,lecturer
45,SP1332,obayodele@anymail.com,$2y$10$neUcXm/YSGdv1KkEuOvpj.vSZeXiGPIm4NVRvY5KGNFpQeLW59ndW,,2018-01-09 09:21:37.872209,2018-01-09 09:21:37.872209,SOSC,CHM,staff,lecturer
46,SP1312,obdike@anymail.com,$2y$10$neUcXm/YSGdv1KkEuOvpj.vSZeXiGPIm4NVRvY5KGNFpQeLW59ndW,qh0nKLkYBt9vdwFz113KATV18I2DZnkAeHyoi1LKnbvIMBEYSPKNVGGOtpbx,2018-01-09 09:21:37.872209,2018-01-09 09:21:37.872209,SEET,MEE,staff,lecturer
47,SP1472,oavictor@anymail.com,$2y$10$neUcXm/YSGdv1KkEuOvpj.vSZeXiGPIm4NVRvY5KGNFpQeLW59ndW,,2018-01-09 09:21:37.872209,2018-01-09 09:21:37.872209,SOGS,GST,staff,lecturer
48,SP1567,oaadeola@anymail.com,$2y$10$neUcXm/YSGdv1KkEuOvpj.vSZeXiGPIm4NVRvY5KGNFpQeLW59ndW,,2018-01-09 09:21:37.872209,2018-01-09 09:21:37.872209,SOSC,BIO,staff,lecturer
49,SP1157,nuchibundo@anymail.com,$2y$10$neUcXm/YSGdv1KkEuOvpj.vSZeXiGPIm4NVRvY5KGNFpQeLW59ndW,,2018-01-09 09:21:37.872209,2018-01-09 09:21:37.872209,SMAT,PMT,staff,lecturer
50,SP1177,nnandrew@anymail.com,$2y$10$neUcXm/YSGdv1KkEuOvpj.vSZeXiGPIm4NVRvY5KGNFpQeLW59ndW,,2018-01-09 09:21:37.872209,2018-01-09 09:21:37.872209,SOSC,CHM,staff,lecturer
51,SP1327,nechibuike@anymail.com,$2y$10$neUcXm/YSGdv1KkEuOvpj.vSZeXiGPIm4NVRvY5KGNFpQeLW59ndW,,2018-01-09 09:21:37.872209,2018-01-09 09:21:37.872209,SMAT,PMT,staff,lecturer
52,SP1017,nachima@anymail.com,$2y$10$neUcXm/YSGdv1KkEuOvpj.vSZeXiGPIm4NVRvY5KGNFpQeLW59ndW,,2018-01-09 09:21:37.872209,2018-01-09 09:21:37.872209,SEET,CHE,staff,lecturer
53,SP1272,msmuhammad@anymail.com,$2y$10$neUcXm/YSGdv1KkEuOvpj.vSZeXiGPIm4NVRvY5KGNFpQeLW59ndW,,2018-01-09 09:21:37.872209,2018-01-09 09:21:37.872209,SOSC,BIO,staff,lecturer
54,SP1547,mkkamilu@anymail.com,$2y$10$neUcXm/YSGdv1KkEuOvpj.vSZeXiGPIm4NVRvY5KGNFpQeLW59ndW,,2018-01-09 09:21:37.872209,2018-01-09 09:21:37.872209,SEET,CIE,staff,lecturer
55,SP1037,mcogechi@anymail.com,$2y$10$neUcXm/YSGdv1KkEuOvpj.vSZeXiGPIm4NVRvY5KGNFpQeLW59ndW,,2018-01-09 09:21:37.872209,2018-01-09 09:21:37.872209,SMAT,PMT,staff,lecturer
56,SP1307,kmphilip@anymail.com,$2y$10$neUcXm/YSGdv1KkEuOvpj.vSZeXiGPIm4NVRvY5KGNFpQeLW59ndW,,2018-01-09 09:21:37.872209,2018-01-09 09:21:37.872209,SEET,MEE,staff,lecturer
57,SP1127,kmkamilu@anymail.com,$2y$10$neUcXm/YSGdv1KkEuOvpj.vSZeXiGPIm4NVRvY5KGNFpQeLW59ndW,,2018-01-09 09:21:37.872209,2018-01-09 09:21:37.872209,SEET,CHE,staff,lecturer
58,SP1092,kaibrahim@anymail.com,$2y$10$neUcXm/YSGdv1KkEuOvpj.vSZeXiGPIm4NVRvY5KGNFpQeLW59ndW,,2018-01-09 09:21:37.872209,2018-01-09 09:21:37.872209,SMAT,PMT,staff,lecturer
59,SP1167,jcevelyn@anymail.com,$2y$10$neUcXm/YSGdv1KkEuOvpj.vSZeXiGPIm4NVRvY5KGNFpQeLW59ndW,,2018-01-09 09:21:37.872209,2018-01-09 09:21:37.872209,SEET,CHE,staff,lecturer
60,SP1107,ismuhammmad@anymail.com,$2y$10$neUcXm/YSGdv1KkEuOvpj.vSZeXiGPIm4NVRvY5KGNFpQeLW59ndW,,2018-01-09 09:21:37.872209,2018-01-09 09:21:37.872209,SOSC,PHY,staff,lecturer
61,SP1382,ioolukemi@anymail.com,$2y$10$neUcXm/YSGdv1KkEuOvpj.vSZeXiGPIm4NVRvY5KGNFpQeLW59ndW,,2018-01-09 09:21:37.872209,2018-01-09 09:21:37.872209,SOSC,BIO,staff,lecturer
62,SP1317,ioemmanuel@anymail.com,$2y$10$neUcXm/YSGdv1KkEuOvpj.vSZeXiGPIm4NVRvY5KGNFpQeLW59ndW,,2018-01-09 09:21:37.872209,2018-01-09 09:21:37.872209,SOSC,MTH,staff,lecturer
63,SP1537,iigodsent@anymail.com,$2y$10$neUcXm/YSGdv1KkEuOvpj.vSZeXiGPIm4NVRvY5KGNFpQeLW59ndW,,2018-01-09 09:21:37.872209,2018-01-09 09:21:37.872209,SOSC,CHM,staff,lecturer
64,SP1087,icvincent@anymail.com,$2y$10$neUcXm/YSGdv1KkEuOvpj.vSZeXiGPIm4NVRvY5KGNFpQeLW59ndW,,2018-01-09 09:21:37.872209,2018-01-09 09:21:37.872209,SEET,MEE,staff,lecturer
65,SP1057,icanthonia@anymail.com,$2y$10$neUcXm/YSGdv1KkEuOvpj.vSZeXiGPIm4NVRvY5KGNFpQeLW59ndW,,2018-01-09 09:21:37.872209,2018-01-09 09:21:37.872209,SEET,CIE,staff,lecturer
66,SP1082,iasamuel@anymail.com,$2y$10$neUcXm/YSGdv1KkEuOvpj.vSZeXiGPIm4NVRvY5KGNFpQeLW59ndW,,2018-01-09 09:21:37.872209,2018-01-09 09:21:37.872209,SEET,CIE,staff,lecturer
67,SP1402,ianneka@anymail.com,$2y$10$neUcXm/YSGdv1KkEuOvpj.vSZeXiGPIm4NVRvY5KGNFpQeLW59ndW,,2018-01-09 09:21:37.872209,2018-01-09 09:21:37.872209,SEET,CHE,staff,lecturer
68,SP1457,foayodele@anymail.com,$2y$10$neUcXm/YSGdv1KkEuOvpj.vSZeXiGPIm4NVRvY5KGNFpQeLW59ndW,,2018-01-09 09:21:37.872209,2018-01-09 09:21:37.872209,SOSC,BIO,staff,lecturer
69,SP1497,fboluranti@anymail.com,$2y$10$neUcXm/YSGdv1KkEuOvpj.vSZeXiGPIm4NVRvY5KGNFpQeLW59ndW,,2018-01-09 09:21:37.872209,2018-01-09 09:21:37.872209,SMAT,IMT,staff,lecturer
70,SP1277,euemmanuel@anymail.com,$2y$10$neUcXm/YSGdv1KkEuOvpj.vSZeXiGPIm4NVRvY5KGNFpQeLW59ndW,,2018-01-09 09:21:37.872209,2018-01-09 09:21:37.872209,SOSC,BIO,staff,lecturer
71,SP1552,esuriah@anymail.com,$2y$10$neUcXm/YSGdv1KkEuOvpj.vSZeXiGPIm4NVRvY5KGNFpQeLW59ndW,,2018-01-09 09:21:37.872209,2018-01-09 09:21:37.872209,SOSC,PHY,staff,lecturer
72,SP1347,epmadubueze@anymail.com,$2y$10$neUcXm/YSGdv1KkEuOvpj.vSZeXiGPIm4NVRvY5KGNFpQeLW59ndW,,2018-01-09 09:21:37.872209,2018-01-09 09:21:37.872209,SMAT,IMT,staff,lecturer
73,SP1187,ecjohn@anymail.com,$2y$10$neUcXm/YSGdv1KkEuOvpj.vSZeXiGPIm4NVRvY5KGNFpQeLW59ndW,,2018-01-09 09:21:37.872209,2018-01-09 09:21:37.872209,SOSC,MTH,staff,lecturer
74,SP1342,echumphrey@anymail.com,$2y$10$neUcXm/YSGdv1KkEuOvpj.vSZeXiGPIm4NVRvY5KGNFpQeLW59ndW,,2018-01-09 09:21:37.872209,2018-01-09 09:21:37.872209,SOSC,MTH,staff,lecturer
75,SP1142,ecanthony@anymail.com,$2y$10$neUcXm/YSGdv1KkEuOvpj.vSZeXiGPIm4NVRvY5KGNFpQeLW59ndW,,2018-01-09 09:21:37.872209,2018-01-09 09:21:37.872209,SOSC,CHM,staff,lecturer
76,SP1427,easunday@anymail.com,$2y$10$neUcXm/YSGdv1KkEuOvpj.vSZeXiGPIm4NVRvY5KGNFpQeLW59ndW,,2018-01-09 09:21:37.872209,2018-01-09 09:21:37.872209,SOSC,CHM,staff,lecturer
77,SP1487,dssolomon@anymail.com,$2y$10$neUcXm/YSGdv1KkEuOvpj.vSZeXiGPIm4NVRvY5KGNFpQeLW59ndW,,2018-01-09 09:21:37.872209,2018-01-09 09:21:37.872209,SMAT,PMT,staff,lecturer
78,SP1392,dizira@anymail.com,$2y$10$neUcXm/YSGdv1KkEuOvpj.vSZeXiGPIm4NVRvY5KGNFpQeLW59ndW,,2018-01-09 09:21:37.872209,2018-01-09 09:21:37.872209,SEET,MEE,staff,lecturer
79,SP1207,daadekola@anymail.com,$2y$10$neUcXm/YSGdv1KkEuOvpj.vSZeXiGPIm4NVRvY5KGNFpQeLW59ndW,,2018-01-09 09:21:37.872209,2018-01-09 09:21:37.872209,SEET,CIE,staff,lecturer
80,SP1152,ckcaleb@anymail.com,$2y$10$neUcXm/YSGdv1KkEuOvpj.vSZeXiGPIm4NVRvY5KGNFpQeLW59ndW,,2018-01-09 09:21:37.872209,2018-01-09 09:21:37.872209,SEET,MEE,staff,lecturer
81,SP1557,caciroma@anymail.com,$2y$10$neUcXm/YSGdv1KkEuOvpj.vSZeXiGPIm4NVRvY5KGNFpQeLW59ndW,,2018-01-09 09:21:37.872209,2018-01-09 09:21:37.872209,SOSC,BIO,staff,lecturer
82,SP1112,bode-tafidelia@anymail.com,$2y$10$neUcXm/YSGdv1KkEuOvpj.vSZeXiGPIm4NVRvY5KGNFpQeLW59ndW,,2018-01-09 09:21:37.872209,2018-01-09 09:21:37.872209,SOSC,PHY,staff,lecturer
83,SP1387,benancy@anymail.com,$2y$10$neUcXm/YSGdv1KkEuOvpj.vSZeXiGPIm4NVRvY5KGNFpQeLW59ndW,,2018-01-09 09:21:37.872209,2018-01-09 09:21:37.872209,SOSC,PHY,staff,lecturer
84,SP1507,bbiretiola@anymail.com,$2y$10$neUcXm/YSGdv1KkEuOvpj.vSZeXiGPIm4NVRvY5KGNFpQeLW59ndW,,2018-01-09 09:21:37.872209,2018-01-09 09:21:37.872209,SMAT,PMT,staff,lecturer
85,SP1407,armacleans@anymail.com,$2y$10$neUcXm/YSGdv1KkEuOvpj.vSZeXiGPIm4NVRvY5KGNFpQeLW59ndW,,2018-01-09 09:21:37.872209,2018-01-09 09:21:37.872209,SOSC,CHM,staff,lecturer
86,SP1417,apolayinka@anymail.com,$2y$10$neUcXm/YSGdv1KkEuOvpj.vSZeXiGPIm4NVRvY5KGNFpQeLW59ndW,,2018-01-09 09:21:37.872209,2018-01-09 09:21:37.872209,SOSC,MTH,staff,lecturer
87,SP1222,aovictor@anymail.com,$2y$10$neUcXm/YSGdv1KkEuOvpj.vSZeXiGPIm4NVRvY5KGNFpQeLW59ndW,,2018-01-09 09:21:37.872209,2018-01-09 09:21:37.872209,SOSC,CHM,staff,lecturer
88,SP1147,aoraphael@anymail.com,$2y$10$neUcXm/YSGdv1KkEuOvpj.vSZeXiGPIm4NVRvY5KGNFpQeLW59ndW,,2018-01-09 09:21:37.872209,2018-01-09 09:21:37.872209,SEET,MEE,staff,lecturer
89,SP1182,aopeter@anymail.com,$2y$10$neUcXm/YSGdv1KkEuOvpj.vSZeXiGPIm4NVRvY5KGNFpQeLW59ndW,,2018-01-09 09:21:37.872209,2018-01-09 09:21:37.872209,SEET,CHE,staff,lecturer
90,SP1217,aomustafa@anymail.com,$2y$10$neUcXm/YSGdv1KkEuOvpj.vSZeXiGPIm4NVRvY5KGNFpQeLW59ndW,,2018-01-09 09:21:37.872209,2018-01-09 09:21:37.872209,SOSC,CHM,staff,lecturer
91,SP1442,aofolashade@anymail.com,$2y$10$neUcXm/YSGdv1KkEuOvpj.vSZeXiGPIm4NVRvY5KGNFpQeLW59ndW,,2018-01-09 09:21:37.872209,2018-01-09 09:21:37.872209,SOSC,PHY,staff,lecturer
92,SP1577,aoanthony@anymail.com,$2y$10$neUcXm/YSGdv1KkEuOvpj.vSZeXiGPIm4NVRvY5KGNFpQeLW59ndW,,2018-01-09 09:21:37.872209,2018-01-09 09:21:37.872209,SOGS,GST,staff,lecturer
93,SP1517,amibrahim@anymail.com,$2y$10$neUcXm/YSGdv1KkEuOvpj.vSZeXiGPIm4NVRvY5KGNFpQeLW59ndW,,2018-01-09 09:21:37.872209,2018-01-09 09:21:37.872209,SMAT,PMT,staff,lecturer
94,SP1532,akolagoke@anymail.com,$2y$10$neUcXm/YSGdv1KkEuOvpj.vSZeXiGPIm4NVRvY5KGNFpQeLW59ndW,,2018-01-09 09:21:37.872209,2018-01-09 09:21:37.872209,SOGS,GST,staff,lecturer
95,SP1242,akadedeji@anymail.com,$2y$10$neUcXm/YSGdv1KkEuOvpj.vSZeXiGPIm4NVRvY5KGNFpQeLW59ndW,,2018-01-09 09:21:37.872209,2018-01-09 09:21:37.872209,SOSC,MTH,staff,lecturer
96,SP1072,aigladys@anymail.com,$2y$10$neUcXm/YSGdv1KkEuOvpj.vSZeXiGPIm4NVRvY5KGNFpQeLW59ndW,,2018-01-09 09:21:37.872209,2018-01-09 09:21:37.872209,SOSC,CHM,staff,lecturer
97,SP1067,aifrederick@anymail.com,$2y$10$neUcXm/YSGdv1KkEuOvpj.vSZeXiGPIm4NVRvY5KGNFpQeLW59ndW,,2018-01-09 09:21:37.872209,2018-01-09 09:21:37.872209,SOSC,BIO,staff,lecturer
98,SP1437,agumar@anymail.com,$2y$10$neUcXm/YSGdv1KkEuOvpj.vSZeXiGPIm4NVRvY5KGNFpQeLW59ndW,,2018-01-09 09:21:37.872209,2018-01-09 09:21:37.872209,SEET,CIE,staff,lecturer
99,SP1022,aegandhi@anymail.com,$2y$10$neUcXm/YSGdv1KkEuOvpj.vSZeXiGPIm4NVRvY5KGNFpQeLW59ndW,,2018-01-09 09:21:37.872209,2018-01-09 09:21:37.872209,SEET,MEE,staff,lecturer
100,SP1137,aedodo@anymail.com,$2y$10$neUcXm/YSGdv1KkEuOvpj.vSZeXiGPIm4NVRvY5KGNFpQeLW59ndW,,2018-01-09 09:21:37.872209,2018-01-09 09:21:37.872209,SMAT,IMT,staff,lecturer
101,SP1422,aeadedeji@anymail.com,$2y$10$neUcXm/YSGdv1KkEuOvpj.vSZeXiGPIm4NVRvY5KGNFpQeLW59ndW,,2018-01-09 09:21:37.872209,2018-01-09 09:21:37.872209,SOSC,PHY,staff,lecturer
102,SP1077,acpascal@anymail.com,$2y$10$neUcXm/YSGdv1KkEuOvpj.vSZeXiGPIm4NVRvY5KGNFpQeLW59ndW,,2018-01-09 09:21:37.872209,2018-01-09 09:21:37.872209,SEET,CIE,staff,lecturer
103,SP1322,acmartin@anymail.com,$2y$10$neUcXm/YSGdv1KkEuOvpj.vSZeXiGPIm4NVRvY5KGNFpQeLW59ndW,,2018-01-09 09:21:37.872209,2018-01-09 09:21:37.872209,SMAT,PMT,staff,lecturer
104,SP1257,achumphrey@anymail.com,$2y$10$neUcXm/YSGdv1KkEuOvpj.vSZeXiGPIm4NVRvY5KGNFpQeLW59ndW,,2018-01-09 09:21:37.872209,2018-01-09 09:21:37.872209,SOSC,BIO,staff,lecturer
105,SP1012,acbenedict@anymail.com,$2y$10$neUcXm/YSGdv1KkEuOvpj.vSZeXiGPIm4NVRvY5KGNFpQeLW59ndW,,2018-01-09 09:21:37.872209,2018-01-09 09:21:37.872209,SEET,CHE,staff,lecturer
106,SP1132,abyahaya@anymail.com,$2y$10$neUcXm/YSGdv1KkEuOvpj.vSZeXiGPIm4NVRvY5KGNFpQeLW59ndW,,2018-01-09 09:21:37.872209,2018-01-09 09:21:37.872209,SEET,CHE,staff,lecturer
107,SP1062,aarasaaq@anymail.com,$2y$10$neUcXm/YSGdv1KkEuOvpj.vSZeXiGPIm4NVRvY5KGNFpQeLW59ndW,,2018-01-09 09:21:37.872209,2018-01-09 09:21:37.872209,SEET,CHE,staff,lecturer
108,SP1212,aaoluwole@anymail.com,$2y$10$neUcXm/YSGdv1KkEuOvpj.vSZeXiGPIm4NVRvY5KGNFpQeLW59ndW,,2018-01-09 09:21:37.872209,2018-01-09 09:21:37.872209,SOSC,CHM,staff,lecturer
109,SP1192,aamohaamed@anymail.com,$2y$10$neUcXm/YSGdv1KkEuOvpj.vSZeXiGPIm4NVRvY5KGNFpQeLW59ndW,,2018-01-09 09:21:37.872209,2018-01-09 09:21:37.872209,SMAT,PMT,staff,lecturer
110,SP1542,aamatthew@anymail.com,$2y$10$neUcXm/YSGdv1KkEuOvpj.vSZeXiGPIm4NVRvY5KGNFpQeLW59ndW,,2018-01-09 09:21:37.872209,2018-01-09 09:21:37.872209,SOSC,PHY,staff,lecturer
111,SP1377,aaebenezer@anymail.com,$2y$10$neUcXm/YSGdv1KkEuOvpj.vSZeXiGPIm4NVRvY5KGNFpQeLW59ndW,,2018-01-09 09:21:37.872209,2018-01-09 09:21:37.872209,SEET,CIE,staff,lecturer
112,SP1027,aaadeyemi@anymail.com,$2y$10$neUcXm/YSGdv1KkEuOvpj.vSZeXiGPIm4NVRvY5KGNFpQeLW59ndW,,2018-01-09 09:21:37.872209,2018-01-09 09:21:37.872209,SOSC,MTH,staff,lecturer
113,SP1172,aaabiodun@anymail.com,$2y$10$neUcXm/YSGdv1KkEuOvpj.vSZeXiGPIm4NVRvY5KGNFpQeLW59ndW,,2018-01-09 09:21:37.872209,2018-01-09 09:21:37.872209,SEET,CIE,staff,lecturer
114,20171020050,igbannyjuloma@anymail.culomam,$2y$10$neUcXm/YSGdv1KkEuOvpj.vSZeXiGPIm4NVRvY5KGNFpQeLW59ndW,,2018-01-09 09:21:37.872209,2018-01-09 09:21:37.872209,SOSC,BIO,undergraduate,
115,20171020065,ezeokoliajacinta@anymail.cjacintam,$2y$10$neUcXm/YSGdv1KkEuOvpj.vSZeXiGPIm4NVRvY5KGNFpQeLW59ndW,,2018-01-09 09:21:37.872209,2018-01-09 09:21:37.872209,SOSC,BIO,undergraduate,
116,20171020125,paulcchikamso@anymail.cchikamsom,$2y$10$neUcXm/YSGdv1KkEuOvpj.vSZeXiGPIm4NVRvY5KGNFpQeLW59ndW,,2018-01-09 09:21:37.872209,2018-01-09 09:21:37.872209,SOSC,BIO,undergraduate,
117,20171020170,anthonynchibuzor@anymail.cchibuzorm,$2y$10$neUcXm/YSGdv1KkEuOvpj.vSZeXiGPIm4NVRvY5KGNFpQeLW59ndW,,2018-01-09 09:21:37.872209,2018-01-09 09:21:37.872209,SOSC,BIO,undergraduate,
118,20171020185,ezenwasa@anymail.cam,$2y$10$neUcXm/YSGdv1KkEuOvpj.vSZeXiGPIm4NVRvY5KGNFpQeLW59ndW,,2018-01-09 09:21:37.872209,2018-01-09 09:21:37.872209,SOSC,BIO,undergraduate,
119,20171020200,olehoprecious@anymail.cpreciousm,$2y$10$neUcXm/YSGdv1KkEuOvpj.vSZeXiGPIm4NVRvY5KGNFpQeLW59ndW,,2018-01-09 09:21:37.872209,2018-01-09 09:21:37.872209,SOSC,BIO,undergraduate,
120,20171020215,nwanyanwufc@anymail.ccm,$2y$10$neUcXm/YSGdv1KkEuOvpj.vSZeXiGPIm4NVRvY5KGNFpQeLW59ndW,,2018-01-09 09:21:37.872209,2018-01-09 09:21:37.872209,SOSC,BIO,undergraduate,
121,20171020260,obioramtobechukwu@anymail.ctobechukwum,$2y$10$neUcXm/YSGdv1KkEuOvpj.vSZeXiGPIm4NVRvY5KGNFpQeLW59ndW,,2018-01-09 09:21:37.872209,2018-01-09 09:21:37.872209,SOSC,BIO,undergraduate,
122,20173045050,umunnabuikejt@anymail.ctm,$2y$10$neUcXm/YSGdv1KkEuOvpj.vSZeXiGPIm4NVRvY5KGNFpQeLW59ndW,,2018-01-09 09:21:37.872209,2018-01-09 09:21:37.872209,SEET,CHE,undergraduate,
123,20173045065,ibegbulamizuchukwu@anymail.com,$2y$10$neUcXm/YSGdv1KkEuOvpj.vSZeXiGPIm4NVRvY5KGNFpQeLW59ndW,,2018-01-09 09:21:37.872209,2018-01-09 09:21:37.872209,SEET,CHE,undergraduate,
124,20173045095,iregbuemmanuela@anymail.com,$2y$10$neUcXm/YSGdv1KkEuOvpj.vSZeXiGPIm4NVRvY5KGNFpQeLW59ndW,,2018-01-09 09:21:37.872209,2018-01-09 09:21:37.872209,SEET,CHE,undergraduate,
125,20173045125,chimarokenz@anymail.czm,$2y$10$neUcXm/YSGdv1KkEuOvpj.vSZeXiGPIm4NVRvY5KGNFpQeLW59ndW,,2018-01-09 09:21:37.872209,2018-01-09 09:21:37.872209,SEET,CHE,undergraduate,
126,20173045200,fedrickcezenwa@anymail.cezenwam,$2y$10$neUcXm/YSGdv1KkEuOvpj.vSZeXiGPIm4NVRvY5KGNFpQeLW59ndW,,2018-01-09 09:21:37.872209,2018-01-09 09:21:37.872209,SEET,CHE,undergraduate,
127,20173045230,okonnamercy@anymail.com,$2y$10$neUcXm/YSGdv1KkEuOvpj.vSZeXiGPIm4NVRvY5KGNFpQeLW59ndW,,2018-01-09 09:21:37.872209,2018-01-09 09:21:37.872209,SEET,CHE,undergraduate,
128,20171015020,olubunmui-thomasgo@anymail.com,$2y$10$neUcXm/YSGdv1KkEuOvpj.vSZeXiGPIm4NVRvY5KGNFpQeLW59ndW,,2018-01-09 09:21:37.872209,2018-01-09 09:21:37.872209,SOSC,CHM,undergraduate,
129,20171015080,iheanachougochi@anymail.com,$2y$10$neUcXm/YSGdv1KkEuOvpj.vSZeXiGPIm4NVRvY5KGNFpQeLW59ndW,,2018-01-09 09:21:37.872209,2018-01-09 09:21:37.872209,SOSC,CHM,undergraduate,
130,20171015110,ndubuezeikenna@anymail.com,$2y$10$neUcXm/YSGdv1KkEuOvpj.vSZeXiGPIm4NVRvY5KGNFpQeLW59ndW,,2018-01-09 09:21:37.872209,2018-01-09 09:21:37.872209,SOSC,CHM,undergraduate,
131,20171015140,cletusmunachi@anymail.com,$2y$10$neUcXm/YSGdv1KkEuOvpj.vSZeXiGPIm4NVRvY5KGNFpQeLW59ndW,,2018-01-09 09:21:37.872209,2018-01-09 09:21:37.872209,SOSC,CHM,undergraduate,
132,20171015245,nwadikepaschal@anymail.com,$2y$10$neUcXm/YSGdv1KkEuOvpj.vSZeXiGPIm4NVRvY5KGNFpQeLW59ndW,,2018-01-09 09:21:37.872209,2018-01-09 09:21:37.872209,SOSC,CHM,undergraduate,
133,20173050035,nwanyalilian@anymail.com,$2y$10$neUcXm/YSGdv1KkEuOvpj.vSZeXiGPIm4NVRvY5KGNFpQeLW59ndW,,2018-01-09 09:21:37.872209,2018-01-09 09:21:37.872209,SEET,CIE,undergraduate,
134,20173050080,onyechereeberechi@anymail.com,$2y$10$neUcXm/YSGdv1KkEuOvpj.vSZeXiGPIm4NVRvY5KGNFpQeLW59ndW,,2018-01-09 09:21:37.872209,2018-01-09 09:21:37.872209,SEET,CIE,undergraduate,
135,20173050140,azuikechijioke@anymail.com,$2y$10$neUcXm/YSGdv1KkEuOvpj.vSZeXiGPIm4NVRvY5KGNFpQeLW59ndW,,2018-01-09 09:21:37.872209,2018-01-09 09:21:37.872209,SEET,CIE,undergraduate,
136,20173050170,solomonfo@anymail.com,$2y$10$neUcXm/YSGdv1KkEuOvpj.vSZeXiGPIm4NVRvY5KGNFpQeLW59ndW,,2018-01-09 09:21:37.872209,2018-01-09 09:21:37.872209,SEET,CIE,undergraduate,
137,20173050215,ezenachukwuvn@anymail.cnm,$2y$10$neUcXm/YSGdv1KkEuOvpj.vSZeXiGPIm4NVRvY5KGNFpQeLW59ndW,,2018-01-09 09:21:37.872209,2018-01-09 09:21:37.872209,SEET,CIE,undergraduate,
138,20172035020,udohemediong@anymail.com,$2y$10$neUcXm/YSGdv1KkEuOvpj.vSZeXiGPIm4NVRvY5KGNFpQeLW59ndW,,2018-01-09 09:21:37.872209,2018-01-09 09:21:37.872209,SMAT,IMT,undergraduate,
139,20172035050,umunabuikejohnbosco@anymail.com,$2y$10$neUcXm/YSGdv1KkEuOvpj.vSZeXiGPIm4NVRvY5KGNFpQeLW59ndW,,2018-01-09 09:21:37.872209,2018-01-09 09:21:37.872209,SMAT,IMT,undergraduate,
140,20172035080,echiclifford@anymail.com,$2y$10$neUcXm/YSGdv1KkEuOvpj.vSZeXiGPIm4NVRvY5KGNFpQeLW59ndW,,2018-01-09 09:21:37.872209,2018-01-09 09:21:37.872209,SMAT,IMT,undergraduate,
141,20172035095,dikeifeanyi@anymail.com,$2y$10$neUcXm/YSGdv1KkEuOvpj.vSZeXiGPIm4NVRvY5KGNFpQeLW59ndW,,2018-01-09 09:21:37.872209,2018-01-09 09:21:37.872209,SMAT,IMT,undergraduate,
142,20173055005,ikehenry@anymail.com,$2y$10$neUcXm/YSGdv1KkEuOvpj.vSZeXiGPIm4NVRvY5KGNFpQeLW59ndW,,2018-01-09 09:21:37.872209,2018-01-09 09:21:37.872209,SEET,MEE,undergraduate,
143,20173055020,richardchigoziek@anymail.com,$2y$10$neUcXm/YSGdv1KkEuOvpj.vSZeXiGPIm4NVRvY5KGNFpQeLW59ndW,,2018-01-09 09:21:37.872209,2018-01-09 09:21:37.872209,SEET,MEE,undergraduate,
144,20173055110,igbojianyaoluchi@anymail.com,$2y$10$neUcXm/YSGdv1KkEuOvpj.vSZeXiGPIm4NVRvY5KGNFpQeLW59ndW,,2018-01-09 09:21:37.872209,2018-01-09 09:21:37.872209,SEET,MEE,undergraduate,
145,20173055155,onwumereconfidence@anymail.com,$2y$10$neUcXm/YSGdv1KkEuOvpj.vSZeXiGPIm4NVRvY5KGNFpQeLW59ndW,,2018-01-09 09:21:37.872209,2018-01-09 09:21:37.872209,SEET,MEE,undergraduate,
146,20173055185,uchenn@anymail.cnm,$2y$10$neUcXm/YSGdv1KkEuOvpj.vSZeXiGPIm4NVRvY5KGNFpQeLW59ndW,,2018-01-09 09:21:37.872209,2018-01-09 09:21:37.872209,SEET,MEE,undergraduate,
147,20171030005,obujiachiwendu@anymail.com,$2y$10$neUcXm/YSGdv1KkEuOvpj.vSZeXiGPIm4NVRvY5KGNFpQeLW59ndW,,2018-01-09 09:21:37.872209,2018-01-09 09:21:37.872209,SOSC,MTH,undergraduate,
148,20171030035,okaforce@anymail.cem,$2y$10$neUcXm/YSGdv1KkEuOvpj.vSZeXiGPIm4NVRvY5KGNFpQeLW59ndW,,2018-01-09 09:21:37.872209,2018-01-09 09:21:37.872209,SOSC,MTH,undergraduate,
149,20171030095,ikonneku@anymail.cum,$2y$10$neUcXm/YSGdv1KkEuOvpj.vSZeXiGPIm4NVRvY5KGNFpQeLW59ndW,,2018-01-09 09:21:37.872209,2018-01-09 09:21:37.872209,SOSC,MTH,undergraduate,
150,20171030230,okoroaforsamuel@anymail.com,$2y$10$neUcXm/YSGdv1KkEuOvpj.vSZeXiGPIm4NVRvY5KGNFpQeLW59ndW,,2018-01-09 09:21:37.872209,2018-01-09 09:21:37.872209,SOSC,MTH,undergraduate,
151,20171025155,chimeziefc@anymail.ccm,$2y$10$neUcXm/YSGdv1KkEuOvpj.vSZeXiGPIm4NVRvY5KGNFpQeLW59ndW,,2018-01-09 09:21:37.872209,2018-01-09 09:21:37.872209,SOSC,PHY,undergraduate,
152,20171025275,uwattuudeme@anymail.cudemem,$2y$10$neUcXm/YSGdv1KkEuOvpj.vSZeXiGPIm4NVRvY5KGNFpQeLW59ndW,,2018-01-09 09:21:37.872209,2018-01-09 09:21:37.872209,SOSC,PHY,undergraduate,
153,20171025290,onuohachukwuebuka@anymail.com,$2y$10$neUcXm/YSGdv1KkEuOvpj.vSZeXiGPIm4NVRvY5KGNFpQeLW59ndW,,2018-01-09 09:21:37.872209,2018-01-09 09:21:37.872209,SOSC,PHY,undergraduate,
154,20172040005,anyanwupa@anymail.cam,$2y$10$neUcXm/YSGdv1KkEuOvpj.vSZeXiGPIm4NVRvY5KGNFpQeLW59ndW,,2018-01-09 09:21:37.872209,2018-01-09 09:21:37.872209,SMAT,PMT,undergraduate,
155,20172040035,iheanachocnick@anymail.cnickm,$2y$10$neUcXm/YSGdv1KkEuOvpj.vSZeXiGPIm4NVRvY5KGNFpQeLW59ndW,,2018-01-09 09:21:37.872209,2018-01-09 09:21:37.872209,SMAT,PMT,undergraduate,
156,20172040065,archibongvictor@anymail.com,$2y$10$neUcXm/YSGdv1KkEuOvpj.vSZeXiGPIm4NVRvY5KGNFpQeLW59ndW,,2018-01-09 09:21:37.872209,2018-01-09 09:21:37.872209,SMAT,PMT,undergraduate,
157,20172040110,enyiyekonjohn@anymail.com,$2y$10$neUcXm/YSGdv1KkEuOvpj.vSZeXiGPIm4NVRvY5KGNFpQeLW59ndW,,2018-01-09 09:21:37.872209,2018-01-09 09:21:37.872209,SMAT,PMT,undergraduate,
158,20172040125,nnameziecs@anymail.csm,$2y$10$neUcXm/YSGdv1KkEuOvpj.vSZeXiGPIm4NVRvY5KGNFpQeLW59ndW,,2018-01-09 09:21:37.872209,2018-01-09 09:21:37.872209,SMAT,PMT,undergraduate,
159,20161020050,agbokenechukwu@anymail.com,$2y$10$neUcXm/YSGdv1KkEuOvpj.vSZeXiGPIm4NVRvY5KGNFpQeLW59ndW,,2018-01-09 09:21:37.872209,2018-01-09 09:21:37.872209,SOSC,BIO,undergraduate,
160,20161020065,adubiosunday@anymail.csundaym,$2y$10$neUcXm/YSGdv1KkEuOvpj.vSZeXiGPIm4NVRvY5KGNFpQeLW59ndW,,2018-01-09 09:21:37.872209,2018-01-09 09:21:37.872209,SOSC,BIO,undergraduate,
161,20161020125,kennethgodwin@anymail.com,$2y$10$neUcXm/YSGdv1KkEuOvpj.vSZeXiGPIm4NVRvY5KGNFpQeLW59ndW,,2018-01-09 09:21:37.872209,2018-01-09 09:21:37.872209,SOSC,BIO,undergraduate,
162,20161020170,udochukwuvi@anymail.cim,$2y$10$neUcXm/YSGdv1KkEuOvpj.vSZeXiGPIm4NVRvY5KGNFpQeLW59ndW,,2018-01-09 09:21:37.872209,2018-01-09 09:21:37.872209,SOSC,BIO,undergraduate,
163,20161020185,ohakachiamaka@anymail.com,$2y$10$neUcXm/YSGdv1KkEuOvpj.vSZeXiGPIm4NVRvY5KGNFpQeLW59ndW,,2018-01-09 09:21:37.872209,2018-01-09 09:21:37.872209,SOSC,BIO,undergraduate,
164,20161020200,orjiugofgodson@anymail.cgodsonm,$2y$10$neUcXm/YSGdv1KkEuOvpj.vSZeXiGPIm4NVRvY5KGNFpQeLW59ndW,,2018-01-09 09:21:37.872209,2018-01-09 09:21:37.872209,SOSC,BIO,undergraduate,
165,20161020215,moorechimezie@anymail.com,$2y$10$neUcXm/YSGdv1KkEuOvpj.vSZeXiGPIm4NVRvY5KGNFpQeLW59ndW,,2018-01-09 09:21:37.872209,2018-01-09 09:21:37.872209,SOSC,BIO,undergraduate,
166,20161020260,obatarheeprince@anymail.cprincem,$2y$10$neUcXm/YSGdv1KkEuOvpj.vSZeXiGPIm4NVRvY5KGNFpQeLW59ndW,,2018-01-09 09:21:37.872209,2018-01-09 09:21:37.872209,SOSC,BIO,undergraduate,
167,20163045050,ahamefulatochukwu@anymail.com,$2y$10$neUcXm/YSGdv1KkEuOvpj.vSZeXiGPIm4NVRvY5KGNFpQeLW59ndW,,2018-01-09 09:21:37.872209,2018-01-09 09:21:37.872209,SEET,CHE,undergraduate,
168,20163045065,divineikara@anymail.com,$2y$10$neUcXm/YSGdv1KkEuOvpj.vSZeXiGPIm4NVRvY5KGNFpQeLW59ndW,,2018-01-09 09:21:37.872209,2018-01-09 09:21:37.872209,SEET,CHE,undergraduate,
169,20163045095,ololojonathan@anymail.com,$2y$10$neUcXm/YSGdv1KkEuOvpj.vSZeXiGPIm4NVRvY5KGNFpQeLW59ndW,,2018-01-09 09:21:37.872209,2018-01-09 09:21:37.872209,SEET,CHE,undergraduate,
170,20163045125,segiusdaniel@anymail.com,$2y$10$neUcXm/YSGdv1KkEuOvpj.vSZeXiGPIm4NVRvY5KGNFpQeLW59ndW,,2018-01-09 09:21:37.872209,2018-01-09 09:21:37.872209,SEET,CHE,undergraduate,
171,20163045200,nwokerghandi@anymail.cghandim,$2y$10$neUcXm/YSGdv1KkEuOvpj.vSZeXiGPIm4NVRvY5KGNFpQeLW59ndW,,2018-01-09 09:21:37.872209,2018-01-09 09:21:37.872209,SEET,CHE,undergraduate,
172,20163045230,nnorommo@anymail.com,$2y$10$neUcXm/YSGdv1KkEuOvpj.vSZeXiGPIm4NVRvY5KGNFpQeLW59ndW,,2018-01-09 09:21:37.872209,2018-01-09 09:21:37.872209,SEET,CHE,undergraduate,
173,20161015020,chinwenduuche@anymail.com,$2y$10$neUcXm/YSGdv1KkEuOvpj.vSZeXiGPIm4NVRvY5KGNFpQeLW59ndW,,2018-01-09 09:21:37.872209,2018-01-09 09:21:37.872209,SOSC,CHM,undergraduate,
174,20161015080,kwaferuldolf@anymail.com,$2y$10$neUcXm/YSGdv1KkEuOvpj.vSZeXiGPIm4NVRvY5KGNFpQeLW59ndW,,2018-01-09 09:21:37.872209,2018-01-09 09:21:37.872209,SOSC,CHM,undergraduate,
175,20161015110,humphreyac@anymail.ccm,$2y$10$neUcXm/YSGdv1KkEuOvpj.vSZeXiGPIm4NVRvY5KGNFpQeLW59ndW,,2018-01-09 09:21:37.872209,2018-01-09 09:21:37.872209,SOSC,CHM,undergraduate,
176,20161015140,mbakwefe@anymail.cem,$2y$10$neUcXm/YSGdv1KkEuOvpj.vSZeXiGPIm4NVRvY5KGNFpQeLW59ndW,,2018-01-09 09:21:37.872209,2018-01-09 09:21:37.872209,SOSC,CHM,undergraduate,
177,20161015245,uchedaniel@anymail.com,$2y$10$neUcXm/YSGdv1KkEuOvpj.vSZeXiGPIm4NVRvY5KGNFpQeLW59ndW,,2018-01-09 09:21:37.872209,2018-01-09 09:21:37.872209,SOSC,CHM,undergraduate,
178,20163050035,nworuhpa@anymail.cam,$2y$10$neUcXm/YSGdv1KkEuOvpj.vSZeXiGPIm4NVRvY5KGNFpQeLW59ndW,,2018-01-09 09:21:37.872209,2018-01-09 09:21:37.872209,SEET,CIE,undergraduate,
179,20163050080,tonyjerffery@anymail.com,$2y$10$neUcXm/YSGdv1KkEuOvpj.vSZeXiGPIm4NVRvY5KGNFpQeLW59ndW,,2018-01-09 09:21:37.872209,2018-01-09 09:21:37.872209,SEET,CIE,undergraduate,
180,20163050140,nwachukwuebuka@anymail.com,$2y$10$neUcXm/YSGdv1KkEuOvpj.vSZeXiGPIm4NVRvY5KGNFpQeLW59ndW,,2018-01-09 09:21:37.872209,2018-01-09 09:21:37.872209,SEET,CIE,undergraduate,
181,20163050170,nwokoyedz@anymail.czm,$2y$10$neUcXm/YSGdv1KkEuOvpj.vSZeXiGPIm4NVRvY5KGNFpQeLW59ndW,,2018-01-09 09:21:37.872209,2018-01-09 09:21:37.872209,SEET,CIE,undergraduate,
182,20163050215,enwelunkechinyere@anymail.com,$2y$10$neUcXm/YSGdv1KkEuOvpj.vSZeXiGPIm4NVRvY5KGNFpQeLW59ndW,,2018-01-09 09:21:37.872209,2018-01-09 09:21:37.872209,SEET,CIE,undergraduate,
183,20162035020,unegbuoluchi@anymail.com,$2y$10$neUcXm/YSGdv1KkEuOvpj.vSZeXiGPIm4NVRvY5KGNFpQeLW59ndW,,2018-01-09 09:21:37.872209,2018-01-09 09:21:37.872209,SMAT,IMT,undergraduate,
184,20162035050,oparadchukwuemeka@anymail.cchukwuemekam,$2y$10$neUcXm/YSGdv1KkEuOvpj.vSZeXiGPIm4NVRvY5KGNFpQeLW59ndW,,2018-01-09 09:21:37.872209,2018-01-09 09:21:37.872209,SMAT,IMT,undergraduate,
185,20162035080,iroh-idumavictor@anymail.com,$2y$10$neUcXm/YSGdv1KkEuOvpj.vSZeXiGPIm4NVRvY5KGNFpQeLW59ndW,,2018-01-09 09:21:37.872209,2018-01-09 09:21:37.872209,SMAT,IMT,undergraduate,
186,20162035095,ezekorlauretta@anymail.com,$2y$10$neUcXm/YSGdv1KkEuOvpj.vSZeXiGPIm4NVRvY5KGNFpQeLW59ndW,,2018-01-09 09:21:37.872209,2018-01-09 09:21:37.872209,SMAT,IMT,undergraduate,
187,20163055005,osuagwuebuka@anymail.com,$2y$10$neUcXm/YSGdv1KkEuOvpj.vSZeXiGPIm4NVRvY5KGNFpQeLW59ndW,,2018-01-09 09:21:37.872209,2018-01-09 09:21:37.872209,SEET,MEE,undergraduate,
188,20163055020,oko-ucheokechukwug@anymail.com,$2y$10$neUcXm/YSGdv1KkEuOvpj.vSZeXiGPIm4NVRvY5KGNFpQeLW59ndW,,2018-01-09 09:21:37.872209,2018-01-09 09:21:37.872209,SEET,MEE,undergraduate,
189,20163055110,okerekederrick@anymail.com,$2y$10$neUcXm/YSGdv1KkEuOvpj.vSZeXiGPIm4NVRvY5KGNFpQeLW59ndW,,2018-01-09 09:21:37.872209,2018-01-09 09:21:37.872209,SEET,MEE,undergraduate,
190,20163055155,preciouscharles@anymail.com,$2y$10$neUcXm/YSGdv1KkEuOvpj.vSZeXiGPIm4NVRvY5KGNFpQeLW59ndW,,2018-01-09 09:21:37.872209,2018-01-09 09:21:37.872209,SEET,MEE,undergraduate,
191,20163055185,kemealagoaj@anymail.com,$2y$10$neUcXm/YSGdv1KkEuOvpj.vSZeXiGPIm4NVRvY5KGNFpQeLW59ndW,,2018-01-09 09:21:37.872209,2018-01-09 09:21:37.872209,SEET,MEE,undergraduate,
192,20161030005,maxwellprecious@anymail.com,$2y$10$neUcXm/YSGdv1KkEuOvpj.vSZeXiGPIm4NVRvY5KGNFpQeLW59ndW,,2018-01-09 09:21:37.872209,2018-01-09 09:21:37.872209,SOSC,MTH,undergraduate,
193,20161030035,nzeemmanuel@anymail.com,$2y$10$neUcXm/YSGdv1KkEuOvpj.vSZeXiGPIm4NVRvY5KGNFpQeLW59ndW,,2018-01-09 09:21:37.872209,2018-01-09 09:21:37.872209,SOSC,MTH,undergraduate,
194,20161030095,umunnaifesinachi@anymail.com,$2y$10$neUcXm/YSGdv1KkEuOvpj.vSZeXiGPIm4NVRvY5KGNFpQeLW59ndW,,2018-01-09 09:21:37.872209,2018-01-09 09:21:37.872209,SOSC,MTH,undergraduate,
195,20161030230,maduikejudith@anymail.com,$2y$10$neUcXm/YSGdv1KkEuOvpj.vSZeXiGPIm4NVRvY5KGNFpQeLW59ndW,,2018-01-09 09:21:37.872209,2018-01-09 09:21:37.872209,SOSC,MTH,undergraduate,
196,20161025155,obidoochinaemerem@anymail.com,$2y$10$neUcXm/YSGdv1KkEuOvpj.vSZeXiGPIm4NVRvY5KGNFpQeLW59ndW,,2018-01-09 09:21:37.872209,2018-01-09 09:21:37.872209,SOSC,PHY,undergraduate,
197,20161025275,nworuhgodwinner@anymail.com,$2y$10$neUcXm/YSGdv1KkEuOvpj.vSZeXiGPIm4NVRvY5KGNFpQeLW59ndW,,2018-01-09 09:21:37.872209,2018-01-09 09:21:37.872209,SOSC,PHY,undergraduate,
198,20161025290,ogechisolomon@anymail.com,$2y$10$neUcXm/YSGdv1KkEuOvpj.vSZeXiGPIm4NVRvY5KGNFpQeLW59ndW,,2018-01-09 09:21:37.872209,2018-01-09 09:21:37.872209,SOSC,PHY,undergraduate,
199,20162040005,amaugokindnessi@anymail.com,$2y$10$neUcXm/YSGdv1KkEuOvpj.vSZeXiGPIm4NVRvY5KGNFpQeLW59ndW,,2018-01-09 09:21:37.872209,2018-01-09 09:21:37.872209,SMAT,PMT,undergraduate,
200,20162040035,chibundukelechi@anymail.com,$2y$10$neUcXm/YSGdv1KkEuOvpj.vSZeXiGPIm4NVRvY5KGNFpQeLW59ndW,,2018-01-09 09:21:37.872209,2018-01-09 09:21:37.872209,SMAT,PMT,undergraduate,
201,20162040065,ihemhurudarlighton@anymail.com,$2y$10$neUcXm/YSGdv1KkEuOvpj.vSZeXiGPIm4NVRvY5KGNFpQeLW59ndW,,2018-01-09 09:21:37.872209,2018-01-09 09:21:37.872209,SMAT,PMT,undergraduate,
202,20162040110,nnalueanthony@anymail.com,$2y$10$neUcXm/YSGdv1KkEuOvpj.vSZeXiGPIm4NVRvY5KGNFpQeLW59ndW,,2018-01-09 09:21:37.872209,2018-01-09 09:21:37.872209,SMAT,PMT,undergraduate,
203,20162040125,uzoruchenna@anymail.com,$2y$10$neUcXm/YSGdv1KkEuOvpj.vSZeXiGPIm4NVRvY5KGNFpQeLW59ndW,,2018-01-09 09:21:37.872209,2018-01-09 09:21:37.872209,SMAT,PMT,undergraduate,
204,20151025185,ekwesiprince@anymail.com,$2y$10$neUcXm/YSGdv1KkEuOvpj.vSZeXiGPIm4NVRvY5KGNFpQeLW59ndW,,2018-01-09 09:21:37.872209,2018-01-09 09:21:37.872209,SOSC,PHY,undergraduate,
205,20153050350,ucherejoice@anymail.com,$2y$10$neUcXm/YSGdv1KkEuOvpj.vSZeXiGPIm4NVRvY5KGNFpQeLW59ndW,,2018-01-09 09:21:37.872209,2018-01-09 09:21:37.872209,SEET,CIE,undergraduate,
206,20153050335,eronduikechukwu@anymail.com,$2y$10$neUcXm/YSGdv1KkEuOvpj.vSZeXiGPIm4NVRvY5KGNFpQeLW59ndW,,2018-01-09 09:21:37.872209,2018-01-09 09:21:37.872209,SEET,CIE,undergraduate,
207,20153045320,jimnewmans@anymail.com,$2y$10$neUcXm/YSGdv1KkEuOvpj.vSZeXiGPIm4NVRvY5KGNFpQeLW59ndW,,2018-01-09 09:21:37.872209,2018-01-09 09:21:37.872209,SEET,CHE,undergraduate,
208,20153055305,ndukwenwokec@anymail.com,$2y$10$neUcXm/YSGdv1KkEuOvpj.vSZeXiGPIm4NVRvY5KGNFpQeLW59ndW,,2018-01-09 09:21:37.872209,2018-01-09 09:21:37.872209,SEET,MEE,undergraduate,
209,20153050290,enyiekekonjohna@anymail.com,$2y$10$neUcXm/YSGdv1KkEuOvpj.vSZeXiGPIm4NVRvY5KGNFpQeLW59ndW,,2018-01-09 09:21:37.872209,2018-01-09 09:21:37.872209,SEET,CIE,undergraduate,
210,20152040065,chinagoromchigozirimg@anymail.com,$2y$10$neUcXm/YSGdv1KkEuOvpj.vSZeXiGPIm4NVRvY5KGNFpQeLW59ndW,,2018-01-09 09:21:37.872209,2018-01-09 09:21:37.872209,SMAT,PMT,undergraduate,
211,20153055275,chinyereokonkwo@anymail.com,$2y$10$neUcXm/YSGdv1KkEuOvpj.vSZeXiGPIm4NVRvY5KGNFpQeLW59ndW,,2018-01-09 09:21:37.872209,2018-01-09 09:21:37.872209,SEET,MEE,undergraduate,
212,20153045260,nwokomadorcas@anymail.com,$2y$10$neUcXm/YSGdv1KkEuOvpj.vSZeXiGPIm4NVRvY5KGNFpQeLW59ndW,,2018-01-09 09:21:37.872209,2018-01-09 09:21:37.872209,SEET,CHE,undergraduate,
213,20153045245,akpomedeyerocko@anymail.com,$2y$10$neUcXm/YSGdv1KkEuOvpj.vSZeXiGPIm4NVRvY5KGNFpQeLW59ndW,,2018-01-09 09:21:37.872209,2018-01-09 09:21:37.872209,SEET,CHE,undergraduate,
214,20152035050,elendukahlanf@anymail.com,$2y$10$neUcXm/YSGdv1KkEuOvpj.vSZeXiGPIm4NVRvY5KGNFpQeLW59ndW,,2018-01-09 09:21:37.872209,2018-01-09 09:21:37.872209,SMAT,IMT,undergraduate,
215,20153055230,akhigbegodswillo@anymail.com,$2y$10$neUcXm/YSGdv1KkEuOvpj.vSZeXiGPIm4NVRvY5KGNFpQeLW59ndW,,2018-01-09 09:21:37.872209,2018-01-09 09:21:37.872209,SEET,MEE,undergraduate,
216,20151020170,nwachukwuadaeze@anymail.com,$2y$10$neUcXm/YSGdv1KkEuOvpj.vSZeXiGPIm4NVRvY5KGNFpQeLW59ndW,,2018-01-09 09:21:37.872209,2018-01-09 09:21:37.872209,SOSC,BIO,undergraduate,
217,20153045215,igwezedaniel@anymail.com,$2y$10$neUcXm/YSGdv1KkEuOvpj.vSZeXiGPIm4NVRvY5KGNFpQeLW59ndW,,2018-01-09 09:21:37.872209,2018-01-09 09:21:37.872209,SEET,CHE,undergraduate,
218,20153050200,ikechukwugodswill@anymail.com,$2y$10$neUcXm/YSGdv1KkEuOvpj.vSZeXiGPIm4NVRvY5KGNFpQeLW59ndW,,2018-01-09 09:21:37.872209,2018-01-09 09:21:37.872209,SEET,CIE,undergraduate,
219,20151025155,esomonuchidinma@anymail.com,$2y$10$neUcXm/YSGdv1KkEuOvpj.vSZeXiGPIm4NVRvY5KGNFpQeLW59ndW,,2018-01-09 09:21:37.872209,2018-01-09 09:21:37.872209,SOSC,PHY,undergraduate,
220,20151020140,eluwaemmanuel@anymail.com,$2y$10$neUcXm/YSGdv1KkEuOvpj.vSZeXiGPIm4NVRvY5KGNFpQeLW59ndW,,2018-01-09 09:21:37.872209,2018-01-09 09:21:37.872209,SOSC,BIO,undergraduate,
221,20153045185,ezeriohamaryjane@anymail.com,$2y$10$neUcXm/YSGdv1KkEuOvpj.vSZeXiGPIm4NVRvY5KGNFpQeLW59ndW,,2018-01-09 09:21:37.872209,2018-01-09 09:21:37.872209,SEET,CHE,undergraduate,
222,20153050170,egbomucheemmanuel@anymail.com,$2y$10$neUcXm/YSGdv1KkEuOvpj.vSZeXiGPIm4NVRvY5KGNFpQeLW59ndW,,2018-01-09 09:21:37.872209,2018-01-09 09:21:37.872209,SEET,CIE,undergraduate,
223,20153055155,uwakwejusticet@anymail.com,$2y$10$neUcXm/YSGdv1KkEuOvpj.vSZeXiGPIm4NVRvY5KGNFpQeLW59ndW,,2018-01-09 09:21:37.872209,2018-01-09 09:21:37.872209,SEET,MEE,undergraduate,
224,20153050140,okenagbafaiths@anymail.com,$2y$10$neUcXm/YSGdv1KkEuOvpj.vSZeXiGPIm4NVRvY5KGNFpQeLW59ndW,,2018-01-09 09:21:37.872209,2018-01-09 09:21:37.872209,SEET,CIE,undergraduate,
225,20151020125,okoliugochukwu@anymail.com,$2y$10$neUcXm/YSGdv1KkEuOvpj.vSZeXiGPIm4NVRvY5KGNFpQeLW59ndW,,2018-01-09 09:21:37.872209,2018-01-09 09:21:37.872209,SOSC,BIO,undergraduate,
226,20151020100,oliverchidera@anymail.com,$2y$10$neUcXm/YSGdv1KkEuOvpj.vSZeXiGPIm4NVRvY5KGNFpQeLW59ndW,,2018-01-09 09:21:37.872209,2018-01-09 09:21:37.872209,SOSC,BIO,undergraduate,
227,20151025095,umembaemmanuel@anymail.com,$2y$10$neUcXm/YSGdv1KkEuOvpj.vSZeXiGPIm4NVRvY5KGNFpQeLW59ndW,,2018-01-09 09:21:37.872209,2018-01-09 09:21:37.872209,SOSC,PHY,undergraduate,
228,20152035035,egwuatuchuka@anymail.com,$2y$10$neUcXm/YSGdv1KkEuOvpj.vSZeXiGPIm4NVRvY5KGNFpQeLW59ndW,,2018-01-09 09:21:37.872209,2018-01-09 09:21:37.872209,SMAT,IMT,undergraduate,
229,20153055125,ekekechinaza@anymail.com,$2y$10$neUcXm/YSGdv1KkEuOvpj.vSZeXiGPIm4NVRvY5KGNFpQeLW59ndW,,2018-01-09 09:21:37.872209,2018-01-09 09:21:37.872209,SEET,MEE,undergraduate,
230,20153045110,godwinmercye@anymail.com,$2y$10$neUcXm/YSGdv1KkEuOvpj.vSZeXiGPIm4NVRvY5KGNFpQeLW59ndW,,2018-01-09 09:21:37.872209,2018-01-09 09:21:37.872209,SEET,CHE,undergraduate,
231,20153045095,ekehgodwinm@anymail.com,$2y$10$neUcXm/YSGdv1KkEuOvpj.vSZeXiGPIm4NVRvY5KGNFpQeLW59ndW,,2018-01-09 09:21:37.872209,2018-01-09 09:21:37.872209,SEET,CHE,undergraduate,
232,20151015080,josephemmanuel@anymail.com,$2y$10$neUcXm/YSGdv1KkEuOvpj.vSZeXiGPIm4NVRvY5KGNFpQeLW59ndW,,2018-01-09 09:21:37.872209,2018-01-09 09:21:37.872209,SOSC,CHM,undergraduate,
233,20153055080,ahanekuezinne@anymail.com,$2y$10$neUcXm/YSGdv1KkEuOvpj.vSZeXiGPIm4NVRvY5KGNFpQeLW59ndW,,2018-01-09 09:21:37.872209,2018-01-09 09:21:37.872209,SEET,MEE,undergraduate,
234,20153050065,emoleonyinyechi@anymail.com,$2y$10$neUcXm/YSGdv1KkEuOvpj.vSZeXiGPIm4NVRvY5KGNFpQeLW59ndW,,2018-01-09 09:21:37.872209,2018-01-09 09:21:37.872209,SEET,CIE,undergraduate,
235,20153055050,danielseguisn@anymail.com,$2y$10$neUcXm/YSGdv1KkEuOvpj.vSZeXiGPIm4NVRvY5KGNFpQeLW59ndW,,2018-01-09 09:21:37.872209,2018-01-09 09:21:37.872209,SEET,MEE,undergraduate,
236,20152035020,nnamakajohne@anymail.com,$2y$10$neUcXm/YSGdv1KkEuOvpj.vSZeXiGPIm4NVRvY5KGNFpQeLW59ndW,,2018-01-09 09:21:37.872209,2018-01-09 09:21:37.872209,SMAT,IMT,undergraduate,
237,20153055035,mbachuchisomp@anymail.com,$2y$10$neUcXm/YSGdv1KkEuOvpj.vSZeXiGPIm4NVRvY5KGNFpQeLW59ndW,,2018-01-09 09:21:37.872209,2018-01-09 09:21:37.872209,SEET,MEE,undergraduate,
238,20151020065,azubuikechinwendu@anymail.com,$2y$10$neUcXm/YSGdv1KkEuOvpj.vSZeXiGPIm4NVRvY5KGNFpQeLW59ndW,,2018-01-09 09:21:37.872209,2018-01-09 09:21:37.872209,SOSC,BIO,undergraduate,
239,20152035005,adewolooluwasoore@anymail.com,$2y$10$neUcXm/YSGdv1KkEuOvpj.vSZeXiGPIm4NVRvY5KGNFpQeLW59ndW,,2018-01-09 09:21:37.872209,2018-01-09 09:21:37.872209,SMAT,IMT,undergraduate,
240,20151015050,ahamefulachiedozie@anymail.com,$2y$10$neUcXm/YSGdv1KkEuOvpj.vSZeXiGPIm4NVRvY5KGNFpQeLW59ndW,,2018-01-09 09:21:37.872209,2018-01-09 09:21:37.872209,SOSC,CHM,undergraduate,
241,20153045020,anyaerubachukwudi@anymail.com,$2y$10$neUcXm/YSGdv1KkEuOvpj.vSZeXiGPIm4NVRvY5KGNFpQeLW59ndW,,2018-01-09 09:21:37.872209,2018-01-09 09:21:37.872209,SEET,CHE,undergraduate,
242,20151015035,okekeamara@anymail.com,$2y$10$neUcXm/YSGdv1KkEuOvpj.vSZeXiGPIm4NVRvY5KGNFpQeLW59ndW,,2018-01-09 09:21:37.872209,2018-01-09 09:21:37.872209,SOSC,CHM,undergraduate,
243,20153055005,naabonracheal@anymail.com,$2y$10$neUcXm/YSGdv1KkEuOvpj.vSZeXiGPIm4NVRvY5KGNFpQeLW59ndW,,2018-01-09 09:21:37.872209,2018-01-09 09:21:37.872209,SEET,MEE,undergraduate,
244,20151020020,danemefon@anymail.com,$2y$10$neUcXm/YSGdv1KkEuOvpj.vSZeXiGPIm4NVRvY5KGNFpQeLW59ndW,,2018-01-09 09:21:37.872209,2018-01-09 09:21:37.872209,SOSC,BIO,undergraduate,
245,20151025005,obioramiraclet@anymail.com,$2y$10$neUcXm/YSGdv1KkEuOvpj.vSZeXiGPIm4NVRvY5KGNFpQeLW59ndW,,2018-01-09 09:21:37.872209,2018-01-09 09:21:37.872209,SOSC,PHY,undergraduate,
246,20143045200,igboginikam@anymail.com,$2y$10$neUcXm/YSGdv1KkEuOvpj.vSZeXiGPIm4NVRvY5KGNFpQeLW59ndW,,2018-01-09 09:21:37.872209,2018-01-09 09:21:37.872209,SEET,CHE,undergraduate,
247,20143055185,uchenkechinyere@anymail.com,$2y$10$neUcXm/YSGdv1KkEuOvpj.vSZeXiGPIm4NVRvY5KGNFpQeLW59ndW,,2018-01-09 09:21:37.872209,2018-01-09 09:21:37.872209,SEET,MEE,undergraduate,
248,20141025215,samuelawah@anymail.com,$2y$10$neUcXm/YSGdv1KkEuOvpj.vSZeXiGPIm4NVRvY5KGNFpQeLW59ndW,,2018-01-09 09:21:37.872209,2018-01-09 09:21:37.872209,SOSC,PHY,undergraduate,
249,20142040080,adelowooluwasoore@anymail.com,$2y$10$neUcXm/YSGdv1KkEuOvpj.vSZeXiGPIm4NVRvY5KGNFpQeLW59ndW,,2018-01-09 09:21:37.872209,2018-01-09 09:21:37.872209,SMAT,PMT,undergraduate,
250,20141030200,obujianaghac@anymail.com,$2y$10$neUcXm/YSGdv1KkEuOvpj.vSZeXiGPIm4NVRvY5KGNFpQeLW59ndW,,2018-01-09 09:21:37.872209,2018-01-09 09:21:37.872209,SOSC,MTH,undergraduate,
251,20141015185,chiechefugodianc@anymail.com,$2y$10$neUcXm/YSGdv1KkEuOvpj.vSZeXiGPIm4NVRvY5KGNFpQeLW59ndW,,2018-01-09 09:21:37.872209,2018-01-09 09:21:37.872209,SOSC,CHM,undergraduate,
252,20143055170,naabonrachaelz@anymail.com,$2y$10$neUcXm/YSGdv1KkEuOvpj.vSZeXiGPIm4NVRvY5KGNFpQeLW59ndW,,2018-01-09 09:21:37.872209,2018-01-09 09:21:37.872209,SEET,MEE,undergraduate,
253,20141030170,okaforchibuezec@anymail.com,$2y$10$neUcXm/YSGdv1KkEuOvpj.vSZeXiGPIm4NVRvY5KGNFpQeLW59ndW,,2018-01-09 09:21:37.872209,2018-01-09 09:21:37.872209,SOSC,MTH,undergraduate,
254,20143055155,eseericau@anymail.com,$2y$10$neUcXm/YSGdv1KkEuOvpj.vSZeXiGPIm4NVRvY5KGNFpQeLW59ndW,,2018-01-09 09:21:37.872209,2018-01-09 09:21:37.872209,SEET,MEE,undergraduate,
255,20141025155,odorpreciousc@anymail.com,$2y$10$neUcXm/YSGdv1KkEuOvpj.vSZeXiGPIm4NVRvY5KGNFpQeLW59ndW,,2018-01-09 09:21:37.872209,2018-01-09 09:21:37.872209,SOSC,PHY,undergraduate,
256,20141025140,akorinelson@anymail.com,$2y$10$neUcXm/YSGdv1KkEuOvpj.vSZeXiGPIm4NVRvY5KGNFpQeLW59ndW,,2018-01-09 09:21:37.872209,2018-01-09 09:21:37.872209,SOSC,PHY,undergraduate,
257,20141030125,amadipraiseo@anymail.com,$2y$10$neUcXm/YSGdv1KkEuOvpj.vSZeXiGPIm4NVRvY5KGNFpQeLW59ndW,,2018-01-09 09:21:37.872209,2018-01-09 09:21:37.872209,SOSC,MTH,undergraduate,
258,20142035065,godwingodvessela@anymail.com,$2y$10$neUcXm/YSGdv1KkEuOvpj.vSZeXiGPIm4NVRvY5KGNFpQeLW59ndW,,2018-01-09 09:21:37.872209,2018-01-09 09:21:37.872209,SMAT,IMT,undergraduate,
259,20143045140,uchennakelechi@anymail.com,$2y$10$neUcXm/YSGdv1KkEuOvpj.vSZeXiGPIm4NVRvY5KGNFpQeLW59ndW,,2018-01-09 09:21:37.872209,2018-01-09 09:21:37.872209,SEET,CHE,undergraduate,
260,20142040050,nwawiheanthonyp@anymail.com,$2y$10$neUcXm/YSGdv1KkEuOvpj.vSZeXiGPIm4NVRvY5KGNFpQeLW59ndW,,2018-01-09 09:21:37.872209,2018-01-09 09:21:37.872209,SMAT,PMT,undergraduate,
261,20143055125,kenechidukeo@anymail.com,$2y$10$neUcXm/YSGdv1KkEuOvpj.vSZeXiGPIm4NVRvY5KGNFpQeLW59ndW,,2018-01-09 09:21:37.872209,2018-01-09 09:21:37.872209,SEET,MEE,undergraduate,
262,20143055110,nwachukwurichard@anymail.com,$2y$10$neUcXm/YSGdv1KkEuOvpj.vSZeXiGPIm4NVRvY5KGNFpQeLW59ndW,,2018-01-09 09:21:37.872209,2018-01-09 09:21:37.872209,SEET,MEE,undergraduate,
263,20141030110,nwayanwufrederich@anymail.com,$2y$10$neUcXm/YSGdv1KkEuOvpj.vSZeXiGPIm4NVRvY5KGNFpQeLW59ndW,,2018-01-09 09:21:37.872209,2018-01-09 09:21:37.872209,SOSC,MTH,undergraduate,
264,20143055095,ohanachooziomachukwu@anymail.com,$2y$10$neUcXm/YSGdv1KkEuOvpj.vSZeXiGPIm4NVRvY5KGNFpQeLW59ndW,,2018-01-09 09:21:37.872209,2018-01-09 09:21:37.872209,SEET,MEE,undergraduate,
265,20142035035,orjisamuel@anymail.com,$2y$10$neUcXm/YSGdv1KkEuOvpj.vSZeXiGPIm4NVRvY5KGNFpQeLW59ndW,,2018-01-09 09:21:37.872209,2018-01-09 09:21:37.872209,SMAT,IMT,undergraduate,
266,20142035020,onwuzurikejoseph@anymail.com,$2y$10$neUcXm/YSGdv1KkEuOvpj.vSZeXiGPIm4NVRvY5KGNFpQeLW59ndW,,2018-01-09 09:21:37.872209,2018-01-09 09:21:37.872209,SMAT,IMT,undergraduate,
267,20143055080,omakablessingj@anymail.com,$2y$10$neUcXm/YSGdv1KkEuOvpj.vSZeXiGPIm4NVRvY5KGNFpQeLW59ndW,,2018-01-09 09:21:37.872209,2018-01-09 09:21:37.872209,SEET,MEE,undergraduate,
268,20141020095,njokuwisdomk@anymail.com,$2y$10$neUcXm/YSGdv1KkEuOvpj.vSZeXiGPIm4NVRvY5KGNFpQeLW59ndW,,2018-01-09 09:21:37.872209,2018-01-09 09:21:37.872209,SOSC,BIO,undergraduate,
269,20141025080,nworuhchristain@anymail.com,$2y$10$neUcXm/YSGdv1KkEuOvpj.vSZeXiGPIm4NVRvY5KGNFpQeLW59ndW,,2018-01-09 09:21:37.872209,2018-01-09 09:21:37.872209,SOSC,PHY,undergraduate,
270,20143050065,ogemdiadindu@anymail.com,$2y$10$neUcXm/YSGdv1KkEuOvpj.vSZeXiGPIm4NVRvY5KGNFpQeLW59ndW,,2018-01-09 09:21:37.872209,2018-01-09 09:21:37.872209,SEET,CIE,undergraduate,
271,20141025065,obasiemmanuel@anymail.com,$2y$10$neUcXm/YSGdv1KkEuOvpj.vSZeXiGPIm4NVRvY5KGNFpQeLW59ndW,,2018-01-09 09:21:37.872209,2018-01-09 09:21:37.872209,SOSC,PHY,undergraduate,
272,20143050050,ezechioma@anymail.com,$2y$10$neUcXm/YSGdv1KkEuOvpj.vSZeXiGPIm4NVRvY5KGNFpQeLW59ndW,,2018-01-09 09:21:37.872209,2018-01-09 09:21:37.872209,SEET,CIE,undergraduate,
273,20141025050,irokaprincewill@anymail.com,$2y$10$neUcXm/YSGdv1KkEuOvpj.vSZeXiGPIm4NVRvY5KGNFpQeLW59ndW,,2018-01-09 09:21:37.872209,2018-01-09 09:21:37.872209,SOSC,PHY,undergraduate,
274,20141020035,nwekestanley@anymail.com,$2y$10$neUcXm/YSGdv1KkEuOvpj.vSZeXiGPIm4NVRvY5KGNFpQeLW59ndW,,2018-01-09 09:21:37.872209,2018-01-09 09:21:37.872209,SOSC,BIO,undergraduate,
275,20143050035,chibundujoyce@anymail.com,$2y$10$neUcXm/YSGdv1KkEuOvpj.vSZeXiGPIm4NVRvY5KGNFpQeLW59ndW,,2018-01-09 09:21:37.872209,2018-01-09 09:21:37.872209,SEET,CIE,undergraduate,
276,20143045020,fakoredesodiq@anymail.com,$2y$10$neUcXm/YSGdv1KkEuOvpj.vSZeXiGPIm4NVRvY5KGNFpQeLW59ndW,,2018-01-09 09:21:37.872209,2018-01-09 09:21:37.872209,SEET,CHE,undergraduate,
277,20143045005,oziomaisrealc@anymail.com,$2y$10$neUcXm/YSGdv1KkEuOvpj.vSZeXiGPIm4NVRvY5KGNFpQeLW59ndW,,2018-01-09 09:21:37.872209,2018-01-09 09:21:37.872209,SEET,CHE,undergraduate,
278,20141025020,nwokeghandir@anymail.com,$2y$10$neUcXm/YSGdv1KkEuOvpj.vSZeXiGPIm4NVRvY5KGNFpQeLW59ndW,,2018-01-09 09:21:37.872209,2018-01-09 09:21:37.872209,SOSC,PHY,undergraduate,
279,20142035005,agochukwuruth@anymail.com,$2y$10$neUcXm/YSGdv1KkEuOvpj.vSZeXiGPIm4NVRvY5KGNFpQeLW59ndW,,2018-01-09 09:21:37.872209,2018-01-09 09:21:37.872209,SMAT,IMT,undergraduate,
280,20141030005,okorieonyedikachi@anymail.com,$2y$10$neUcXm/YSGdv1KkEuOvpj.vSZeXiGPIm4NVRvY5KGNFpQeLW59ndW,,2018-01-09 09:21:37.872209,2018-01-09 09:21:37.872209,SOSC,MTH,undergraduate,
281,20131030215,uzomamarvin@anymail.com,$2y$10$neUcXm/YSGdv1KkEuOvpj.vSZeXiGPIm4NVRvY5KGNFpQeLW59ndW,,2018-01-09 09:21:37.872209,2018-01-09 09:21:37.872209,SOSC,MTH,undergraduate,
282,20133050200,onyinyechipaule@anymail.com,$2y$10$neUcXm/YSGdv1KkEuOvpj.vSZeXiGPIm4NVRvY5KGNFpQeLW59ndW,,2018-01-09 09:21:37.872209,2018-01-09 09:21:37.872209,SEET,CIE,undergraduate,
283,20131015200,ikengaderrick@anymail.com,$2y$10$neUcXm/YSGdv1KkEuOvpj.vSZeXiGPIm4NVRvY5KGNFpQeLW59ndW,,2018-01-09 09:21:37.872209,2018-01-09 09:21:37.872209,SOSC,CHM,undergraduate,
284,20133050185,okereaforelvish@anymail.com,$2y$10$neUcXm/YSGdv1KkEuOvpj.vSZeXiGPIm4NVRvY5KGNFpQeLW59ndW,,2018-01-09 09:21:37.872209,2018-01-09 09:21:37.872209,SEET,CIE,undergraduate,
285,20133045170,izidehfortune@anymail.com,$2y$10$neUcXm/YSGdv1KkEuOvpj.vSZeXiGPIm4NVRvY5KGNFpQeLW59ndW,,2018-01-09 09:21:37.872209,2018-01-09 09:21:37.872209,SEET,CHE,undergraduate,
286,20133050155,ibechioma@anymail.com,$2y$10$neUcXm/YSGdv1KkEuOvpj.vSZeXiGPIm4NVRvY5KGNFpQeLW59ndW,,2018-01-09 09:21:37.872209,2018-01-09 09:21:37.872209,SEET,CIE,undergraduate,
287,20132040040,anipaulfredrickn@anymail.com,$2y$10$neUcXm/YSGdv1KkEuOvpj.vSZeXiGPIm4NVRvY5KGNFpQeLW59ndW,,2018-01-09 09:21:37.872209,2018-01-09 09:21:37.872209,SMAT,PMT,undergraduate,
288,20131030085,ejioguvictorc@anymail.com,$2y$10$neUcXm/YSGdv1KkEuOvpj.vSZeXiGPIm4NVRvY5KGNFpQeLW59ndW,,2018-01-09 09:21:37.872209,2018-01-09 09:21:37.872209,SOSC,MTH,undergraduate,
289,20132040010,okolintagodwin@anymail.com,$2y$10$neUcXm/YSGdv1KkEuOvpj.vSZeXiGPIm4NVRvY5KGNFpQeLW59ndW,,2018-01-09 09:21:37.872209,2018-01-09 09:21:37.872209,SMAT,PMT,undergraduate,
290,20132035095,oduleyeseun@anymail.com,$2y$10$neUcXm/YSGdv1KkEuOvpj.vSZeXiGPIm4NVRvY5KGNFpQeLW59ndW,,2018-01-09 09:21:37.872209,2018-01-09 09:21:37.872209,SMAT,IMT,undergraduate,
291,20131015070,ezegloria@anymail.com,$2y$10$neUcXm/YSGdv1KkEuOvpj.vSZeXiGPIm4NVRvY5KGNFpQeLW59ndW,,2018-01-09 09:21:37.872209,2018-01-09 09:21:37.872209,SOSC,CHM,undergraduate,
292,20132035080,chukwukaemmanuelo@anymail.com,$2y$10$neUcXm/YSGdv1KkEuOvpj.vSZeXiGPIm4NVRvY5KGNFpQeLW59ndW,,2018-01-09 09:21:37.872209,2018-01-09 09:21:37.872209,SMAT,IMT,undergraduate,
293,20131015155,chidozied@anymail.com,$2y$10$neUcXm/YSGdv1KkEuOvpj.vSZeXiGPIm4NVRvY5KGNFpQeLW59ndW,,2018-01-09 09:21:37.872209,2018-01-09 09:21:37.872209,SOSC,CHM,undergraduate,
294,20133055140,ezeofortobechukwuk@anymail.com,$2y$10$neUcXm/YSGdv1KkEuOvpj.vSZeXiGPIm4NVRvY5KGNFpQeLW59ndW,,2018-01-09 09:21:37.872209,2018-01-09 09:21:37.872209,SEET,MEE,undergraduate,
295,20133050125,diojilovethc@anymail.com,$2y$10$neUcXm/YSGdv1KkEuOvpj.vSZeXiGPIm4NVRvY5KGNFpQeLW59ndW,,2018-01-09 09:21:37.872209,2018-01-09 09:21:37.872209,SEET,CIE,undergraduate,
296,20133045110,irokadavid@anymail.com,$2y$10$neUcXm/YSGdv1KkEuOvpj.vSZeXiGPIm4NVRvY5KGNFpQeLW59ndW,,2018-01-09 09:21:37.872209,2018-01-09 09:21:37.872209,SEET,CHE,undergraduate,
297,20133055095,umannamdii@anymail.com,$2y$10$neUcXm/YSGdv1KkEuOvpj.vSZeXiGPIm4NVRvY5KGNFpQeLW59ndW,,2018-01-09 09:21:37.872209,2018-01-09 09:21:37.872209,SEET,MEE,undergraduate,
298,20133050080,amobivictoryo@anymail.com,$2y$10$neUcXm/YSGdv1KkEuOvpj.vSZeXiGPIm4NVRvY5KGNFpQeLW59ndW,,2018-01-09 09:21:37.872209,2018-01-09 09:21:37.872209,SEET,CIE,undergraduate,
299,20132040065,ohakachiamakas@anymail.com,$2y$10$neUcXm/YSGdv1KkEuOvpj.vSZeXiGPIm4NVRvY5KGNFpQeLW59ndW,,2018-01-09 09:21:37.872209,2018-01-09 09:21:37.872209,SMAT,PMT,undergraduate,
300,20131025140,ogwublessingn@anymail.com,$2y$10$neUcXm/YSGdv1KkEuOvpj.vSZeXiGPIm4NVRvY5KGNFpQeLW59ndW,,2018-01-09 09:21:37.872209,2018-01-09 09:21:37.872209,SOSC,PHY,undergraduate,
301,20133055065,afolabimarym@anymail.com,$2y$10$neUcXm/YSGdv1KkEuOvpj.vSZeXiGPIm4NVRvY5KGNFpQeLW59ndW,,2018-01-09 09:21:37.872209,2018-01-09 09:21:37.872209,SEET,MEE,undergraduate,
302,20131020125,chibuzorikechukwu@anymail.com,$2y$10$neUcXm/YSGdv1KkEuOvpj.vSZeXiGPIm4NVRvY5KGNFpQeLW59ndW,,2018-01-09 09:21:37.872209,2018-01-09 09:21:37.872209,SOSC,BIO,undergraduate,
303,20131015110,nwachukwufaithc@anymail.com,$2y$10$neUcXm/YSGdv1KkEuOvpj.vSZeXiGPIm4NVRvY5KGNFpQeLW59ndW,,2018-01-09 09:21:37.872209,2018-01-09 09:21:37.872209,SOSC,CHM,undergraduate,
304,20131030095,akubavictoro@anymail.com,$2y$10$neUcXm/YSGdv1KkEuOvpj.vSZeXiGPIm4NVRvY5KGNFpQeLW59ndW,,2018-01-09 09:21:37.872209,2018-01-09 09:21:37.872209,SOSC,MTH,undergraduate,
305,20133055050,adumadanielj@anymail.com,$2y$10$neUcXm/YSGdv1KkEuOvpj.vSZeXiGPIm4NVRvY5KGNFpQeLW59ndW,,2018-01-09 09:21:37.872209,2018-01-09 09:21:37.872209,SEET,MEE,undergraduate,
306,20132035050,franksolomonm@anymail.com,$2y$10$neUcXm/YSGdv1KkEuOvpj.vSZeXiGPIm4NVRvY5KGNFpQeLW59ndW,,2018-01-09 09:21:37.872209,2018-01-09 09:21:37.872209,SMAT,IMT,undergraduate,
307,20131025080,okorochiamakaq@anymail.com,$2y$10$neUcXm/YSGdv1KkEuOvpj.vSZeXiGPIm4NVRvY5KGNFpQeLW59ndW,,2018-01-09 09:21:37.872209,2018-01-09 09:21:37.872209,SOSC,PHY,undergraduate,
308,20131030065,innocentfelixk@anymail.com,$2y$10$neUcXm/YSGdv1KkEuOvpj.vSZeXiGPIm4NVRvY5KGNFpQeLW59ndW,,2018-01-09 09:21:37.872209,2018-01-09 09:21:37.872209,SOSC,MTH,undergraduate,
309,20131025050,edemekongsamuelm@anymail.com,$2y$10$neUcXm/YSGdv1KkEuOvpj.vSZeXiGPIm4NVRvY5KGNFpQeLW59ndW,,2018-01-09 09:21:37.872209,2018-01-09 09:21:37.872209,SOSC,PHY,undergraduate,
310,20131025035,ihemhuruchizobamp@anymail.com,$2y$10$neUcXm/YSGdv1KkEuOvpj.vSZeXiGPIm4NVRvY5KGNFpQeLW59ndW,,2018-01-09 09:21:37.872209,2018-01-09 09:21:37.872209,SOSC,PHY,undergraduate,
311,20132040035,nzeribegodfrey@anymail.com,$2y$10$neUcXm/YSGdv1KkEuOvpj.vSZeXiGPIm4NVRvY5KGNFpQeLW59ndW,,2018-01-09 09:21:37.872209,2018-01-09 09:21:37.872209,SMAT,PMT,undergraduate,
312,20132040025,hokuamachundim@anymail.com,$2y$10$neUcXm/YSGdv1KkEuOvpj.vSZeXiGPIm4NVRvY5KGNFpQeLW59ndW,,2018-01-09 09:21:37.872209,2018-01-09 09:21:37.872209,SMAT,PMT,undergraduate,
313,20133055035,dominicpreciousg@anymail.com,$2y$10$neUcXm/YSGdv1KkEuOvpj.vSZeXiGPIm4NVRvY5KGNFpQeLW59ndW,,2018-01-09 09:21:37.872209,2018-01-09 09:21:37.872209,SEET,MEE,undergraduate,
314,20133050020,oparaochachidozied@anymail.com,$2y$10$neUcXm/YSGdv1KkEuOvpj.vSZeXiGPIm4NVRvY5KGNFpQeLW59ndW,,2018-01-09 09:21:37.872209,2018-01-09 09:21:37.872209,SEET,CIE,undergraduate,
315,20131030020,nduvictoro@anymail.com,$2y$10$neUcXm/YSGdv1KkEuOvpj.vSZeXiGPIm4NVRvY5KGNFpQeLW59ndW,,2018-01-09 09:21:37.872209,2018-01-09 09:21:37.872209,SOSC,MTH,undergraduate,
316,20132040015,adubisundayo@anymail.com,$2y$10$neUcXm/YSGdv1KkEuOvpj.vSZeXiGPIm4NVRvY5KGNFpQeLW59ndW,,2018-01-09 09:21:37.872209,2018-01-09 09:21:37.872209,SMAT,PMT,undergraduate,
317,20132040005,ezekennetho@anymail.com,$2y$10$neUcXm/YSGdv1KkEuOvpj.vSZeXiGPIm4NVRvY5KGNFpQeLW59ndW,,2018-01-09 09:21:37.872209,2018-01-09 09:21:37.872209,SMAT,PMT,undergraduate,
318,20133055005,nduovictor@gmail.com,$2y$10$neUcXm/YSGdv1KkEuOvpj.vSZeXiGPIm4NVRvY5KGNFpQeLW59ndW,,2018-01-09 09:21:37.872209,2018-01-09 09:21:37.872209,SEET,MEE,undergraduate,
319,20131025005,nkwoparamaryc@anymail.com,$2y$10$neUcXm/YSGdv1KkEuOvpj.vSZeXiGPIm4NVRvY5KGNFpQeLW59ndW,,2018-01-09 09:21:37.872209,2018-01-09 09:21:37.872209,SOSC,PHY,undergraduate,
320,reginald,reginald@newmail.com,$2y$10$neUcXm/YSGdv1KkEuOvpj.vSZeXiGPIm4NVRvY5KGNFpQeLW59ndW,,2018-01-09 09:21:37.872209,2018-01-09 09:21:37.872209,,,guardian,
321,selina,selina@newmail.com,$2y$10$neUcXm/YSGdv1KkEuOvpj.vSZeXiGPIm4NVRvY5KGNFpQeLW59ndW,,2018-01-09 09:21:37.872209,2018-01-09 09:21:37.872209,,,guardian,
322,solomon,solomon@newmail.com,$2y$10$neUcXm/YSGdv1KkEuOvpj.vSZeXiGPIm4NVRvY5KGNFpQeLW59ndW,,2018-01-09 09:21:37.872209,2018-01-09 09:21:37.872209,,,guardian,
323,nneka,nneka@newmail.com,$2y$10$neUcXm/YSGdv1KkEuOvpj.vSZeXiGPIm4NVRvY5KGNFpQeLW59ndW,,2018-01-09 09:21:37.872209,2018-01-09 09:21:37.872209,,,guardian,
324,olagoke,olagoke@newmail.com,$2y$10$neUcXm/YSGdv1KkEuOvpj.vSZeXiGPIm4NVRvY5KGNFpQeLW59ndW,,2018-01-09 09:21:37.872209,2018-01-09 09:21:37.872209,,,guardian,
325,olayinka,olayinka@newmail.com,$2y$10$neUcXm/YSGdv1KkEuOvpj.vSZeXiGPIm4NVRvY5KGNFpQeLW59ndW,,2018-01-09 09:21:37.872209,2018-01-09 09:21:37.872209,,,guardian,
326,samuel,samuel@newmail.com,$2y$10$neUcXm/YSGdv1KkEuOvpj.vSZeXiGPIm4NVRvY5KGNFpQeLW59ndW,,2018-01-09 09:21:37.872209,2018-01-09 09:21:37.872209,,,guardian,
327,gladys,gladys@newmail.com,$2y$10$neUcXm/YSGdv1KkEuOvpj.vSZeXiGPIm4NVRvY5KGNFpQeLW59ndW,,2018-01-09 09:21:37.872209,2018-01-09 09:21:37.872209,,,guardian,
328,humphrey,humphrey@newmail.com,$2y$10$neUcXm/YSGdv1KkEuOvpj.vSZeXiGPIm4NVRvY5KGNFpQeLW59ndW,,2018-01-09 09:21:37.872209,2018-01-09 09:21:37.872209,,,guardian,
329,john,john@newmail.com,$2y$10$neUcXm/YSGdv1KkEuOvpj.vSZeXiGPIm4NVRvY5KGNFpQeLW59ndW,,2018-01-09 09:21:37.872209,2018-01-09 09:21:37.872209,,,guardian,
330,ogechi,ogechi@newmail.com,$2y$10$neUcXm/YSGdv1KkEuOvpj.vSZeXiGPIm4NVRvY5KGNFpQeLW59ndW,,2018-01-09 09:21:37.872209,2018-01-09 09:21:37.872209,,,guardian,
331,charles,charles@newmail.com,$2y$10$neUcXm/YSGdv1KkEuOvpj.vSZeXiGPIm4NVRvY5KGNFpQeLW59ndW,,2018-01-09 09:21:37.872209,2018-01-09 09:21:37.872209,,,guardian,
332,chinyere,chinyere@newmail.com,$2y$10$neUcXm/YSGdv1KkEuOvpj.vSZeXiGPIm4NVRvY5KGNFpQeLW59ndW,,2018-01-09 09:21:37.872209,2018-01-09 09:21:37.872209,,,guardian,
333,christopher,christopher@newmail.com,$2y$10$neUcXm/YSGdv1KkEuOvpj.vSZeXiGPIm4NVRvY5KGNFpQeLW59ndW,,2018-01-09 09:21:37.872209,2018-01-09 09:21:37.872209,,,guardian,
334,godsent,godsent@newmail.com,$2y$10$neUcXm/YSGdv1KkEuOvpj.vSZeXiGPIm4NVRvY5KGNFpQeLW59ndW,,2018-01-09 09:21:37.872209,2018-01-09 09:21:37.872209,,,guardian,
335,adedeji ,adedeji @newmail.com,$2y$10$neUcXm/YSGdv1KkEuOvpj.vSZeXiGPIm4NVRvY5KGNFpQeLW59ndW,,2018-01-09 09:21:37.872209,2018-01-09 09:21:37.872209,,,guardian,
336,adeyemi,adeyemi@newmail.com,$2y$10$neUcXm/YSGdv1KkEuOvpj.vSZeXiGPIm4NVRvY5KGNFpQeLW59ndW,,2018-01-09 09:21:37.872209,2018-01-09 09:21:37.872209,,,guardian,
337,albert,albert@newmail.com,$2y$10$neUcXm/YSGdv1KkEuOvpj.vSZeXiGPIm4NVRvY5KGNFpQeLW59ndW,,2018-01-09 09:21:37.872209,2018-01-09 09:21:37.872209,,,guardian,
338,chibundo,chibundo@newmail.com,$2y$10$neUcXm/YSGdv1KkEuOvpj.vSZeXiGPIm4NVRvY5KGNFpQeLW59ndW,,2018-01-09 09:21:37.872209,2018-01-09 09:21:37.872209,,,guardian,
339,adekola,adekola@newmail.com,$2y$10$neUcXm/YSGdv1KkEuOvpj.vSZeXiGPIm4NVRvY5KGNFpQeLW59ndW,,2018-01-09 09:21:37.872209,2018-01-09 09:21:37.872209,,,guardian,
340,okechukwu,okechukwu@newmail.com,$2y$10$neUcXm/YSGdv1KkEuOvpj.vSZeXiGPIm4NVRvY5KGNFpQeLW59ndW,,2018-01-09 09:21:37.872209,2018-01-09 09:21:37.872209,,,guardian,
341,henry,henry@newmail.com,$2y$10$neUcXm/YSGdv1KkEuOvpj.vSZeXiGPIm4NVRvY5KGNFpQeLW59ndW,,2018-01-09 09:21:37.872209,2018-01-09 09:21:37.872209,,,guardian,
342,chima,chima@newmail.com,$2y$10$neUcXm/YSGdv1KkEuOvpj.vSZeXiGPIm4NVRvY5KGNFpQeLW59ndW,,2018-01-09 09:21:37.872209,2018-01-09 09:21:37.872209,,,guardian,
343,adeola,adeola@newmail.com,$2y$10$neUcXm/YSGdv1KkEuOvpj.vSZeXiGPIm4NVRvY5KGNFpQeLW59ndW,,2018-01-09 09:21:37.872209,2018-01-09 09:21:37.872209,,,guardian,
344,yahaya,yahaya@newmail.com,$2y$10$neUcXm/YSGdv1KkEuOvpj.vSZeXiGPIm4NVRvY5KGNFpQeLW59ndW,,2018-01-09 09:21:37.872209,2018-01-09 09:21:37.872209,,,guardian,
345,rasaaq,rasaaq@newmail.com,$2y$10$neUcXm/YSGdv1KkEuOvpj.vSZeXiGPIm4NVRvY5KGNFpQeLW59ndW,,2018-01-09 09:21:37.872209,2018-01-09 09:21:37.872209,,,guardian,
346,petronilla,petronilla@newmail.com,$2y$10$neUcXm/YSGdv1KkEuOvpj.vSZeXiGPIm4NVRvY5KGNFpQeLW59ndW,,2018-01-09 09:21:37.872209,2018-01-09 09:21:37.872209,,,guardian,
347,nancy,nancy@newmail.com,$2y$10$neUcXm/YSGdv1KkEuOvpj.vSZeXiGPIm4NVRvY5KGNFpQeLW59ndW,,2018-01-09 09:21:37.872209,2018-01-09 09:21:37.872209,,,guardian,
348,mudasiru,mudasiru@newmail.com,$2y$10$neUcXm/YSGdv1KkEuOvpj.vSZeXiGPIm4NVRvY5KGNFpQeLW59ndW,,2018-01-09 09:21:37.872209,2018-01-09 09:21:37.872209,,,guardian,
349,ginika,ginika@newmail.com,$2y$10$neUcXm/YSGdv1KkEuOvpj.vSZeXiGPIm4NVRvY5KGNFpQeLW59ndW,,2018-01-09 09:21:37.872209,2018-01-09 09:21:37.872209,,,guardian,
350,fidelia,fidelia@newmail.com,$2y$10$neUcXm/YSGdv1KkEuOvpj.vSZeXiGPIm4NVRvY5KGNFpQeLW59ndW,,2018-01-09 09:21:37.872209,2018-01-09 09:21:37.872209,,,guardian,
351,caleb,caleb@newmail.com,$2y$10$neUcXm/YSGdv1KkEuOvpj.vSZeXiGPIm4NVRvY5KGNFpQeLW59ndW,,2018-01-09 09:21:37.872209,2018-01-09 09:21:37.872209,,,guardian,
352,basden,basden@newmail.com,$2y$10$neUcXm/YSGdv1KkEuOvpj.vSZeXiGPIm4NVRvY5KGNFpQeLW59ndW,,2018-01-09 09:21:37.872209,2018-01-09 09:21:37.872209,,,guardian,
353,abiodun,abiodun@newmail.com,$2y$10$neUcXm/YSGdv1KkEuOvpj.vSZeXiGPIm4NVRvY5KGNFpQeLW59ndW,,2018-01-09 09:21:37.872209,2018-01-09 09:21:37.872209,,,guardian,
354,raphael,raphael@newmail.com,$2y$10$neUcXm/YSGdv1KkEuOvpj.vSZeXiGPIm4NVRvY5KGNFpQeLW59ndW,,2018-01-09 09:21:37.872209,2018-01-09 09:21:37.872209,,,guardian,
355,uvie,uvie@newmail.com,$2y$10$neUcXm/YSGdv1KkEuOvpj.vSZeXiGPIm4NVRvY5KGNFpQeLW59ndW,,2018-01-09 09:21:37.872209,2018-01-09 09:21:37.872209,,,guardian,
356,vincent,vincent@newmail.com,$2y$10$neUcXm/YSGdv1KkEuOvpj.vSZeXiGPIm4NVRvY5KGNFpQeLW59ndW,,2018-01-09 09:21:37.872209,2018-01-09 09:21:37.872209,,,guardian,
357,mustafa,mustafa@newmail.com,$2y$10$neUcXm/YSGdv1KkEuOvpj.vSZeXiGPIm4NVRvY5KGNFpQeLW59ndW,,2018-01-09 09:21:37.872209,2018-01-09 09:21:37.872209,,,guardian,
358,osaretin,osaretin@newmail.com,$2y$10$neUcXm/YSGdv1KkEuOvpj.vSZeXiGPIm4NVRvY5KGNFpQeLW59ndW,,2018-01-09 09:21:37.872209,2018-01-09 09:21:37.872209,,,guardian,
359,patience,patience@newmail.com,$2y$10$neUcXm/YSGdv1KkEuOvpj.vSZeXiGPIm4NVRvY5KGNFpQeLW59ndW,,2018-01-09 09:21:37.872209,2018-01-09 09:21:37.872209,,,guardian,
360,gandhi,gandhi@newmail.com,$2y$10$neUcXm/YSGdv1KkEuOvpj.vSZeXiGPIm4NVRvY5KGNFpQeLW59ndW,,2018-01-09 09:21:37.872209,2018-01-09 09:21:37.872209,,,guardian,
361,martin,martin@newmail.com,$2y$10$neUcXm/YSGdv1KkEuOvpj.vSZeXiGPIm4NVRvY5KGNFpQeLW59ndW,,2018-01-09 09:21:37.872209,2018-01-09 09:21:37.872209,,,guardian,
362,michael,michael@newmail.com,$2y$10$neUcXm/YSGdv1KkEuOvpj.vSZeXiGPIm4NVRvY5KGNFpQeLW59ndW,,2018-01-09 09:21:37.872209,2018-01-09 09:21:37.872209,,,guardian,
363,benedict,benedict@newmail.com,$2y$10$neUcXm/YSGdv1KkEuOvpj.vSZeXiGPIm4NVRvY5KGNFpQeLW59ndW,,2018-01-09 09:21:37.872209,2018-01-09 09:21:37.872209,,,guardian,
364,ebenezer,ebenezer@newmail.com,$2y$10$neUcXm/YSGdv1KkEuOvpj.vSZeXiGPIm4NVRvY5KGNFpQeLW59ndW,,2018-01-09 09:21:37.872209,2018-01-09 09:21:37.872209,,,guardian,
365,esther,esther@newmail.com,$2y$10$neUcXm/YSGdv1KkEuOvpj.vSZeXiGPIm4NVRvY5KGNFpQeLW59ndW,,2018-01-09 09:21:37.872209,2018-01-09 09:21:37.872209,,,guardian,
366,austin,austin@newmail.com,$2y$10$neUcXm/YSGdv1KkEuOvpj.vSZeXiGPIm4NVRvY5KGNFpQeLW59ndW,,2018-01-09 09:21:37.872209,2018-01-09 09:21:37.872209,,,guardian,
367,balarabe ,balarabe @newmail.com,$2y$10$neUcXm/YSGdv1KkEuOvpj.vSZeXiGPIm4NVRvY5KGNFpQeLW59ndW,,2018-01-09 09:21:37.872209,2018-01-09 09:21:37.872209,,,guardian,
368,sunday,sunday@newmail.com,$2y$10$neUcXm/YSGdv1KkEuOvpj.vSZeXiGPIm4NVRvY5KGNFpQeLW59ndW,,2018-01-09 09:21:37.872209,2018-01-09 09:21:37.872209,,,guardian,
369,oluranti,oluranti@newmail.com,$2y$10$neUcXm/YSGdv1KkEuOvpj.vSZeXiGPIm4NVRvY5KGNFpQeLW59ndW,,2018-01-09 09:21:37.872209,2018-01-09 09:21:37.872209,,,guardian,
370,macleans,macleans@newmail.com,$2y$10$neUcXm/YSGdv1KkEuOvpj.vSZeXiGPIm4NVRvY5KGNFpQeLW59ndW,,2018-01-09 09:21:37.872209,2018-01-09 09:21:37.872209,,,guardian,
371,clement,clement@newmail.com,$2y$10$neUcXm/YSGdv1KkEuOvpj.vSZeXiGPIm4NVRvY5KGNFpQeLW59ndW,,2018-01-09 09:21:37.872209,2018-01-09 09:21:37.872209,,,guardian,
372,angela,angela@newmail.com,$2y$10$neUcXm/YSGdv1KkEuOvpj.vSZeXiGPIm4NVRvY5KGNFpQeLW59ndW,,2018-01-09 09:21:37.872209,2018-01-09 09:21:37.872209,,,guardian,
373,umar g,umar g@newmail.com,$2y$10$neUcXm/YSGdv1KkEuOvpj.vSZeXiGPIm4NVRvY5KGNFpQeLW59ndW,,2018-01-09 09:21:37.872209,2018-01-09 09:21:37.872209,,,guardian,
374,oluwole,oluwole@newmail.com,$2y$10$neUcXm/YSGdv1KkEuOvpj.vSZeXiGPIm4NVRvY5KGNFpQeLW59ndW,,2018-01-09 09:21:37.872209,2018-01-09 09:21:37.872209,,,guardian,
375,mahmoud,mahmoud@newmail.com,$2y$10$neUcXm/YSGdv1KkEuOvpj.vSZeXiGPIm4NVRvY5KGNFpQeLW59ndW,,2018-01-09 09:21:37.872209,2018-01-09 09:21:37.872209,,,guardian,
376,doris,doris@newmail.com,$2y$10$neUcXm/YSGdv1KkEuOvpj.vSZeXiGPIm4NVRvY5KGNFpQeLW59ndW,,2018-01-09 09:21:37.872209,2018-01-09 09:21:37.872209,,,guardian,
377,anthony,anthony@newmail.com,$2y$10$neUcXm/YSGdv1KkEuOvpj.vSZeXiGPIm4NVRvY5KGNFpQeLW59ndW,,2018-01-09 09:21:37.872209,2018-01-09 09:21:37.872209,,,guardian,
378,philip,philip@newmail.com,$2y$10$neUcXm/YSGdv1KkEuOvpj.vSZeXiGPIm4NVRvY5KGNFpQeLW59ndW,,2018-01-09 09:21:37.872209,2018-01-09 09:21:37.872209,,,guardian,
379,muhammad,muhammad@newmail.com,$2y$10$neUcXm/YSGdv1KkEuOvpj.vSZeXiGPIm4NVRvY5KGNFpQeLW59ndW,,2018-01-09 09:21:37.872209,2018-01-09 09:21:37.872209,,,guardian,
380,folashade,folashade@newmail.com,$2y$10$neUcXm/YSGdv1KkEuOvpj.vSZeXiGPIm4NVRvY5KGNFpQeLW59ndW,,2018-01-09 09:21:37.872209,2018-01-09 09:21:37.872209,,,guardian,
381,basil,basil@newmail.com,$2y$10$neUcXm/YSGdv1KkEuOvpj.vSZeXiGPIm4NVRvY5KGNFpQeLW59ndW,,2018-01-09 09:21:37.872209,2018-01-09 09:21:37.872209,,,guardian,
382,tochukwu,tochukwu@newmail.com,$2y$10$neUcXm/YSGdv1KkEuOvpj.vSZeXiGPIm4NVRvY5KGNFpQeLW59ndW,,2018-01-09 09:21:37.872209,2018-01-09 09:21:37.872209,,,guardian,
383,oluwafunke,oluwafunke@newmail.com,$2y$10$neUcXm/YSGdv1KkEuOvpj.vSZeXiGPIm4NVRvY5KGNFpQeLW59ndW,,2018-01-09 09:21:37.872209,2018-01-09 09:21:37.872209,,,guardian,
384,madubueze,madubueze@newmail.com,$2y$10$neUcXm/YSGdv1KkEuOvpj.vSZeXiGPIm4NVRvY5KGNFpQeLW59ndW,,2018-01-09 09:21:37.872209,2018-01-09 09:21:37.872209,,,guardian,
385,dike,dike@newmail.com,$2y$10$neUcXm/YSGdv1KkEuOvpj.vSZeXiGPIm4NVRvY5KGNFpQeLW59ndW,,2018-01-09 09:21:37.872209,2018-01-09 09:21:37.872209,,,guardian,
386,anthonia,anthonia@newmail.com,$2y$10$neUcXm/YSGdv1KkEuOvpj.vSZeXiGPIm4NVRvY5KGNFpQeLW59ndW,,2018-01-09 09:21:37.872209,2018-01-09 09:21:37.872209,,,guardian,
387,victor,victor@newmail.com,$2y$10$neUcXm/YSGdv1KkEuOvpj.vSZeXiGPIm4NVRvY5KGNFpQeLW59ndW,,2018-01-09 09:21:37.872209,2018-01-09 09:21:37.872209,,,guardian,
388,pascal,pascal@newmail.com,$2y$10$neUcXm/YSGdv1KkEuOvpj.vSZeXiGPIm4NVRvY5KGNFpQeLW59ndW,,2018-01-09 09:21:37.872209,2018-01-09 09:21:37.872209,,,guardian,
389,matthew,matthew@newmail.com,$2y$10$neUcXm/YSGdv1KkEuOvpj.vSZeXiGPIm4NVRvY5KGNFpQeLW59ndW,,2018-01-09 09:21:37.872209,2018-01-09 09:21:37.872209,,,guardian,
390,emmanuel,emmanuel@newmail.com,$2y$10$neUcXm/YSGdv1KkEuOvpj.vSZeXiGPIm4NVRvY5KGNFpQeLW59ndW,,2018-01-09 09:21:37.872209,2018-01-09 09:21:37.872209,,,guardian,
391,ayodele,ayodele@newmail.com,$2y$10$neUcXm/YSGdv1KkEuOvpj.vSZeXiGPIm4NVRvY5KGNFpQeLW59ndW,,2018-01-09 09:21:37.872209,2018-01-09 09:21:37.872209,,,guardian,
392,wilson,wilson@newmail.com,$2y$10$neUcXm/YSGdv1KkEuOvpj.vSZeXiGPIm4NVRvY5KGNFpQeLW59ndW,,2018-01-09 09:21:37.872209,2018-01-09 09:21:37.872209,,,guardian,
393,peter,peter@newmail.com,$2y$10$neUcXm/YSGdv1KkEuOvpj.vSZeXiGPIm4NVRvY5KGNFpQeLW59ndW,,2018-01-09 09:21:37.872209,2018-01-09 09:21:37.872209,,,guardian,
394,mohammed,mohammed@newmail.com,$2y$10$neUcXm/YSGdv1KkEuOvpj.vSZeXiGPIm4NVRvY5KGNFpQeLW59ndW,,2018-01-09 09:21:37.872209,2018-01-09 09:21:37.872209,,,guardian,
395,evelyn,evelyn@newmail.com,$2y$10$neUcXm/YSGdv1KkEuOvpj.vSZeXiGPIm4NVRvY5KGNFpQeLW59ndW,,2018-01-09 09:21:37.872209,2018-01-09 09:21:37.872209,,,guardian,
396,barbara,barbara@newmail.com,$2y$10$neUcXm/YSGdv1KkEuOvpj.vSZeXiGPIm4NVRvY5KGNFpQeLW59ndW,,2018-01-09 09:21:37.872209,2018-01-09 09:21:37.872209,,,guardian,
397,stanley,stanley@newmail.com,$2y$10$neUcXm/YSGdv1KkEuOvpj.vSZeXiGPIm4NVRvY5KGNFpQeLW59ndW,,2018-01-09 09:21:37.872209,2018-01-09 09:21:37.872209,,,guardian,
398,olukemi,olukemi@newmail.com,$2y$10$neUcXm/YSGdv1KkEuOvpj.vSZeXiGPIm4NVRvY5KGNFpQeLW59ndW,,2018-01-09 09:21:37.872209,2018-01-09 09:21:37.872209,,,guardian,
399,kamilu,kamilu@newmail.com,$2y$10$neUcXm/YSGdv1KkEuOvpj.vSZeXiGPIm4NVRvY5KGNFpQeLW59ndW,,2018-01-09 09:21:37.872209,2018-01-09 09:21:37.872209,,,guardian,
400,ciroma,ciroma@newmail.com,$2y$10$neUcXm/YSGdv1KkEuOvpj.vSZeXiGPIm4NVRvY5KGNFpQeLW59ndW,,2018-01-09 09:21:37.872209,2018-01-09 09:21:37.872209,,,guardian,
401,andrew,andrew@newmail.com,$2y$10$neUcXm/YSGdv1KkEuOvpj.vSZeXiGPIm4NVRvY5KGNFpQeLW59ndW,,2018-01-09 09:21:37.872209,2018-01-09 09:21:37.872209,,,guardian,
402,20181020050,ibeawuchiekpe@newmail.com,$2y$10$neUcXm/YSGdv1KkEuOvpj.vSZeXiGPIm4NVRvY5KGNFpQeLW59ndW,,2018-01-09 09:21:37.872209,2018-01-09 09:21:37.872209,SOSC,BIO,undergraduate,
403,20181020065,temitopeolabode@newmail.com,$2y$10$neUcXm/YSGdv1KkEuOvpj.vSZeXiGPIm4NVRvY5KGNFpQeLW59ndW,,2018-01-09 09:21:37.872209,2018-01-09 09:21:37.872209,SOSC,BIO,undergraduate,
404,20181020125,abiola olabisi@newmail.com,$2y$10$neUcXm/YSGdv1KkEuOvpj.vSZeXiGPIm4NVRvY5KGNFpQeLW59ndW,,2018-01-09 09:21:37.872209,2018-01-09 09:21:37.872209,SOSC,BIO,undergraduate,
405,20181020170,adeyipeter@newmail.com,$2y$10$neUcXm/YSGdv1KkEuOvpj.vSZeXiGPIm4NVRvY5KGNFpQeLW59ndW,,2018-01-09 09:21:37.872209,2018-01-09 09:21:37.872209,SOSC,BIO,undergraduate,
406,20181020185,alaotaiwo@newmail.com,$2y$10$neUcXm/YSGdv1KkEuOvpj.vSZeXiGPIm4NVRvY5KGNFpQeLW59ndW,,2018-01-09 09:21:37.872209,2018-01-09 09:21:37.872209,SOSC,BIO,undergraduate,
407,20181020200,jibrinsunday@newmail.com,$2y$10$neUcXm/YSGdv1KkEuOvpj.vSZeXiGPIm4NVRvY5KGNFpQeLW59ndW,,2018-01-09 09:21:37.872209,2018-01-09 09:21:37.872209,SOSC,BIO,undergraduate,
408,20181020215,toryilasolomon@newmail.com,$2y$10$neUcXm/YSGdv1KkEuOvpj.vSZeXiGPIm4NVRvY5KGNFpQeLW59ndW,,2018-01-09 09:21:37.872209,2018-01-09 09:21:37.872209,SOSC,BIO,undergraduate,
409,20181020260,idiahirievelyn@newmail.com,$2y$10$neUcXm/YSGdv1KkEuOvpj.vSZeXiGPIm4NVRvY5KGNFpQeLW59ndW,,2018-01-09 09:21:37.872209,2018-01-09 09:21:37.872209,SOSC,BIO,undergraduate,
410,20183045050,chiemekaemmanuel@newmail.com,$2y$10$neUcXm/YSGdv1KkEuOvpj.vSZeXiGPIm4NVRvY5KGNFpQeLW59ndW,,2018-01-09 09:21:37.872209,2018-01-09 09:21:37.872209,SEET,CHE,undergraduate,
411,20183045065,ejoradams@newmail.com,$2y$10$neUcXm/YSGdv1KkEuOvpj.vSZeXiGPIm4NVRvY5KGNFpQeLW59ndW,,2018-01-09 09:21:37.872209,2018-01-09 09:21:37.872209,SEET,CHE,undergraduate,
412,20183045095,onwukaijeoma@newmail.com,$2y$10$neUcXm/YSGdv1KkEuOvpj.vSZeXiGPIm4NVRvY5KGNFpQeLW59ndW,,2018-01-09 09:21:37.872209,2018-01-09 09:21:37.872209,SEET,CHE,undergraduate,
413,20183045125,stephentemitope@newmail.com,$2y$10$neUcXm/YSGdv1KkEuOvpj.vSZeXiGPIm4NVRvY5KGNFpQeLW59ndW,,2018-01-09 09:21:37.872209,2018-01-09 09:21:37.872209,SEET,CHE,undergraduate,
414,20183045200,onojayefesampson@newmail.com,$2y$10$neUcXm/YSGdv1KkEuOvpj.vSZeXiGPIm4NVRvY5KGNFpQeLW59ndW,,2018-01-09 09:21:37.872209,2018-01-09 09:21:37.872209,SEET,CHE,undergraduate,
415,20183045230,kehindeomolola@newmail.com,$2y$10$neUcXm/YSGdv1KkEuOvpj.vSZeXiGPIm4NVRvY5KGNFpQeLW59ndW,,2018-01-09 09:21:37.872209,2018-01-09 09:21:37.872209,SEET,CHE,undergraduate,
416,20181015020,danielolagoke@newmail.com,$2y$10$neUcXm/YSGdv1KkEuOvpj.vSZeXiGPIm4NVRvY5KGNFpQeLW59ndW,,2018-01-09 09:21:37.872209,2018-01-09 09:21:37.872209,SOSC,CHM,undergraduate,
417,20181015080,ukehchidi@newmail.com,$2y$10$neUcXm/YSGdv1KkEuOvpj.vSZeXiGPIm4NVRvY5KGNFpQeLW59ndW,,2018-01-09 09:21:37.872209,2018-01-09 09:21:37.872209,SOSC,CHM,undergraduate,
418,20181015110,fadeyicomfort@newmail.com,$2y$10$neUcXm/YSGdv1KkEuOvpj.vSZeXiGPIm4NVRvY5KGNFpQeLW59ndW,,2018-01-09 09:21:37.872209,2018-01-09 09:21:37.872209,SOSC,CHM,undergraduate,
419,20181015140,gbaderohezekiah@newmail.com,$2y$10$neUcXm/YSGdv1KkEuOvpj.vSZeXiGPIm4NVRvY5KGNFpQeLW59ndW,,2018-01-09 09:21:37.872209,2018-01-09 09:21:37.872209,SOSC,CHM,undergraduate,
420,20181015245,okorovictor@newmail.com,$2y$10$neUcXm/YSGdv1KkEuOvpj.vSZeXiGPIm4NVRvY5KGNFpQeLW59ndW,,2018-01-09 09:21:37.872209,2018-01-09 09:21:37.872209,SOSC,CHM,undergraduate,
421,20183050035,adigunoluwakemi@newmail.com,$2y$10$neUcXm/YSGdv1KkEuOvpj.vSZeXiGPIm4NVRvY5KGNFpQeLW59ndW,,2018-01-09 09:21:37.872209,2018-01-09 09:21:37.872209,SEET,CIE,undergraduate,
422,20183050080,jonathanadokige@newmail.com,$2y$10$neUcXm/YSGdv1KkEuOvpj.vSZeXiGPIm4NVRvY5KGNFpQeLW59ndW,,2018-01-09 09:21:37.872209,2018-01-09 09:21:37.872209,SEET,CIE,undergraduate,
423,20183050140,michaeljoseph@newmail.com,$2y$10$neUcXm/YSGdv1KkEuOvpj.vSZeXiGPIm4NVRvY5KGNFpQeLW59ndW,,2018-01-09 09:21:37.872209,2018-01-09 09:21:37.872209,SEET,CIE,undergraduate,
424,20183050170,onifadeomowunmi@newmail.com,$2y$10$neUcXm/YSGdv1KkEuOvpj.vSZeXiGPIm4NVRvY5KGNFpQeLW59ndW,,2018-01-09 09:21:37.872209,2018-01-09 09:21:37.872209,SEET,CIE,undergraduate,
425,20183050215,obiobopaul@newmail.com,$2y$10$neUcXm/YSGdv1KkEuOvpj.vSZeXiGPIm4NVRvY5KGNFpQeLW59ndW,,2018-01-09 09:21:37.872209,2018-01-09 09:21:37.872209,SEET,CIE,undergraduate,
426,20182035020,udenyisunday@newmail.com,$2y$10$neUcXm/YSGdv1KkEuOvpj.vSZeXiGPIm4NVRvY5KGNFpQeLW59ndW,,2018-01-09 09:21:37.872209,2018-01-09 09:21:37.872209,SMAT,IMT,undergraduate,
427,20182035050,odabavictoria@newmail.com,$2y$10$neUcXm/YSGdv1KkEuOvpj.vSZeXiGPIm4NVRvY5KGNFpQeLW59ndW,,2018-01-09 09:21:37.872209,2018-01-09 09:21:37.872209,SMAT,IMT,undergraduate,
428,20182035080,okedelesamuel@newmail.com,$2y$10$neUcXm/YSGdv1KkEuOvpj.vSZeXiGPIm4NVRvY5KGNFpQeLW59ndW,,2018-01-09 09:21:37.872209,2018-01-09 09:21:37.872209,SMAT,IMT,undergraduate,
429,20182035095,idahosapaul@newmail.com,$2y$10$neUcXm/YSGdv1KkEuOvpj.vSZeXiGPIm4NVRvY5KGNFpQeLW59ndW,,2018-01-09 09:21:37.872209,2018-01-09 09:21:37.872209,SMAT,IMT,undergraduate,
430,20183055005,badmusmichael@newmail.com,$2y$10$neUcXm/YSGdv1KkEuOvpj.vSZeXiGPIm4NVRvY5KGNFpQeLW59ndW,,2018-01-09 09:21:37.872209,2018-01-09 09:21:37.872209,SEET,MEE,undergraduate,
431,20183055020,odedirananuoluwa@newmail.com,$2y$10$neUcXm/YSGdv1KkEuOvpj.vSZeXiGPIm4NVRvY5KGNFpQeLW59ndW,,2018-01-09 09:21:37.872209,2018-01-09 09:21:37.872209,SEET,MEE,undergraduate,
432,20183055110,ibrahimadeola@newmail.com,$2y$10$neUcXm/YSGdv1KkEuOvpj.vSZeXiGPIm4NVRvY5KGNFpQeLW59ndW,,2018-01-09 09:21:37.872209,2018-01-09 09:21:37.872209,SEET,MEE,undergraduate,
433,20183055155,abisoyestephen@newmail.com,$2y$10$neUcXm/YSGdv1KkEuOvpj.vSZeXiGPIm4NVRvY5KGNFpQeLW59ndW,,2018-01-09 09:21:37.872209,2018-01-09 09:21:37.872209,SEET,MEE,undergraduate,
434,20183055185,anisandra@newmail.com,$2y$10$neUcXm/YSGdv1KkEuOvpj.vSZeXiGPIm4NVRvY5KGNFpQeLW59ndW,,2018-01-09 09:21:37.872209,2018-01-09 09:21:37.872209,SEET,MEE,undergraduate,
435,20181030005,jesuloluwasefunmi@newmail.com,$2y$10$neUcXm/YSGdv1KkEuOvpj.vSZeXiGPIm4NVRvY5KGNFpQeLW59ndW,,2018-01-09 09:21:37.872209,2018-01-09 09:21:37.872209,SOSC,MTH,undergraduate,
436,20181030035,owolabidavid@newmail.com,$2y$10$neUcXm/YSGdv1KkEuOvpj.vSZeXiGPIm4NVRvY5KGNFpQeLW59ndW,,2018-01-09 09:21:37.872209,2018-01-09 09:21:37.872209,SOSC,MTH,undergraduate,
437,20181030095,egentiemmanuel@newmail.com,$2y$10$neUcXm/YSGdv1KkEuOvpj.vSZeXiGPIm4NVRvY5KGNFpQeLW59ndW,,2018-01-09 09:21:37.872209,2018-01-09 09:21:37.872209,SOSC,MTH,undergraduate,
438,20181030230,oluwatayomichael@newmail.com,$2y$10$neUcXm/YSGdv1KkEuOvpj.vSZeXiGPIm4NVRvY5KGNFpQeLW59ndW,,2018-01-09 09:21:37.872209,2018-01-09 09:21:37.872209,SOSC,MTH,undergraduate,
439,20181025155,rufusebere@newmail.com,$2y$10$neUcXm/YSGdv1KkEuOvpj.vSZeXiGPIm4NVRvY5KGNFpQeLW59ndW,,2018-01-09 09:21:37.872209,2018-01-09 09:21:37.872209,SOSC,PHY,undergraduate,
440,20181025275,olatuyiolayinka@newmail.com,$2y$10$neUcXm/YSGdv1KkEuOvpj.vSZeXiGPIm4NVRvY5KGNFpQeLW59ndW,,2018-01-09 09:21:37.872209,2018-01-09 09:21:37.872209,SOSC,PHY,undergraduate,
441,20181025290,ekechidi@newmail.com,$2y$10$neUcXm/YSGdv1KkEuOvpj.vSZeXiGPIm4NVRvY5KGNFpQeLW59ndW,,2018-01-09 09:21:37.872209,2018-01-09 09:21:37.872209,SOSC,PHY,undergraduate,
442,20182040005,akajitochukwu@newmail.com,$2y$10$neUcXm/YSGdv1KkEuOvpj.vSZeXiGPIm4NVRvY5KGNFpQeLW59ndW,,2018-01-09 09:21:37.872209,2018-01-09 09:21:37.872209,SMAT,PMT,undergraduate,
443,20182040035,ciromaagnes@newmail.com,$2y$10$neUcXm/YSGdv1KkEuOvpj.vSZeXiGPIm4NVRvY5KGNFpQeLW59ndW,,2018-01-09 09:21:37.872209,2018-01-09 09:21:37.872209,SMAT,PMT,undergraduate,
444,20182040065,templeshokanitan@newmail.com,$2y$10$neUcXm/YSGdv1KkEuOvpj.vSZeXiGPIm4NVRvY5KGNFpQeLW59ndW,,2018-01-09 09:21:37.872209,2018-01-09 09:21:37.872209,SMAT,PMT,undergraduate,
445,20182040110,samsonadelaja@newmail.com,$2y$10$neUcXm/YSGdv1KkEuOvpj.vSZeXiGPIm4NVRvY5KGNFpQeLW59ndW,,2018-01-09 09:21:37.872209,2018-01-09 09:21:37.872209,SMAT,PMT,undergraduate,
446,20182040125,godfreyokorieh@newmail.com,$2y$10$neUcXm/YSGdv1KkEuOvpj.vSZeXiGPIm4NVRvY5KGNFpQeLW59ndW,,2018-01-09 09:21:37.872209,2018-01-09 09:21:37.872209,SMAT,PMT,undergraduate,
447,20132035025,charlespreciousc@anymail.com,$2y$10$neUcXm/YSGdv1KkEuOvpj.vSZeXiGPIm4NVRvY5KGNFpQeLW59ndW,9fgbNBc73cuxJAOOYNyf30dWymLWfC5mw56MEasHul8O27RxXH41UbvfjXpo,2018-01-09 09:21:37.872209,2018-01-09 09:21:37.872209,SMAT,IMT,undergraduate,
448,SP1102,ocoluwafunke@anymail.com,$2y$10$neUcXm/YSGdv1KkEuOvpj.vSZeXiGPIm4NVRvY5KGNFpQeLW59ndW,Ffd0ltOAVKbzEngPcHz96yFc52hTSDx6mjArJrksKO2vzy7D9ypEa6lJNzqs,2018-01-09 09:21:37.872209,2018-01-09 09:21:37.872209,SMAT,IMT,staff,lecturer
