new_course,old_course,semester,level,course_source,course_destination_dept,student_dept
GST201,BIO101,1,,BIO,BIO,BIO
CHM207,CHM101,1,,CHM,BIO,BIO
BIO203,ENG101,1,,MEE,BIO,BIO
BIO201,ENG103,1,,MEE,BIO,BIO
CHM201,GST101,1,,GST,BIO,BIO
MTH201,GST103,1,,GST,BIO,BIO
CSC201,MTH101,1,,MTH,BIO,BIO
ENG201,PHY101,1,,PHY,BIO,BIO
CHM202,BIO102,2,,BIO,BIO,BIO
BIO202,CHM102,2,,CHM,BIO,BIO
CHM208,ENG102,2,,MEE,BIO,BIO
MTH202,ENG104,2,,MEE,BIO,BIO
CSC202,GST102,2,,GST,BIO,BIO
ENG202,GST104,2,,GST,BIO,BIO
GST202,MTH102,2,,MTH,BIO,BIO
BIO204,PHY102,2,,PHY,BIO,BIO
CSC201,BIO101,1,,BIO,CHE,CHE
CHE201,CHM101,1,,CHM,CHE,CHE
ENG203,ENG101,1,,MEE,CHE,CHE
MTH203,ENG103,1,,MEE,CHE,CHE
MTH201,GST101,1,,GST,CHE,CHE
GST201,GST103,1,,GST,CHE,CHE
ENG207,MTH101,1,,MTH,CHE,CHE
ENG201,PHY101,1,,PHY,CHE,CHE
ENG204,BIO102,2,,BIO,CHE,CHE
MTH204,CHM102,2,,CHM,CHE,CHE
CSC202,ENG102,2,,MEE,CHE,CHE
ENG202,ENG104,2,,MEE,CHE,CHE
MTH202,GST102,2,,GST,CHE,CHE
CHE202,GST104,2,,GST,CHE,CHE
ENG208,MTH102,2,,MTH,CHE,CHE
GST202,PHY102,2,,PHY,CHE,CHE
CHM201,BIO101,1,,BIO,CHM,CHM
GST201,CHM101,1,,CHM,CHM,CHM
CHM207,ENG101,1,,MEE,CHM,CHM
CSC201,ENG103,1,,MEE,CHM,CHM
MTH201,GST101,1,,GST,CHM,CHM
ENG201,GST103,1,,GST,CHM,CHM
CHM203,MTH101,1,,MTH,CHM,CHM
BIO201,PHY101,1,,PHY,CHM,CHM
CHM204,BIO102,2,,BIO,CHM,CHM
GST202,CHM102,2,,CHM,CHM,CHM
BIO202,ENG102,2,,MEE,CHM,CHM
CHM202,ENG104,2,,MEE,CHM,CHM
ENG202,GST102,2,,GST,CHM,CHM
CSC202,GST104,2,,GST,CHM,CHM
MTH202,MTH102,2,,MTH,CHM,CHM
CHM208,PHY102,2,,PHY,CHM,CHM
CIE201,BIO101,1,,BIO,CIE,CIE
ENG207,CHM101,1,,CHM,CIE,CIE
MTH203,ENG101,1,,MEE,CIE,CIE
ENG203,ENG103,1,,MEE,CIE,CIE
GST201,GST101,1,,GST,CIE,CIE
ENG201,GST103,1,,GST,CIE,CIE
CSC201,MTH101,1,,MTH,CIE,CIE
MTH201,PHY101,1,,PHY,CIE,CIE
MTH202,BIO102,2,,BIO,CIE,CIE
CSC202,CHM102,2,,CHM,CIE,CIE
CIE202,ENG102,2,,MEE,CIE,CIE
ENG202,ENG104,2,,MEE,CIE,CIE
GST202,GST102,2,,GST,CIE,CIE
MTH204,GST104,2,,GST,CIE,CIE
ENG204,MTH102,2,,MTH,CIE,CIE
ENG208,PHY102,2,,PHY,CIE,CIE
IMT203,BIO101,1,,BIO,IMT,IMT
IMT201,CHM101,1,,CHM,IMT,IMT
ENG201,ENG101,1,,MEE,IMT,IMT
MTH211,ENG103,1,,MEE,IMT,IMT
CSC201,GST101,1,,GST,IMT,IMT
MTH201,GST103,1,,GST,IMT,IMT
GST201,MTH101,1,,MTH,IMT,IMT
ENG203,PHY101,1,,PHY,IMT,IMT
IMT202,BIO102,2,,BIO,IMT,IMT
MTH212,CHM102,2,,CHM,IMT,IMT
MTH202,ENG102,2,,MEE,IMT,IMT
ENG204,ENG104,2,,MEE,IMT,IMT
CSC202,GST102,2,,GST,IMT,IMT
ENG202,GST104,2,,GST,IMT,IMT
GST202,MTH102,2,,MTH,IMT,IMT
IMT204,PHY102,2,,PHY,IMT,IMT
GST201,BIO101,1,,BIO,MEE,MEE
ENG207,CHM101,1,,CHM,MEE,MEE
MEE201,ENG101,1,,MEE,MEE,MEE
MTH203,ENG103,1,,MEE,MEE,MEE
MTH201,GST101,1,,GST,MEE,MEE
ENG203,GST103,1,,GST,MEE,MEE
ENG201,MTH101,1,,MTH,MEE,MEE
CSC201,PHY101,1,,PHY,MEE,MEE
ENG204,BIO102,2,,BIO,MEE,MEE
GST202,CHM102,2,,CHM,MEE,MEE
CSC202,ENG102,2,,MEE,MEE,MEE
ENG202,ENG104,2,,MEE,MEE,MEE
MTH204,GST102,2,,GST,MEE,MEE
MTH202,GST104,2,,GST,MEE,MEE
MEE202,MTH102,2,,MTH,MEE,MEE
ENG208,PHY102,2,,PHY,MEE,MEE
MTH211,BIO101,1,,BIO,MTH,MTH
PHY203,CHM101,1,,CHM,MTH,MTH
ENG201,ENG101,1,,MEE,MTH,MTH
MTH203,ENG103,1,,MEE,MTH,MTH
PHY207,GST101,1,,GST,MTH,MTH
GST201,GST103,1,,GST,MTH,MTH
MTH201,MTH101,1,,MTH,MTH,MTH
CSC201,PHY101,1,,PHY,MTH,MTH
GST202,BIO102,2,,BIO,MTH,MTH
ENG202,CHM102,2,,CHM,MTH,MTH
MTH202,ENG102,2,,MEE,MTH,MTH
MTH204,ENG104,2,,MEE,MTH,MTH
PHY208,GST102,2,,GST,MTH,MTH
CSC202,GST104,2,,GST,MTH,MTH
PHY204,MTH102,2,,MTH,MTH,MTH
MTH212,PHY102,2,,PHY,MTH,MTH
ENG201,BIO101,1,,BIO,PHY,PHY
GST201,CHM101,1,,CHM,PHY,PHY
PHY207,ENG101,1,,MEE,PHY,PHY
CSC201,ENG103,1,,MEE,PHY,PHY
MTH201,GST101,1,,GST,PHY,PHY
PHY201,GST103,1,,GST,PHY,PHY
MTH203,MTH101,1,,MTH,PHY,PHY
PHY203,PHY101,1,,PHY,PHY,PHY
PHY202,BIO102,2,,BIO,PHY,PHY
MTH204,CHM102,2,,CHM,PHY,PHY
PHY204,ENG102,2,,MEE,PHY,PHY
CSC202,ENG104,2,,MEE,PHY,PHY
GST202,GST102,2,,GST,PHY,PHY
MTH202,GST104,2,,GST,PHY,PHY
PHY208,MTH102,2,,MTH,PHY,PHY
ENG202,PHY102,2,,PHY,PHY,PHY
PMT201,BIO101,1,,BIO,PMT,PMT
MTH201,CHM101,1,,CHM,PMT,PMT
CSC201,ENG101,1,,MEE,PMT,PMT
ENG201,ENG103,1,,MEE,PMT,PMT
PMT203,GST103,1,,GST,PMT,PMT
GST201,MTH101,1,,MTH,PMT,PMT
ENG203,PHY101,1,,PHY,PMT,PMT
MTH211,BIO102,2,,BIO,PMT,PMT
PMT204,CHM102,2,,CHM,PMT,PMT
PMT202,ENG102,2,,MEE,PMT,PMT
GST202,ENG104,2,,MEE,PMT,PMT
ENG202,GST102,2,,GST,PMT,PMT
CSC202,GST104,2,,GST,PMT,PMT
MTH202,MTH102,2,,MTH,PMT,PMT
