student_reg_no,student_dept,course_code,course_units,course_department,session,semester,result_test,result_lab,result_exam,result_grade,remarks,status,level
20161020050,BIO,BIO101,3,BIO,2017,1,15,13,36,4,Pass,Verified,100
20161020065,BIO,BIO101,3,BIO,2017,1,19,15,44,5,Pass,Verified,100
20161020125,BIO,BIO101,3,BIO,2017,1,10,12,26,2,Pass,Verified,100
20161020170,BIO,BIO101,3,BIO,2017,1,17,12,40,4,Pass,Verified,100
20161020185,BIO,BIO101,3,BIO,2017,1,14,13,34,4,Pass,Verified,100
20161020200,BIO,BIO101,3,BIO,2017,1,14,15,34,4,Pass,Verified,100
20161020215,BIO,BIO101,3,BIO,2017,1,18,14,42,5,Pass,Verified,100
20161020260,BIO,BIO101,3,BIO,2017,1,15,13,36,4,Pass,Verified,100
20163045050,CHE,BIO101,3,BIO,2017,1,16,14,38,4,Pass,Verified,100
20163045065,CHE,BIO101,3,BIO,2017,1,14,15,34,4,Pass,Verified,100
20163045095,CHE,BIO101,3,BIO,2017,1,13,12,32,3,Pass,Verified,100
20163045125,CHE,BIO101,3,BIO,2017,1,18,12,42,5,Pass,Verified,100
20163045200,CHE,BIO101,3,BIO,2017,1,14,13,34,4,Pass,Verified,100
20163045230,CHE,BIO101,3,BIO,2017,1,13,15,32,4,Pass,Verified,100
20161015020,CHM,BIO101,3,BIO,2017,1,12,6,30,2,Pass,Verified,100
20161015080,CHM,BIO101,3,BIO,2017,1,15,15,36,4,Pass,Verified,100
20161015110,CHM,BIO101,3,BIO,2017,1,14,11,34,3,Pass,Verified,100
20161015140,CHM,BIO101,3,BIO,2017,1,17,14,40,5,Pass,Verified,100
20161015245,CHM,BIO101,3,BIO,2017,1,16,15,38,4,Pass,Verified,100
20163050035,CIE,BIO101,3,BIO,2017,1,16,14,38,4,Pass,Verified,100
20163050080,CIE,BIO101,3,BIO,2017,1,15,13,36,4,Pass,Verified,100
20163050140,CIE,BIO101,3,BIO,2017,1,18,14,42,5,Pass,Verified,100
20163050170,CIE,BIO101,3,BIO,2017,1,16,0,38,0,Outstanding,Verified,100
20163050215,CIE,BIO101,3,BIO,2017,1,15,15,36,4,Pass,Verified,100
20162035020,IMT,BIO101,3,BIO,2017,1,14,14,34,4,Pass,Verified,100
20162035050,IMT,BIO101,3,BIO,2017,1,17,10,40,4,Pass,Verified,100
20162035080,IMT,BIO101,3,BIO,2017,1,16,15,38,4,Pass,Verified,100
20162035095,IMT,BIO101,3,BIO,2017,1,14,6,34,3,Pass,Verified,100
20163055005,MEE,BIO101,3,BIO,2017,1,12,15,30,3,Pass,Verified,100
20163055020,MEE,BIO101,3,BIO,2017,1,14,13,34,4,Pass,Verified,100
20163055110,MEE,BIO101,3,BIO,2017,1,17,15,40,5,Pass,Verified,100
20163055155,MEE,BIO101,3,BIO,2017,1,15,12,36,4,Pass,Verified,100
20163055185,MEE,BIO101,3,BIO,2017,1,17,14,40,5,Pass,Verified,100
20161030005,MTH,BIO101,3,BIO,2017,1,16,14,38,4,Pass,Verified,100
20161030035,MTH,BIO101,3,BIO,2017,1,15,15,36,4,Pass,Verified,100
20161030095,MTH,BIO101,3,BIO,2017,1,11,12,28,3,Pass,Verified,100
20161030230,MTH,BIO101,3,BIO,2017,1,18,12,42,5,Pass,Verified,100
20161025155,PHY,BIO101,3,BIO,2017,1,16,15,38,4,Pass,Verified,100
20161025275,PHY,BIO101,3,BIO,2017,1,16,11,38,4,Pass,Verified,100
20161025290,PHY,BIO101,3,BIO,2017,1,18,14,42,5,Pass,Verified,100
20162040005,PMT,BIO101,3,BIO,2017,1,15,5,35,3,Pass,Verified,100
20162040035,PMT,BIO101,3,BIO,2017,1,14,14,33,4,Pass,Verified,100
20162040065,PMT,BIO101,3,BIO,2017,1,17,10,39,4,Pass,Verified,100
20162040110,PMT,BIO101,3,BIO,2017,1,16,13,37,4,Pass,Verified,100
20162040125,PMT,BIO101,3,BIO,2017,1,13,14,31,3,Pass,Verified,100
20161020050,BIO,CHM101,4,CHM,2017,1,16,16,39,5,Pass,Verified,100
20161020065,BIO,CHM101,4,CHM,2017,1,20,18,47,5,Pass,Verified,100
20161020125,BIO,CHM101,4,CHM,2017,1,10,15,27,3,Pass,Verified,100
20161020170,BIO,CHM101,4,CHM,2017,1,18,15,43,5,Pass,Verified,100
20161020185,BIO,CHM101,4,CHM,2017,1,15,16,37,4,Pass,Verified,100
20161020200,BIO,CHM101,4,CHM,2017,1,15,18,37,5,Pass,Verified,100
20161020215,BIO,CHM101,4,CHM,2017,1,20,17,47,5,Pass,Verified,100
20161020260,BIO,CHM101,4,CHM,2017,1,16,16,39,5,Pass,Verified,100
20163045050,CHE,CHM101,4,CHM,2017,1,17,17,41,5,Pass,Verified,100
20163045065,CHE,CHM101,4,CHM,2017,1,14,18,35,4,Pass,Verified,100
20163045095,CHE,CHM101,4,CHM,2017,1,13,15,33,4,Pass,Verified,100
20163045125,CHE,CHM101,4,CHM,2017,1,19,15,45,5,Pass,Verified,100
20163045200,CHE,CHM101,4,CHM,2017,1,15,16,37,4,Pass,Verified,100
20163045230,CHE,CHM101,4,CHM,2017,1,14,18,35,4,Pass,Verified,100
20161015020,CHM,CHM101,4,CHM,2017,1,13,9,33,3,Pass,Verified,100
20161015080,CHM,CHM101,4,CHM,2017,1,16,18,39,5,Pass,Verified,100
20161015110,CHM,CHM101,4,CHM,2017,1,15,14,37,4,Pass,Verified,100
20161015140,CHM,CHM101,4,CHM,2017,1,18,17,43,5,Pass,Verified,100
20161015245,CHM,CHM101,4,CHM,2017,1,17,18,41,5,Pass,Verified,100
20163050035,CIE,CHM101,4,CHM,2017,1,17,17,41,5,Pass,Verified,100
20163050080,CIE,CHM101,4,CHM,2017,1,16,16,39,5,Pass,Verified,100
20163050140,CIE,CHM101,4,CHM,2017,1,19,17,45,5,Pass,Verified,100
20163050170,CIE,CHM101,4,CHM,2017,1,18,3,43,4,Pass,Verified,100
20163050215,CIE,CHM101,4,CHM,2017,1,16,18,39,5,Pass,Verified,100
20162035020,IMT,CHM101,4,CHM,2017,1,15,17,37,4,Pass,Verified,100
20162035050,IMT,CHM101,4,CHM,2017,1,18,3,43,4,Pass,Verified,100
20162035080,IMT,CHM101,4,CHM,2017,1,17,18,41,5,Pass,Verified,100
20162035095,IMT,CHM101,4,CHM,2017,1,14,9,35,3,Pass,Verified,100
20163055005,MEE,CHM101,4,CHM,2017,1,13,18,33,4,Pass,Verified,100
20163055020,MEE,CHM101,4,CHM,2017,1,15,16,37,4,Pass,Verified,100
20163055110,MEE,CHM101,4,CHM,2017,1,18,18,43,5,Pass,Verified,100
20163055155,MEE,CHM101,4,CHM,2017,1,16,15,39,5,Pass,Verified,100
20163055185,MEE,CHM101,4,CHM,2017,1,18,17,43,5,Pass,Verified,100
20161030005,MTH,CHM101,4,CHM,2017,1,17,17,41,5,Pass,Verified,100
20161030035,MTH,CHM101,4,CHM,2017,1,16,18,39,5,Pass,Verified,100
20161030095,MTH,CHM101,4,CHM,2017,1,12,15,31,3,Pass,Verified,100
20161030230,MTH,CHM101,4,CHM,2017,1,20,15,47,5,Pass,Verified,100
20161025155,PHY,CHM101,4,CHM,2017,1,18,18,43,5,Pass,Verified,100
20161025275,PHY,CHM101,4,CHM,2017,1,17,14,41,5,Pass,Verified,100
20161025290,PHY,CHM101,4,CHM,2017,1,20,17,47,5,Pass,Verified,100
20162040005,PMT,CHM101,4,CHM,2017,1,16,8,37,4,Pass,Verified,100
20162040035,PMT,CHM101,4,CHM,2017,1,15,17,35,4,Pass,Verified,100
20162040065,PMT,CHM101,4,CHM,2017,1,18,13,41,5,Pass,Verified,100
20162040110,PMT,CHM101,4,CHM,2017,1,17,16,39,5,Pass,Verified,100
20162040125,PMT,CHM101,4,CHM,2017,1,13,17,31,4,Pass,Verified,100
20161020050,BIO,ENG101,1,MEE,2017,1,13,19,45,5,Pass,Verified,100
20161020065,BIO,ENG101,1,MEE,2017,1,18,10,46,5,Pass,Verified,100
20161020125,BIO,ENG101,1,MEE,2017,1,7,0,14,0,Outstanding,Verified,100
20161020170,BIO,ENG101,1,MEE,2017,1,16,18,50,5,Pass,Verified,100
20161020185,BIO,ENG101,1,MEE,2017,1,12,18,42,5,Pass,Verified,100
20161020200,BIO,ENG101,1,MEE,2017,1,12,19,43,5,Pass,Verified,100
20161020215,BIO,ENG101,1,MEE,2017,1,17,16,50,5,Pass,Verified,100
20161020260,BIO,ENG101,1,MEE,2017,1,13,16,42,5,Pass,Verified,100
20163045050,CHE,ENG101,1,MEE,2017,1,14,19,47,5,Pass,Verified,100
20163045065,CHE,ENG101,1,MEE,2017,1,11,18,40,4,Pass,Verified,100
20163045095,CHE,ENG101,1,MEE,2017,1,10,17,37,4,Pass,Verified,100
20163045125,CHE,ENG101,1,MEE,2017,1,16,10,42,4,Pass,Verified,100
20163045200,CHE,ENG101,1,MEE,2017,1,12,10,24,2,Pass,Verified,100
20163045230,CHE,ENG101,1,MEE,2017,1,11,19,41,5,Pass,Verified,100
20161015020,CHM,ENG101,1,MEE,2017,1,9,17,35,4,Pass,Verified,100
20161015080,CHM,ENG101,1,MEE,2017,1,13,19,45,5,Pass,Verified,100
20161015110,CHM,ENG101,1,MEE,2017,1,12,16,40,4,Pass,Verified,100
20161015140,CHM,ENG101,1,MEE,2017,1,15,17,47,5,Pass,Verified,100
20161015245,CHM,ENG101,1,MEE,2017,1,14,18,46,5,Pass,Verified,100
20163050035,CIE,ENG101,1,MEE,2017,1,14,10,38,4,Pass,Verified,100
20163050080,CIE,ENG101,1,MEE,2017,1,13,19,45,5,Pass,Verified,100
20163050140,CIE,ENG101,1,MEE,2017,1,16,15,47,5,Pass,Verified,100
20163050170,CIE,ENG101,1,MEE,2017,1,15,18,48,5,Pass,Verified,100
20163050215,CIE,ENG101,1,MEE,2017,1,13,19,45,5,Pass,Verified,100
20162035020,IMT,ENG101,1,MEE,2017,1,12,17,41,5,Pass,Verified,100
20162035050,IMT,ENG101,1,MEE,2017,1,15,19,49,5,Pass,Verified,100
20162035080,IMT,ENG101,1,MEE,2017,1,14,18,46,5,Pass,Verified,100
20162035095,IMT,ENG101,1,MEE,2017,1,11,17,39,4,Pass,Verified,100
20163055005,MEE,ENG101,1,MEE,2017,1,10,10,30,3,Pass,Verified,100
20163055020,MEE,ENG101,1,MEE,2017,1,12,19,43,5,Pass,Verified,100
20163055110,MEE,ENG101,1,MEE,2017,1,16,15,47,5,Pass,Verified,100
20163055155,MEE,ENG101,1,MEE,2017,1,13,18,44,5,Pass,Verified,100
20163055185,MEE,ENG101,1,MEE,2017,1,15,19,49,5,Pass,Verified,100
20161030005,MTH,ENG101,1,MEE,2017,1,14,17,45,5,Pass,Verified,100
20161030035,MTH,ENG101,1,MEE,2017,1,13,19,45,5,Pass,Verified,100
20161030095,MTH,ENG101,1,MEE,2017,1,8,16,32,3,Pass,Verified,100
20161030230,MTH,ENG101,1,MEE,2017,1,17,18,52,5,Pass,Verified,100
20161025155,PHY,ENG101,1,MEE,2017,1,15,18,48,5,Pass,Verified,100
20161025275,PHY,ENG101,1,MEE,2017,1,14,5,28,2,Pass,Verified,100
20161025290,PHY,ENG101,1,MEE,2017,1,17,19,53,5,Pass,Verified,100
20162040005,PMT,ENG101,1,MEE,2017,1,15,17,47,5,Pass,Verified,100
20162040035,PMT,ENG101,1,MEE,2017,1,14,18,46,5,Pass,Verified,100
20162040065,PMT,ENG101,1,MEE,2017,1,17,0,34,0,Outstanding,Verified,100
20162040110,PMT,ENG101,1,MEE,2017,1,16,19,51,5,Pass,Verified,100
20162040125,PMT,ENG101,1,MEE,2017,1,12,10,34,3,Pass,Verified,100
20161020050,BIO,ENG103,1,MEE,2017,1,14,17,45,5,Pass,Verified,100
20161020065,BIO,ENG103,1,MEE,2017,1,18,19,55,5,Pass,Verified,100
20161020125,BIO,ENG103,1,MEE,2017,1,9,16,34,3,Pass,Verified,100
20161020170,BIO,ENG103,1,MEE,2017,1,16,16,48,5,Pass,Verified,100
20161020185,BIO,ENG103,1,MEE,2017,1,13,17,43,5,Pass,Verified,100
20161020200,BIO,ENG103,1,MEE,2017,1,13,19,45,5,Pass,Verified,100
20161020215,BIO,ENG103,1,MEE,2017,1,17,18,52,5,Pass,Verified,100
20161020260,BIO,ENG103,1,MEE,2017,1,14,17,45,5,Pass,Verified,100
20163045050,CHE,ENG103,1,MEE,2017,1,15,18,48,5,Pass,Verified,100
20163045065,CHE,ENG103,1,MEE,2017,1,13,19,45,5,Pass,Verified,100
20163045095,CHE,ENG103,1,MEE,2017,1,12,16,40,4,Pass,Verified,100
20163045125,CHE,ENG103,1,MEE,2017,1,17,16,50,5,Pass,Verified,100
20163045200,CHE,ENG103,1,MEE,2017,1,13,17,43,5,Pass,Verified,100
20163045230,CHE,ENG103,1,MEE,2017,1,12,19,43,5,Pass,Verified,100
20161015020,CHM,ENG103,1,MEE,2017,1,11,10,32,3,Pass,Verified,100
20161015080,CHM,ENG103,1,MEE,2017,1,14,19,47,5,Pass,Verified,100
20161015110,CHM,ENG103,1,MEE,2017,1,13,15,41,4,Pass,Verified,100
20161015140,CHM,ENG103,1,MEE,2017,1,16,18,50,5,Pass,Verified,100
20161015245,CHM,ENG103,1,MEE,2017,1,15,19,49,5,Pass,Verified,100
20163050035,CIE,ENG103,1,MEE,2017,1,15,18,48,5,Pass,Verified,100
20163050080,CIE,ENG103,1,MEE,2017,1,14,17,45,5,Pass,Verified,100
20163050140,CIE,ENG103,1,MEE,2017,1,17,18,52,5,Pass,Verified,100
20163050170,CIE,ENG103,1,MEE,2017,1,15,0,30,0,Outstanding,Verified,100
20163050215,CIE,ENG103,1,MEE,2017,1,14,19,47,5,Pass,Verified,100
20162035020,IMT,ENG103,1,MEE,2017,1,13,18,44,5,Pass,Verified,100
20162035050,IMT,ENG103,1,MEE,2017,1,16,10,32,3,Pass,Verified,100
20162035080,IMT,ENG103,1,MEE,2017,1,15,19,49,5,Pass,Verified,100
20162035095,IMT,ENG103,1,MEE,2017,1,13,10,36,3,Pass,Verified,100
20163055005,MEE,ENG103,1,MEE,2017,1,11,19,41,5,Pass,Verified,100
20163055020,MEE,ENG103,1,MEE,2017,1,13,17,43,5,Pass,Verified,100
20163055110,MEE,ENG103,1,MEE,2017,1,16,19,51,5,Pass,Verified,100
20163055155,MEE,ENG103,1,MEE,2017,1,14,16,44,5,Pass,Verified,100
20163055185,MEE,ENG103,1,MEE,2017,1,16,18,50,5,Pass,Verified,100
20161030005,MTH,ENG103,1,MEE,2017,1,15,18,48,5,Pass,Verified,100
20161030035,MTH,ENG103,1,MEE,2017,1,14,19,47,5,Pass,Verified,100
20161030095,MTH,ENG103,1,MEE,2017,1,10,16,36,4,Pass,Verified,100
20161030230,MTH,ENG103,1,MEE,2017,1,17,16,50,5,Pass,Verified,100
20161025155,PHY,ENG103,1,MEE,2017,1,15,19,49,5,Pass,Verified,100
20161025275,PHY,ENG103,1,MEE,2017,1,15,15,45,5,Pass,Verified,100
20161025290,PHY,ENG103,1,MEE,2017,1,17,18,52,5,Pass,Verified,100
20162040005,PMT,ENG103,1,MEE,2017,1,14,9,33,3,Pass,Verified,100
20162040035,PMT,ENG103,1,MEE,2017,1,13,18,31,4,Pass,Verified,100
20162040065,PMT,ENG103,1,MEE,2017,1,16,14,37,4,Pass,Verified,100
20162040110,PMT,ENG103,1,MEE,2017,1,15,17,35,4,Pass,Verified,100
20162040125,PMT,ENG103,1,MEE,2017,1,12,18,29,3,Pass,Verified,100
20161020050,BIO,GST101,2,GST,2017,1,20,,45,4,Pass,Verified,100
20161020065,BIO,GST101,2,GST,2017,1,29,,63,5,Pass,Verified,100
20161020125,BIO,GST101,2,GST,2017,1,7,,19,0,Outstanding,Verified,100
20161020170,BIO,GST101,2,GST,2017,1,25,,55,5,Pass,Verified,100
20161020185,BIO,GST101,2,GST,2017,1,17,,39,3,Pass,Verified,100
20161020200,BIO,GST101,2,GST,2017,1,18,,41,3,Pass,Verified,100
20161020215,BIO,GST101,2,GST,2017,1,28,,61,5,Pass,Verified,100
20161020260,BIO,GST101,2,GST,2017,1,20,,45,4,Pass,Verified,100
20163045050,CHE,GST101,2,GST,2017,1,21,,47,4,Pass,Verified,100
20163045065,CHE,GST101,2,GST,2017,1,16,,37,3,Pass,Verified,100
20163045095,CHE,GST101,2,GST,2017,1,14,,33,2,Pass,Verified,100
20163045125,CHE,GST101,2,GST,2017,1,26,,57,5,Pass,Verified,100
20163045200,CHE,GST101,2,GST,2017,1,18,,41,3,Pass,Verified,100
20163045230,CHE,GST101,2,GST,2017,1,15,,35,3,Pass,Verified,100
20161015020,CHM,GST101,2,GST,2017,1,14,,33,2,Pass,Verified,100
20161015080,CHM,GST101,2,GST,2017,1,20,,45,4,Pass,Verified,100
20161015110,CHM,GST101,2,GST,2017,1,18,,41,3,Pass,Verified,100
20161015140,CHM,GST101,2,GST,2017,1,24,,53,5,Pass,Verified,100
20161015245,CHM,GST101,2,GST,2017,1,21,,47,4,Pass,Verified,100
20163050035,CIE,GST101,2,GST,2017,1,21,,47,4,Pass,Verified,100
20163050080,CIE,GST101,2,GST,2017,1,20,,45,4,Pass,Verified,100
20163050140,CIE,GST101,2,GST,2017,1,26,,57,5,Pass,Verified,100
20163050170,CIE,GST101,2,GST,2017,1,23,,51,5,Pass,Verified,100
20163050215,CIE,GST101,2,GST,2017,1,19,,43,4,Pass,Verified,100
20162035020,IMT,GST101,2,GST,2017,1,17,,39,3,Pass,Verified,100
20162035050,IMT,GST101,2,GST,2017,1,24,,53,5,Pass,Verified,100
20162035080,IMT,GST101,2,GST,2017,1,22,,49,5,Pass,Verified,100
20162035095,IMT,GST101,2,GST,2017,1,16,,37,3,Pass,Verified,100
20163055005,MEE,GST101,2,GST,2017,1,14,,33,2,Pass,Verified,100
20163055020,MEE,GST101,2,GST,2017,1,18,,41,3,Pass,Verified,100
20163055110,MEE,GST101,2,GST,2017,1,25,,55,5,Pass,Verified,100
20163055155,MEE,GST101,2,GST,2017,1,20,,45,4,Pass,Verified,100
20163055185,MEE,GST101,2,GST,2017,1,24,,53,5,Pass,Verified,100
20161030005,MTH,GST101,2,GST,2017,1,22,,49,5,Pass,Verified,100
20161030035,MTH,GST101,2,GST,2017,1,20,,45,4,Pass,Verified,100
20161030095,MTH,GST101,2,GST,2017,1,14,,33,2,Pass,Verified,100
20161030230,MTH,GST101,2,GST,2017,1,28,,61,5,Pass,Verified,100
20162040005,MTH,GST101,2,GST,2017,1,20,,45,4,Pass,Verified,100
20162040035,MTH,GST101,2,GST,2017,1,17,,39,3,Pass,Verified,100
20162040065,MTH,GST101,2,GST,2017,1,24,,53,5,Pass,Verified,100
20162040110,MTH,GST101,2,GST,2017,1,22,,49,5,Pass,Verified,100
20162040125,MTH,GST101,2,GST,2017,1,14,,33,2,Pass,Verified,100
20161025155,PHY,GST101,2,GST,2017,1,23,,51,5,Pass,Verified,100
20161025275,PHY,GST101,2,GST,2017,1,22,,49,5,Pass,Verified,100
20161025290,PHY,GST101,2,GST,2017,1,28,,61,5,Pass,Verified,100
20161020050,BIO,GST103,1,GST,2017,1,24,,53,5,Pass,Verified,100
20161020065,BIO,GST103,1,GST,2017,1,20,,45,4,Pass,Verified,100
20161020125,BIO,GST103,1,GST,2017,1,14,,33,2,Pass,Verified,100
20161020170,BIO,GST103,1,GST,2017,1,14,,33,2,Pass,Verified,100
20161020185,BIO,GST103,1,GST,2017,1,19,,43,4,Pass,Verified,100
20161020200,BIO,GST103,1,GST,2017,1,22,,49,5,Pass,Verified,100
20161020215,BIO,GST103,1,GST,2017,1,16,,37,3,Pass,Verified,100
20161020260,BIO,GST103,1,GST,2017,1,20,,45,4,Pass,Verified,100
20163045050,CHE,GST103,1,GST,2017,1,19,,43,4,Pass,Verified,100
20163045065,CHE,GST103,1,GST,2017,1,22,,49,5,Pass,Verified,100
20163045095,CHE,GST103,1,GST,2017,1,14,,33,2,Pass,Verified,100
20163045125,CHE,GST103,1,GST,2017,1,20,,45,4,Pass,Verified,100
20163045200,CHE,GST103,1,GST,2017,1,23,,51,5,Pass,Verified,100
20163045230,CHE,GST103,1,GST,2017,1,23,,51,5,Pass,Verified,100
20161015020,CHM,GST103,1,GST,2017,1,17,,39,3,Pass,Verified,100
20161015080,CHM,GST103,1,GST,2017,1,18,,41,3,Pass,Verified,100
20161015110,CHM,GST103,1,GST,2017,1,23,,51,5,Pass,Verified,100
20161015140,CHM,GST103,1,GST,2017,1,14,,33,2,Pass,Verified,100
20161015245,CHM,GST103,1,GST,2017,1,20,,45,4,Pass,Verified,100
20163050035,CIE,GST103,1,GST,2017,1,15,,35,3,Pass,Verified,100
20163050080,CIE,GST103,1,GST,2017,1,14,,33,2,Pass,Verified,100
20163050140,CIE,GST103,1,GST,2017,1,14,,33,2,Pass,Verified,100
20163050170,CIE,GST103,1,GST,2017,1,16,,37,3,Pass,Verified,100
20163050215,CIE,GST103,1,GST,2017,1,26,,57,5,Pass,Verified,100
20162035020,IMT,GST103,1,GST,2017,1,23,,51,5,Pass,Verified,100
20162035050,IMT,GST103,1,GST,2017,1,23,,51,5,Pass,Verified,100
20162035080,IMT,GST103,1,GST,2017,1,15,,35,3,Pass,Verified,100
20162035095,IMT,GST103,1,GST,2017,1,14,,33,2,Pass,Verified,100
20163055005,MEE,GST103,1,GST,2017,1,17,,39,3,Pass,Verified,100
20163055020,MEE,GST103,1,GST,2017,1,14,,33,2,Pass,Verified,100
20163055110,MEE,GST103,1,GST,2017,1,22,,49,5,Pass,Verified,100
20163055155,MEE,GST103,1,GST,2017,1,15,,35,3,Pass,Verified,100
20163055185,MEE,GST103,1,GST,2017,1,14,,33,2,Pass,Verified,100
20161030005,MTH,GST103,1,GST,2017,1,24,,53,5,Pass,Verified,100
20161030035,MTH,GST103,1,GST,2017,1,26,,57,5,Pass,Verified,100
20161030095,MTH,GST103,1,GST,2017,1,18,,41,3,Pass,Verified,100
20161030230,MTH,GST103,1,GST,2017,1,23,,51,5,Pass,Verified,100
20161025155,PHY,GST103,1,GST,2017,1,24,,53,5,Pass,Verified,100
20161025275,PHY,GST103,1,GST,2017,1,26,,57,5,Pass,Verified,100
20161025290,PHY,GST103,1,GST,2017,1,14,,33,2,Pass,Verified,100
20162040005,PMT,GST103,1,GST,2017,1,23,,51,5,Pass,Verified,100
20162040035,PMT,GST103,1,GST,2017,1,15,,35,3,Pass,Verified,100
20162040065,PMT,GST103,1,GST,2017,1,14,,33,2,Pass,Verified,100
20162040110,PMT,GST103,1,GST,2017,1,24,,53,5,Pass,Verified,100
20162040125,PMT,GST103,1,GST,2017,1,26,,57,5,Pass,Verified,100
20161020050,BIO,MTH101,4,MTH,2017,1,22,,47,4,Pass,Verified,100
20161020065,BIO,MTH101,4,MTH,2017,1,30,,63,5,Pass,Verified,100
20161020125,BIO,MTH101,4,MTH,2017,1,15,,32,2,Pass,Verified,100
20161020170,BIO,MTH101,4,MTH,2017,1,26,,55,5,Pass,Verified,100
20161020185,BIO,MTH101,4,MTH,2017,1,20,,43,4,Pass,Verified,100
20161020200,BIO,MTH101,4,MTH,2017,1,20,,43,4,Pass,Verified,100
20161020215,BIO,MTH101,4,MTH,2017,1,28,,59,5,Pass,Verified,100
20161020260,BIO,MTH101,4,MTH,2017,1,22,,47,4,Pass,Verified,100
20163045050,CHE,MTH101,4,MTH,2017,1,24,,51,5,Pass,Verified,100
20163045065,CHE,MTH101,4,MTH,2017,1,20,,43,4,Pass,Verified,100
20163045095,CHE,MTH101,4,MTH,2017,1,18,,39,3,Pass,Verified,100
20163045125,CHE,MTH101,4,MTH,2017,1,28,,59,5,Pass,Verified,100
20163045200,CHE,MTH101,4,MTH,2017,1,20,,43,4,Pass,Verified,100
20163045230,CHE,MTH101,4,MTH,2017,1,18,,39,3,Pass,Verified,100
20161015020,CHM,MTH101,4,MTH,2017,1,16,,35,3,Pass,Verified,100
20161015080,CHM,MTH101,4,MTH,2017,1,22,,47,4,Pass,Verified,100
20161015110,CHM,MTH101,4,MTH,2017,1,20,,43,4,Pass,Verified,100
20161015140,CHM,MTH101,4,MTH,2017,1,26,,55,5,Pass,Verified,100
20161015245,CHM,MTH101,4,MTH,2017,1,24,,51,5,Pass,Verified,100
20163050035,CIE,MTH101,4,MTH,2017,1,24,,51,5,Pass,Verified,100
20163050080,CIE,MTH101,4,MTH,2017,1,22,,47,4,Pass,Verified,100
20163050140,CIE,MTH101,4,MTH,2017,1,28,,59,5,Pass,Verified,100
20163050170,CIE,MTH101,4,MTH,2017,1,24,,51,5,Pass,Verified,100
20163050215,CIE,MTH101,4,MTH,2017,1,22,,47,4,Pass,Verified,100
20162035020,IMT,MTH101,4,MTH,2017,1,20,,43,4,Pass,Verified,100
20162035050,IMT,MTH101,4,MTH,2017,1,26,,55,5,Pass,Verified,100
20162035080,IMT,MTH101,4,MTH,2017,1,24,,51,5,Pass,Verified,100
20162035095,IMT,MTH101,4,MTH,2017,1,20,,43,4,Pass,Verified,100
20163055005,MEE,MTH101,4,MTH,2017,1,16,,35,3,Pass,Verified,100
20163055020,MEE,MTH101,4,MTH,2017,1,20,,43,4,Pass,Verified,100
20163055110,MEE,MTH101,4,MTH,2017,1,26,,55,5,Pass,Verified,100
20163055155,MEE,MTH101,4,MTH,2017,1,22,,47,4,Pass,Verified,100
20163055185,MEE,MTH101,4,MTH,2017,1,26,,55,5,Pass,Verified,100
20161030005,MTH,MTH101,4,MTH,2017,1,24,,51,5,Pass,Verified,100
20161030035,MTH,MTH101,4,MTH,2017,1,22,,47,4,Pass,Verified,100
20161030095,MTH,MTH101,4,MTH,2017,1,14,,31,2,Pass,Verified,100
20161030230,MTH,MTH101,4,MTH,2017,1,28,,59,5,Pass,Verified,100
20161025155,PHY,MTH101,4,MTH,2017,1,24,,51,5,Pass,Verified,100
20161025275,PHY,MTH101,4,MTH,2017,1,24,,51,5,Pass,Verified,100
20161025290,PHY,MTH101,4,MTH,2017,1,28,,59,5,Pass,Verified,100
20162040005,PMT,MTH101,4,MTH,2017,1,22,,49,5,Pass,Verified,100
20162040035,PMT,MTH101,4,MTH,2017,1,20,,45,4,Pass,Verified,100
20162040065,PMT,MTH101,4,MTH,2017,1,26,,57,5,Pass,Verified,100
20162040110,PMT,MTH101,4,MTH,2017,1,24,,53,5,Pass,Verified,100
20162040125,PMT,MTH101,4,MTH,2017,1,18,,41,3,Pass,Verified,100
20161020050,BIO,PHY101,4,PHY,2017,1,18,15,46,5,Pass,Verified,100
20161020065,BIO,PHY101,4,PHY,2017,1,16,17,42,5,Pass,Verified,100
20161020125,BIO,PHY101,4,PHY,2017,1,12,14,34,4,Pass,Verified,100
20161020170,BIO,PHY101,4,PHY,2017,1,13,14,36,4,Pass,Verified,100
20161020185,BIO,PHY101,4,PHY,2017,1,16,15,42,5,Pass,Verified,100
20161020200,BIO,PHY101,4,PHY,2017,1,17,17,44,5,Pass,Verified,100
20161020215,BIO,PHY101,4,PHY,2017,1,14,16,38,4,Pass,Verified,100
20161020260,BIO,PHY101,4,PHY,2017,1,16,15,42,5,Pass,Verified,100
20163045050,CHE,PHY101,4,PHY,2017,1,16,16,42,5,Pass,Verified,100
20163045065,CHE,PHY101,4,PHY,2017,1,17,17,44,5,Pass,Verified,100
20163045095,CHE,PHY101,4,PHY,2017,1,13,14,36,4,Pass,Verified,100
20163045125,CHE,PHY101,4,PHY,2017,1,16,14,42,5,Pass,Verified,100
20163045200,CHE,PHY101,4,PHY,2017,1,18,15,46,5,Pass,Verified,100
20163045230,CHE,PHY101,4,PHY,2017,1,18,17,46,5,Pass,Verified,100
20161015020,CHM,PHY101,4,PHY,2017,1,15,8,40,4,Pass,Verified,100
20161015080,CHM,PHY101,4,PHY,2017,1,15,17,40,5,Pass,Verified,100
20161015110,CHM,PHY101,4,PHY,2017,1,18,13,46,5,Pass,Verified,100
20161015140,CHM,PHY101,4,PHY,2017,1,13,16,36,4,Pass,Verified,100
20161015245,CHM,PHY101,4,PHY,2017,1,16,17,42,5,Pass,Verified,100
20163050035,CIE,PHY101,4,PHY,2017,1,14,16,38,4,Pass,Verified,100
20163050080,CIE,PHY101,4,PHY,2017,1,11,15,32,3,Pass,Verified,100
20163050140,CIE,PHY101,4,PHY,2017,1,13,16,36,4,Pass,Verified,100
20163050170,CIE,PHY101,4,PHY,2017,1,14,2,38,3,Pass,Verified,100
20163050215,CIE,PHY101,4,PHY,2017,1,19,17,48,5,Pass,Verified,100
20162035020,IMT,PHY101,4,PHY,2017,1,18,16,46,5,Pass,Verified,100
20162035050,IMT,PHY101,4,PHY,2017,1,18,2,46,4,Pass,Verified,100
20162035080,IMT,PHY101,4,PHY,2017,1,14,17,38,4,Pass,Verified,100
20162035095,IMT,PHY101,4,PHY,2017,1,11,8,32,3,Pass,Verified,100
20163055005,MEE,PHY101,4,PHY,2017,1,15,17,40,5,Pass,Verified,100
20163055020,MEE,PHY101,4,PHY,2017,1,13,15,36,4,Pass,Verified,100
20163055110,MEE,PHY101,4,PHY,2017,1,17,17,44,5,Pass,Verified,100
20163055155,MEE,PHY101,4,PHY,2017,1,14,14,38,4,Pass,Verified,100
20163055185,MEE,PHY101,4,PHY,2017,1,13,16,36,4,Pass,Verified,100
20161030005,MTH,PHY101,4,PHY,2017,1,18,16,46,5,Pass,Verified,100
20161030035,MTH,PHY101,4,PHY,2017,1,19,17,48,5,Pass,Verified,100
20161030095,MTH,PHY101,4,PHY,2017,1,15,14,40,4,Pass,Verified,100
20161030230,MTH,PHY101,4,PHY,2017,1,18,14,46,5,Pass,Verified,100
20161025155,PHY,PHY101,4,PHY,2017,1,18,17,46,5,Pass,Verified,100
20161025275,PHY,PHY101,4,PHY,2017,1,19,13,48,5,Pass,Verified,100
20161025290,PHY,PHY101,4,PHY,2017,1,13,16,36,4,Pass,Verified,100
20162040005,PMT,PHY101,4,PHY,2017,1,18,,41,3,Pass,Verified,100
20162040035,PMT,PHY101,4,PHY,2017,1,14,,33,2,Pass,Verified,100
20162040065,PMT,PHY101,4,PHY,2017,1,14,,33,2,Pass,Verified,100
20162040110,PMT,PHY101,4,PHY,2017,1,18,,41,3,Pass,Verified,100
20162040125,PMT,PHY101,4,PHY,2017,1,19,,43,4,Pass,Verified,100
20161020050,BIO,BIO102,3,BIO,2017,2,14,11,34,3,Pass,Verified,100
20161020065,BIO,BIO102,3,BIO,2017,2,18,13,42,5,Pass,Verified,100
20161020125,BIO,BIO102,3,BIO,2017,2,9,10,24,0,Outstanding,Verified,100
20161020170,BIO,BIO102,3,BIO,2017,2,16,10,38,4,Pass,Verified,100
20161020185,BIO,BIO102,3,BIO,2017,2,13,11,32,3,Pass,Verified,100
20161020200,BIO,BIO102,3,BIO,2017,2,13,13,32,3,Pass,Verified,100
20161020215,BIO,BIO102,3,BIO,2017,2,17,12,40,4,Pass,Verified,100
20161020260,BIO,BIO102,3,BIO,2017,2,14,11,34,3,Pass,Verified,100
20163045050,CHE,BIO102,3,BIO,2017,2,15,12,36,4,Pass,Verified,100
20163045065,CHE,BIO102,3,BIO,2017,2,13,13,32,3,Pass,Verified,100
20163045095,CHE,BIO102,3,BIO,2017,2,12,10,30,3,Pass,Verified,100
20163045125,CHE,BIO102,3,BIO,2017,2,17,10,40,4,Pass,Verified,100
20163045200,CHE,BIO102,3,BIO,2017,2,13,11,32,3,Pass,Verified,100
20163045230,CHE,BIO102,3,BIO,2017,2,12,13,30,3,Pass,Verified,100
20161015020,CHM,BIO102,3,BIO,2017,2,11,4,28,0,Outstanding,Verified,100
20161015080,CHM,BIO102,3,BIO,2017,2,14,13,34,4,Pass,Verified,100
20161015110,CHM,BIO102,3,BIO,2017,2,13,9,32,3,Pass,Verified,100
20161015140,CHM,BIO102,3,BIO,2017,2,16,12,38,4,Pass,Verified,100
20161015245,CHM,BIO102,3,BIO,2017,2,15,13,36,4,Pass,Verified,100
20163050035,CIE,BIO102,3,BIO,2017,2,15,12,36,4,Pass,Verified,100
20163050080,CIE,BIO102,3,BIO,2017,2,14,11,34,3,Pass,Verified,100
20163050140,CIE,BIO102,3,BIO,2017,2,17,12,40,4,Pass,Verified,100
20163050170,CIE,BIO102,3,BIO,2017,2,15,0,36,0,Outstanding,Verified,100
20163050215,CIE,BIO102,3,BIO,2017,2,14,13,34,4,Pass,Verified,100
20162035020,IMT,BIO102,3,BIO,2017,2,13,12,32,3,Pass,Verified,100
20162035050,IMT,BIO102,3,BIO,2017,2,16,10,38,4,Pass,Verified,100
20162035080,IMT,BIO102,3,BIO,2017,2,15,13,36,4,Pass,Verified,100
20162035095,IMT,BIO102,3,BIO,2017,2,13,4,32,2,Pass,Verified,100
20163055005,MEE,BIO102,3,BIO,2017,2,11,13,28,3,Pass,Verified,100
20163055020,MEE,BIO102,3,BIO,2017,2,13,11,32,3,Pass,Verified,100
20163055110,MEE,BIO102,3,BIO,2017,2,16,13,38,4,Pass,Verified,100
20163055155,MEE,BIO102,3,BIO,2017,2,14,10,34,3,Pass,Verified,100
20163055185,MEE,BIO102,3,BIO,2017,2,16,12,38,4,Pass,Verified,100
20161030005,MTH,BIO102,3,BIO,2017,2,15,12,36,4,Pass,Verified,100
20161030035,MTH,BIO102,3,BIO,2017,2,14,13,34,4,Pass,Verified,100
20161030095,MTH,BIO102,3,BIO,2017,2,10,10,26,2,Pass,Verified,100
20161030230,MTH,BIO102,3,BIO,2017,2,17,10,40,4,Pass,Verified,100
20161025155,PHY,BIO102,3,BIO,2017,2,15,13,36,4,Pass,Verified,100
20161025275,PHY,BIO102,3,BIO,2017,2,15,9,36,4,Pass,Verified,100
20161025290,PHY,BIO102,3,BIO,2017,2,17,12,40,4,Pass,Verified,100
20162040005,PMT,BIO102,3,BIO,2017,2,14,3,33,3,Pass,Verified,100
20162040035,PMT,BIO102,3,BIO,2017,2,13,12,31,3,Pass,Verified,100
20162040065,PMT,BIO102,3,BIO,2017,2,16,8,37,4,Pass,Verified,100
20162040110,PMT,BIO102,3,BIO,2017,2,15,11,35,4,Pass,Verified,100
20162040125,PMT,BIO102,3,BIO,2017,2,12,12,29,3,Pass,Verified,100
20161020050,BIO,CHM102,4,CHM,2017,2,15,14,37,4,Pass,Verified,100
20161020065,BIO,CHM102,4,CHM,2017,2,19,16,45,5,Pass,Verified,100
20161020125,BIO,CHM102,4,CHM,2017,2,9,13,25,2,Pass,Verified,100
20161020170,BIO,CHM102,4,CHM,2017,2,17,13,41,5,Pass,Verified,100
20161020185,BIO,CHM102,4,CHM,2017,2,14,14,35,4,Pass,Verified,100
20161020200,BIO,CHM102,4,CHM,2017,2,14,16,35,4,Pass,Verified,100
20161020215,BIO,CHM102,4,CHM,2017,2,19,15,45,5,Pass,Verified,100
20161020260,BIO,CHM102,4,CHM,2017,2,15,14,37,4,Pass,Verified,100
20163045050,CHE,CHM102,4,CHM,2017,2,16,15,39,5,Pass,Verified,100
20163045065,CHE,CHM102,4,CHM,2017,2,13,16,33,4,Pass,Verified,100
20163045095,CHE,CHM102,4,CHM,2017,2,12,13,31,3,Pass,Verified,100
20163045125,CHE,CHM102,4,CHM,2017,2,18,13,43,5,Pass,Verified,100
20163045200,CHE,CHM102,4,CHM,2017,2,14,14,35,4,Pass,Verified,100
20163045230,CHE,CHM102,4,CHM,2017,2,13,16,33,4,Pass,Verified,100
20161015020,CHM,CHM102,4,CHM,2017,2,12,7,31,3,Pass,Verified,100
20161015080,CHM,CHM102,4,CHM,2017,2,15,16,37,4,Pass,Verified,100
20161015110,CHM,CHM102,4,CHM,2017,2,14,12,35,4,Pass,Verified,100
20161015140,CHM,CHM102,4,CHM,2017,2,17,15,41,5,Pass,Verified,100
20161015245,CHM,CHM102,4,CHM,2017,2,16,16,39,5,Pass,Verified,100
20163050035,CIE,CHM102,4,CHM,2017,2,16,15,39,5,Pass,Verified,100
20163050080,CIE,CHM102,4,CHM,2017,2,15,14,37,4,Pass,Verified,100
20163050140,CIE,CHM102,4,CHM,2017,2,18,15,43,5,Pass,Verified,100
20163050170,CIE,CHM102,4,CHM,2017,2,17,1,41,3,Pass,Verified,100
20163050215,CIE,CHM102,4,CHM,2017,2,15,16,37,4,Pass,Verified,100
20162035020,IMT,CHM102,4,CHM,2017,2,14,15,35,4,Pass,Verified,100
20162035050,IMT,CHM102,4,CHM,2017,2,17,1,41,3,Pass,Verified,100
20162035080,IMT,CHM102,4,CHM,2017,2,16,16,39,5,Pass,Verified,100
20162035095,IMT,CHM102,4,CHM,2017,2,13,7,33,3,Pass,Verified,100
20163055005,MEE,CHM102,4,CHM,2017,2,12,16,31,3,Pass,Verified,100
20163055020,MEE,CHM102,4,CHM,2017,2,14,14,35,4,Pass,Verified,100
20163055110,MEE,CHM102,4,CHM,2017,2,17,16,41,5,Pass,Verified,100
20163055155,MEE,CHM102,4,CHM,2017,2,15,13,37,4,Pass,Verified,100
20163055185,MEE,CHM102,4,CHM,2017,2,17,15,41,5,Pass,Verified,100
20161030005,MTH,CHM102,4,CHM,2017,2,16,15,39,5,Pass,Verified,100
20161030035,MTH,CHM102,4,CHM,2017,2,15,16,37,4,Pass,Verified,100
20161030095,MTH,CHM102,4,CHM,2017,2,11,13,29,3,Pass,Verified,100
20161030230,MTH,CHM102,4,CHM,2017,2,19,13,45,5,Pass,Verified,100
20161025155,PHY,CHM102,4,CHM,2017,2,17,16,41,5,Pass,Verified,100
20161025275,PHY,CHM102,4,CHM,2017,2,16,12,39,4,Pass,Verified,100
20161025290,PHY,CHM102,4,CHM,2017,2,19,15,45,5,Pass,Verified,100
20162040005,PMT,CHM102,4,CHM,2017,2,15,6,35,3,Pass,Verified,100
20162040035,PMT,CHM102,4,CHM,2017,2,14,15,33,4,Pass,Verified,100
20162040065,PMT,CHM102,4,CHM,2017,2,17,11,39,4,Pass,Verified,100
20162040110,PMT,CHM102,4,CHM,2017,2,16,14,37,4,Pass,Verified,100
20162040125,PMT,CHM102,4,CHM,2017,2,12,15,29,3,Pass,Verified,100
20162040005,PMT,CHM102,4,CHM,2017,2,17,15,39,5,Pass,Verified,100
20162040035,PMT,CHM102,4,CHM,2017,2,13,11,31,3,Pass,Verified,100
20162040065,PMT,CHM102,4,CHM,2017,2,10,14,25,2,Pass,Verified,100
20162040110,PMT,CHM102,4,CHM,2017,2,17,15,39,5,Pass,Verified,100
20162040125,PMT,CHM102,4,CHM,2017,2,18,13,41,5,Pass,Verified,100
20161020050,BIO,ENG102,1,MEE,2017,2,12,17,41,5,Pass,Verified,100
20161020065,BIO,ENG102,1,MEE,2017,2,17,8,42,4,Pass,Verified,100
20161020125,BIO,ENG102,1,MEE,2017,2,6,0,12,0,Outstanding,Verified,100
20161020170,BIO,ENG102,1,MEE,2017,2,15,16,46,5,Pass,Verified,100
20161020185,BIO,ENG102,1,MEE,2017,2,11,16,38,4,Pass,Verified,100
20161020200,BIO,ENG102,1,MEE,2017,2,11,17,39,4,Pass,Verified,100
20161020215,BIO,ENG102,1,MEE,2017,2,16,14,46,5,Pass,Verified,100
20161020260,BIO,ENG102,1,MEE,2017,2,12,14,38,4,Pass,Verified,100
20163045050,CHE,ENG102,1,MEE,2017,2,13,17,43,5,Pass,Verified,100
20163045065,CHE,ENG102,1,MEE,2017,2,10,16,36,4,Pass,Verified,100
20163045095,CHE,ENG102,1,MEE,2017,2,9,15,33,3,Pass,Verified,100
20163045125,CHE,ENG102,1,MEE,2017,2,15,8,38,4,Pass,Verified,100
20163045200,CHE,ENG102,1,MEE,2017,2,11,10,22,0,Outstanding,Verified,100
20163045230,CHE,ENG102,1,MEE,2017,2,10,17,37,4,Pass,Verified,100
20161015020,CHM,ENG102,1,MEE,2017,2,8,15,31,3,Pass,Verified,100
20161015080,CHM,ENG102,1,MEE,2017,2,12,17,41,5,Pass,Verified,100
20161015110,CHM,ENG102,1,MEE,2017,2,11,14,36,4,Pass,Verified,100
20161015140,CHM,ENG102,1,MEE,2017,2,14,15,43,5,Pass,Verified,100
20161015245,CHM,ENG102,1,MEE,2017,2,13,16,42,5,Pass,Verified,100
20163050035,CIE,ENG102,1,MEE,2017,2,13,8,34,3,Pass,Verified,100
20163050080,CIE,ENG102,1,MEE,2017,2,12,17,41,5,Pass,Verified,100
20163050140,CIE,ENG102,1,MEE,2017,2,15,13,43,5,Pass,Verified,100
20163050170,CIE,ENG102,1,MEE,2017,2,14,16,44,5,Pass,Verified,100
20163050215,CIE,ENG102,1,MEE,2017,2,12,17,41,5,Pass,Verified,100
20162035020,IMT,ENG102,1,MEE,2017,2,11,15,37,4,Pass,Verified,100
20162035050,IMT,ENG102,1,MEE,2017,2,14,17,45,5,Pass,Verified,100
20162035080,IMT,ENG102,1,MEE,2017,2,13,16,42,5,Pass,Verified,100
20162035095,IMT,ENG102,1,MEE,2017,2,10,15,35,4,Pass,Verified,100
20163055005,MEE,ENG102,1,MEE,2017,2,9,8,26,0,Outstanding,Verified,100
20163055020,MEE,ENG102,1,MEE,2017,2,11,17,39,4,Pass,Verified,100
20163055110,MEE,ENG102,1,MEE,2017,2,15,13,43,5,Pass,Verified,100
20163055155,MEE,ENG102,1,MEE,2017,2,12,16,40,4,Pass,Verified,100
20163055185,MEE,ENG102,1,MEE,2017,2,14,17,45,5,Pass,Verified,100
20161030005,MTH,ENG102,1,MEE,2017,2,13,15,41,4,Pass,Verified,100
20161030035,MTH,ENG102,1,MEE,2017,2,12,17,41,5,Pass,Verified,100
20161030095,MTH,ENG102,1,MEE,2017,2,7,14,28,2,Pass,Verified,100
20161030230,MTH,ENG102,1,MEE,2017,2,16,16,48,5,Pass,Verified,100
20161025155,PHY,ENG102,1,MEE,2017,2,14,16,44,5,Pass,Verified,100
20161025275,PHY,ENG102,1,MEE,2017,2,13,5,26,0,Outstanding,Verified,100
20161025290,PHY,ENG102,1,MEE,2017,2,16,17,49,5,Pass,Verified,100
20162040005,PMT,ENG102,1,MEE,2017,2,14,15,33,4,Pass,Verified,100
20162040035,PMT,ENG102,1,MEE,2017,2,13,16,31,4,Pass,Verified,100
20162040065,PMT,ENG102,1,MEE,2017,2,16,0,37,0,Outstanding,Verified,100
20162040110,PMT,ENG102,1,MEE,2017,2,15,17,35,4,Pass,Verified,100
20162040125,PMT,ENG102,1,MEE,2017,2,11,8,27,2,Pass,Verified,100
20161020050,BIO,ENG104,1,MEE,2017,2,13,15,41,4,Pass,Verified,100
20161020065,BIO,ENG104,1,MEE,2017,2,17,17,51,5,Pass,Verified,100
20161020125,BIO,ENG104,1,MEE,2017,2,8,14,30,3,Pass,Verified,100
20161020170,BIO,ENG104,1,MEE,2017,2,15,14,44,5,Pass,Verified,100
20161020185,BIO,ENG104,1,MEE,2017,2,12,15,39,4,Pass,Verified,100
20161020200,BIO,ENG104,1,MEE,2017,2,12,17,41,5,Pass,Verified,100
20161020215,BIO,ENG104,1,MEE,2017,2,16,16,48,5,Pass,Verified,100
20161020260,BIO,ENG104,1,MEE,2017,2,13,15,41,4,Pass,Verified,100
20163045050,CHE,ENG104,1,MEE,2017,2,14,16,44,5,Pass,Verified,100
20163045065,CHE,ENG104,1,MEE,2017,2,12,17,41,5,Pass,Verified,100
20163045095,CHE,ENG104,1,MEE,2017,2,11,14,36,4,Pass,Verified,100
20163045125,CHE,ENG104,1,MEE,2017,2,16,14,46,5,Pass,Verified,100
20163045200,CHE,ENG104,1,MEE,2017,2,12,15,39,4,Pass,Verified,100
20163045230,CHE,ENG104,1,MEE,2017,2,11,17,39,4,Pass,Verified,100
20161015020,CHM,ENG104,1,MEE,2017,2,10,8,28,2,Pass,Verified,100
20161015080,CHM,ENG104,1,MEE,2017,2,13,17,43,5,Pass,Verified,100
20161015110,CHM,ENG104,1,MEE,2017,2,12,13,37,4,Pass,Verified,100
20161015140,CHM,ENG104,1,MEE,2017,2,15,16,46,5,Pass,Verified,100
20161015245,CHM,ENG104,1,MEE,2017,2,14,17,45,5,Pass,Verified,100
20163050035,CIE,ENG104,1,MEE,2017,2,14,16,44,5,Pass,Verified,100
20163050080,CIE,ENG104,1,MEE,2017,2,13,15,41,4,Pass,Verified,100
20163050140,CIE,ENG104,1,MEE,2017,2,16,16,48,5,Pass,Verified,100
20163050170,CIE,ENG104,1,MEE,2017,2,14,0,28,0,Outstanding,Verified,100
20163050215,CIE,ENG104,1,MEE,2017,2,13,17,43,5,Pass,Verified,100
20162035020,IMT,ENG104,1,MEE,2017,2,12,16,40,4,Pass,Verified,100
20162035050,IMT,ENG104,1,MEE,2017,2,15,10,30,3,Pass,Verified,100
20162035080,IMT,ENG104,1,MEE,2017,2,14,17,45,5,Pass,Verified,100
20162035095,IMT,ENG104,1,MEE,2017,2,12,8,32,3,Pass,Verified,100
20163055005,MEE,ENG104,1,MEE,2017,2,10,17,37,4,Pass,Verified,100
20163055020,MEE,ENG104,1,MEE,2017,2,12,15,39,4,Pass,Verified,100
20163055110,MEE,ENG104,1,MEE,2017,2,15,17,47,5,Pass,Verified,100
20163055155,MEE,ENG104,1,MEE,2017,2,13,14,40,4,Pass,Verified,100
20163055185,MEE,ENG104,1,MEE,2017,2,15,16,46,5,Pass,Verified,100
20161030005,MTH,ENG104,1,MEE,2017,2,14,16,44,5,Pass,Verified,100
20161030035,MTH,ENG104,1,MEE,2017,2,13,17,43,5,Pass,Verified,100
20161030095,MTH,ENG104,1,MEE,2017,2,9,14,32,3,Pass,Verified,100
20161030230,MTH,ENG104,1,MEE,2017,2,16,14,46,5,Pass,Verified,100
20161025155,PHY,ENG104,1,MEE,2017,2,14,17,45,5,Pass,Verified,100
20161025275,PHY,ENG104,1,MEE,2017,2,14,13,41,4,Pass,Verified,100
20161025290,PHY,ENG104,1,MEE,2017,2,16,16,48,5,Pass,Verified,100
20162040005,PMT,ENG104,1,MEE,2017,2,13,7,31,3,Pass,Verified,100
20162040035,PMT,ENG104,1,MEE,2017,2,12,16,29,3,Pass,Verified,100
20162040065,PMT,ENG104,1,MEE,2017,2,15,12,35,4,Pass,Verified,100
20162040110,PMT,ENG104,1,MEE,2017,2,14,15,33,4,Pass,Verified,100
20162040125,PMT,ENG104,1,MEE,2017,2,11,16,27,3,Pass,Verified,100
20161020050,BIO,GST102,2,GST,2017,2,19,,43,4,Pass,Verified,100
20161020065,BIO,GST102,2,GST,2017,2,28,,61,5,Pass,Verified,100
20161020125,BIO,GST102,2,GST,2017,2,6,,17,0,Outstanding,Verified,100
20161020170,BIO,GST102,2,GST,2017,2,24,,53,5,Pass,Verified,100
20161020185,BIO,GST102,2,GST,2017,2,16,,37,3,Pass,Verified,100
20161020200,BIO,GST102,2,GST,2017,2,17,,39,3,Pass,Verified,100
20161020215,BIO,GST102,2,GST,2017,2,27,,59,5,Pass,Verified,100
20161020260,BIO,GST102,2,GST,2017,2,19,,43,4,Pass,Verified,100
20163045050,CHE,GST102,2,GST,2017,2,20,,45,4,Pass,Verified,100
20163045065,CHE,GST102,2,GST,2017,2,15,,35,3,Pass,Verified,100
20163045095,CHE,GST102,2,GST,2017,2,14,,33,2,Pass,Verified,100
20163045125,CHE,GST102,2,GST,2017,2,25,,55,5,Pass,Verified,100
20163045200,CHE,GST102,2,GST,2017,2,17,,39,3,Pass,Verified,100
20163045230,CHE,GST102,2,GST,2017,2,14,,33,2,Pass,Verified,100
20161015020,CHM,GST102,2,GST,2017,2,14,,33,2,Pass,Verified,100
20161015080,CHM,GST102,2,GST,2017,2,19,,43,4,Pass,Verified,100
20161015110,CHM,GST102,2,GST,2017,2,17,,39,3,Pass,Verified,100
20161015140,CHM,GST102,2,GST,2017,2,23,,51,5,Pass,Verified,100
20161015245,CHM,GST102,2,GST,2017,2,20,,45,4,Pass,Verified,100
20163050035,CIE,GST102,2,GST,2017,2,20,,45,4,Pass,Verified,100
20163050080,CIE,GST102,2,GST,2017,2,19,,43,4,Pass,Verified,100
20163050140,CIE,GST102,2,GST,2017,2,25,,55,5,Pass,Verified,100
20163050170,CIE,GST102,2,GST,2017,2,22,,49,5,Pass,Verified,100
20163050215,CIE,GST102,2,GST,2017,2,18,,41,3,Pass,Verified,100
20162035020,IMT,GST102,2,GST,2017,2,16,,37,3,Pass,Verified,100
20162035050,IMT,GST102,2,GST,2017,2,23,,51,5,Pass,Verified,100
20162035080,IMT,GST102,2,GST,2017,2,21,,47,4,Pass,Verified,100
20162035095,IMT,GST102,2,GST,2017,2,15,,35,3,Pass,Verified,100
20163055005,MEE,GST102,2,GST,2017,2,14,,33,2,Pass,Verified,100
20163055020,MEE,GST102,2,GST,2017,2,17,,39,3,Pass,Verified,100
20163055110,MEE,GST102,2,GST,2017,2,24,,53,5,Pass,Verified,100
20163055155,MEE,GST102,2,GST,2017,2,19,,43,4,Pass,Verified,100
20163055185,MEE,GST102,2,GST,2017,2,23,,51,5,Pass,Verified,100
20161030005,MTH,GST102,2,GST,2017,2,21,,47,4,Pass,Verified,100
20161030035,MTH,GST102,2,GST,2017,2,19,,43,4,Pass,Verified,100
20161030095,MTH,GST102,2,GST,2017,2,14,,33,2,Pass,Verified,100
20161030230,MTH,GST102,2,GST,2017,2,27,,59,5,Pass,Verified,100
20161025155,PHY,GST102,2,GST,2017,2,22,,49,5,Pass,Verified,100
20161025275,PHY,GST102,2,GST,2017,2,21,,47,4,Pass,Verified,100
20161025290,PHY,GST102,2,GST,2017,2,27,,59,5,Pass,Verified,100
20162040005,PMT,GST102,2,GST,2017,2,19,,43,4,Pass,Verified,100
20162040035,PMT,GST102,2,GST,2017,2,16,,37,3,Pass,Verified,100
20162040065,PMT,GST102,2,GST,2017,2,23,,51,5,Pass,Verified,100
20162040110,PMT,GST102,2,GST,2017,2,21,,47,4,Pass,Verified,100
20162040125,PMT,GST102,2,GST,2017,2,14,,33,2,Pass,Verified,100
20161020050,BIO,GST104,1,GST,2017,2,23,,51,5,Pass,Verified,100
20161020065,BIO,GST104,1,GST,2017,2,19,,43,4,Pass,Verified,100
20161020125,BIO,GST104,1,GST,2017,2,14,,33,2,Pass,Verified,100
20161020170,BIO,GST104,1,GST,2017,2,14,,33,2,Pass,Verified,100
20161020185,BIO,GST104,1,GST,2017,2,18,,41,3,Pass,Verified,100
20161020200,BIO,GST104,1,GST,2017,2,21,,47,4,Pass,Verified,100
20161020215,BIO,GST104,1,GST,2017,2,15,,35,3,Pass,Verified,100
20161020260,BIO,GST104,1,GST,2017,2,19,,43,4,Pass,Verified,100
20163045050,CHE,GST104,1,GST,2017,2,18,,41,3,Pass,Verified,100
20163045065,CHE,GST104,1,GST,2017,2,21,,47,4,Pass,Verified,100
20163045095,CHE,GST104,1,GST,2017,2,14,,33,2,Pass,Verified,100
20163045125,CHE,GST104,1,GST,2017,2,19,,43,4,Pass,Verified,100
20163045200,CHE,GST104,1,GST,2017,2,22,,49,5,Pass,Verified,100
20163045230,CHE,GST104,1,GST,2017,2,22,,49,5,Pass,Verified,100
20161015020,CHM,GST104,1,GST,2017,2,16,,37,3,Pass,Verified,100
20161015080,CHM,GST104,1,GST,2017,2,17,,39,3,Pass,Verified,100
20161015110,CHM,GST104,1,GST,2017,2,22,,49,5,Pass,Verified,100
20161015140,CHM,GST104,1,GST,2017,2,14,,33,2,Pass,Verified,100
20161015245,CHM,GST104,1,GST,2017,2,19,,43,4,Pass,Verified,100
20163050035,CIE,GST104,1,GST,2017,2,14,,33,2,Pass,Verified,100
20163050080,CIE,GST104,1,GST,2017,2,8,,21,0,Outstanding,Verified,100
20163050140,CIE,GST104,1,GST,2017,2,14,,33,2,Pass,Verified,100
20163050170,CIE,GST104,1,GST,2017,2,15,,35,3,Pass,Verified,100
20163050215,CIE,GST104,1,GST,2017,2,25,,55,5,Pass,Verified,100
20162035020,IMT,GST104,1,GST,2017,2,22,,49,5,Pass,Verified,100
20162035050,IMT,GST104,1,GST,2017,2,22,,49,5,Pass,Verified,100
20162035080,IMT,GST104,1,GST,2017,2,14,,33,2,Pass,Verified,100
20162035095,IMT,GST104,1,GST,2017,2,8,,21,0,Outstanding,Verified,100
20163055005,MEE,GST104,1,GST,2017,2,16,,37,3,Pass,Verified,100
20163055020,MEE,GST104,1,GST,2017,2,14,,33,2,Pass,Verified,100
20163055110,MEE,GST104,1,GST,2017,2,21,,47,4,Pass,Verified,100
20163055155,MEE,GST104,1,GST,2017,2,14,,33,2,Pass,Verified,100
20163055185,MEE,GST104,1,GST,2017,2,14,,33,2,Pass,Verified,100
20161030005,MTH,GST104,1,GST,2017,2,23,,51,5,Pass,Verified,100
20161030035,MTH,GST104,1,GST,2017,2,25,,55,5,Pass,Verified,100
20161030095,MTH,GST104,1,GST,2017,2,17,,39,3,Pass,Verified,100
20161030230,MTH,GST104,1,GST,2017,2,22,,49,5,Pass,Verified,100
20161025155,PHY,GST104,1,GST,2017,2,23,,51,5,Pass,Verified,100
20161025275,PHY,GST104,1,GST,2017,2,25,,55,5,Pass,Verified,100
20161025290,PHY,GST104,1,GST,2017,2,14,,33,2,Pass,Verified,100
20162040005,PMT,GST104,1,GST,2017,2,22,,49,5,Pass,Verified,100
20162040035,PMT,GST104,1,GST,2017,2,14,,33,2,Pass,Verified,100
20162040065,PMT,GST104,1,GST,2017,2,8,,21,0,Outstanding,Verified,100
20162040110,PMT,GST104,1,GST,2017,2,23,,51,5,Pass,Verified,100
20162040125,PMT,GST104,1,GST,2017,2,25,,55,5,Pass,Verified,100
20161020050,BIO,MTH102,4,MTH,2017,2,21,,45,4,Pass,Verified,100
20161020065,BIO,MTH102,4,MTH,2017,2,29,,61,5,Pass,Verified,100
20161020125,BIO,MTH102,4,MTH,2017,2,15,,32,2,Pass,Verified,100
20161020170,BIO,MTH102,4,MTH,2017,2,25,,53,5,Pass,Verified,100
20161020185,BIO,MTH102,4,MTH,2017,2,19,,41,4,Pass,Verified,100
20161020200,BIO,MTH102,4,MTH,2017,2,19,,41,4,Pass,Verified,100
20161020215,BIO,MTH102,4,MTH,2017,2,27,,57,5,Pass,Verified,100
20161020260,BIO,MTH102,4,MTH,2017,2,21,,45,4,Pass,Verified,100
20163045050,CHE,MTH102,4,MTH,2017,2,23,,49,5,Pass,Verified,100
20163045065,CHE,MTH102,4,MTH,2017,2,19,,41,4,Pass,Verified,100
20163045095,CHE,MTH102,4,MTH,2017,2,17,,37,3,Pass,Verified,100
20163045125,CHE,MTH102,4,MTH,2017,2,27,,57,5,Pass,Verified,100
20163045200,CHE,MTH102,4,MTH,2017,2,19,,41,4,Pass,Verified,100
20163045230,CHE,MTH102,4,MTH,2017,2,17,,37,3,Pass,Verified,100
20161015020,CHM,MTH102,4,MTH,2017,2,15,,33,2,Pass,Verified,100
20161015080,CHM,MTH102,4,MTH,2017,2,21,,45,4,Pass,Verified,100
20161015110,CHM,MTH102,4,MTH,2017,2,19,,41,4,Pass,Verified,100
20161015140,CHM,MTH102,4,MTH,2017,2,25,,53,5,Pass,Verified,100
20161015245,CHM,MTH102,4,MTH,2017,2,23,,49,5,Pass,Verified,100
20163050035,CIE,MTH102,4,MTH,2017,2,23,,49,5,Pass,Verified,100
20163050080,CIE,MTH102,4,MTH,2017,2,21,,45,4,Pass,Verified,100
20163050140,CIE,MTH102,4,MTH,2017,2,27,,57,5,Pass,Verified,100
20163050170,CIE,MTH102,4,MTH,2017,2,23,,49,5,Pass,Verified,100
20163050215,CIE,MTH102,4,MTH,2017,2,21,,45,4,Pass,Verified,100
20162035020,IMT,MTH102,4,MTH,2017,2,19,,41,4,Pass,Verified,100
20162035050,IMT,MTH102,4,MTH,2017,2,25,,53,5,Pass,Verified,100
20162035080,IMT,MTH102,4,MTH,2017,2,23,,49,5,Pass,Verified,100
20162035095,IMT,MTH102,4,MTH,2017,2,19,,41,4,Pass,Verified,100
20163055005,MEE,MTH102,4,MTH,2017,2,15,,33,2,Pass,Verified,100
20163055020,MEE,MTH102,4,MTH,2017,2,19,,41,4,Pass,Verified,100
20163055110,MEE,MTH102,4,MTH,2017,2,25,,53,5,Pass,Verified,100
20163055155,MEE,MTH102,4,MTH,2017,2,21,,45,4,Pass,Verified,100
20163055185,MEE,MTH102,4,MTH,2017,2,25,,53,5,Pass,Verified,100
20161030005,MTH,MTH102,4,MTH,2017,2,23,,49,5,Pass,Verified,100
20161030035,MTH,MTH102,4,MTH,2017,2,21,,45,4,Pass,Verified,100
20161030095,MTH,MTH102,4,MTH,2017,2,15,,32,2,Pass,Verified,100
20161030230,MTH,MTH102,4,MTH,2017,2,27,,57,5,Pass,Verified,100
20161025155,PHY,MTH102,4,MTH,2017,2,23,,49,5,Pass,Verified,100
20161025275,PHY,MTH102,4,MTH,2017,2,23,,49,5,Pass,Verified,100
20161025290,PHY,MTH102,4,MTH,2017,2,27,,57,5,Pass,Verified,100
20162040005,PMT,MTH102,4,MTH,2017,2,21,,47,4,Pass,Verified,100
20162040035,PMT,MTH102,4,MTH,2017,2,19,,43,4,Pass,Verified,100
20162040065,PMT,MTH102,4,MTH,2017,2,25,,55,5,Pass,Verified,100
20162040110,PMT,MTH102,4,MTH,2017,2,23,,51,5,Pass,Verified,100
20162040125,PMT,MTH102,4,MTH,2017,2,17,,39,3,Pass,Verified,100
20161020050,BIO,PHY102,4,PHY,2017,2,17,13,44,5,Pass,Verified,100
20161020065,BIO,PHY102,4,PHY,2017,2,15,15,40,5,Pass,Verified,100
20161020125,BIO,PHY102,4,PHY,2017,2,11,12,32,3,Pass,Verified,100
20161020170,BIO,PHY102,4,PHY,2017,2,12,12,34,3,Pass,Verified,100
20161020185,BIO,PHY102,4,PHY,2017,2,15,13,40,4,Pass,Verified,100
20161020200,BIO,PHY102,4,PHY,2017,2,16,15,42,5,Pass,Verified,100
20161020215,BIO,PHY102,4,PHY,2017,2,13,14,36,4,Pass,Verified,100
20161020260,BIO,PHY102,4,PHY,2017,2,15,13,40,4,Pass,Verified,100
20163045050,CHE,PHY102,4,PHY,2017,2,15,14,40,4,Pass,Verified,100
20163045065,CHE,PHY102,4,PHY,2017,2,16,15,42,5,Pass,Verified,100
20163045095,CHE,PHY102,4,PHY,2017,2,12,12,34,3,Pass,Verified,100
20163045125,CHE,PHY102,4,PHY,2017,2,15,12,40,4,Pass,Verified,100
20163045200,CHE,PHY102,4,PHY,2017,2,17,13,44,5,Pass,Verified,100
20163045230,CHE,PHY102,4,PHY,2017,2,17,15,44,5,Pass,Verified,100
20161015020,CHM,PHY102,4,PHY,2017,2,14,6,38,3,Pass,Verified,100
20161015080,CHM,PHY102,4,PHY,2017,2,14,15,38,4,Pass,Verified,100
20161015110,CHM,PHY102,4,PHY,2017,2,17,11,44,5,Pass,Verified,100
20161015140,CHM,PHY102,4,PHY,2017,2,12,14,34,4,Pass,Verified,100
20161015245,CHM,PHY102,4,PHY,2017,2,15,15,40,5,Pass,Verified,100
20163050035,CIE,PHY102,4,PHY,2017,2,13,14,36,4,Pass,Verified,100
20163050080,CIE,PHY102,4,PHY,2017,2,10,13,30,3,Pass,Verified,100
20163050140,CIE,PHY102,4,PHY,2017,2,12,14,34,4,Pass,Verified,100
20163050170,CIE,PHY102,4,PHY,2017,2,13,2,36,3,Pass,Verified,100
20163050215,CIE,PHY102,4,PHY,2017,2,18,15,46,5,Pass,Verified,100
20162035020,IMT,PHY102,4,PHY,2017,2,17,14,44,5,Pass,Verified,100
20162035050,IMT,PHY102,4,PHY,2017,2,17,2,44,4,Pass,Verified,100
20162035080,IMT,PHY102,4,PHY,2017,2,13,15,36,4,Pass,Verified,100
20162035095,IMT,PHY102,4,PHY,2017,2,10,6,30,2,Pass,Verified,100
20163055005,MEE,PHY102,4,PHY,2017,2,14,15,38,4,Pass,Verified,100
20163055020,MEE,PHY102,4,PHY,2017,2,12,13,34,3,Pass,Verified,100
20163055110,MEE,PHY102,4,PHY,2017,2,16,15,42,5,Pass,Verified,100
20163055155,MEE,PHY102,4,PHY,2017,2,13,12,36,4,Pass,Verified,100
20163055185,MEE,PHY102,4,PHY,2017,2,12,14,34,4,Pass,Verified,100
20161030005,MTH,PHY102,4,PHY,2017,2,17,14,44,5,Pass,Verified,100
20161030035,MTH,PHY102,4,PHY,2017,2,18,15,46,5,Pass,Verified,100
20161030095,MTH,PHY102,4,PHY,2017,2,14,12,38,4,Pass,Verified,100
20161030230,MTH,PHY102,4,PHY,2017,2,15,12,40,4,Pass,Verified,100
20161025155,PHY,PHY102,4,PHY,2017,2,17,15,44,5,Pass,Verified,100
20161025275,PHY,PHY102,4,PHY,2017,2,18,11,46,5,Pass,Verified,100
20161025290,PHY,PHY102,4,PHY,2017,2,12,14,34,4,Pass,Verified,100
