reg_no,dept,student_reg_no,student_dept
20171020200,BIO,20161020050,BIO
20171020260,BIO,20161020065,BIO
20171020215,BIO,20161020125,BIO
20171020185,BIO,20161020170,BIO
20171020170,BIO,20161020185,BIO
20171020125,BIO,20161020200,BIO
20171020065,BIO,20161020215,BIO
20171020050,BIO,20161020260,BIO
20173045065,CHE,20163045050,CHE
20173045095,CHE,20163045065,CHE
20173045125,CHE,20163045095,CHE
20173045200,CHE,20163045125,CHE
20173045230,CHE,20163045200,CHE
20173045050,CHE,20163045230,CHE
20171015080,CHM,20161015020,CHM
20171015110,CHM,20161015080,CHM
20171015020,CHM,20161015110,CHM
20171015140,CHM,20161015140,CHM
20171015245,CHM,20161015245,CHM
20173050140,CIE,20163050035,CIE
20173050170,CIE,20163050080,CIE
20173050035,CIE,20163050140,CIE
20173050080,CIE,20163050170,CIE
20173050215,CIE,20163050215,CIE
20172035095,IMT,20162035020,IMT
20172035080,IMT,20162035050,IMT
20172035020,IMT,20162035080,IMT
20172035050,IMT,20162035095,IMT
20173055185,MEE,20163055005,MEE
20173055155,MEE,20163055020,MEE
20173055110,MEE,20163055110,MEE
20173055020,MEE,20163055155,MEE
20173055005,MEE,20163055185,MEE
20171030035,MTH,20161030005,MTH
20171030005,MTH,20161030035,MTH
20171030095,MTH,20161030095,MTH
20171030230,MTH,20161030230,MTH
20171025155,PHY,20161025155,PHY
20171025275,PHY,20161025275,PHY
20171025290,PHY,20161025290,PHY
20172040005,PMT,20162040005,PMT
20172040035,PMT,20162040035,PMT
20172040065,PMT,20162040065,PMT
20172040110,PMT,20162040110,PMT
20172040125,PMT,20162040125,PMT
